# This file uses centimeters as units for non-parametric coordinates.

mtllib E-03.mtl
g default
v 5.179758 2.747533 24.268436
v 5.179758 2.747533 24.168900
v 5.179758 4.985267 24.268436
v 5.179758 4.985267 24.168900
v 3.915524 4.985267 24.268436
v 3.915524 4.985267 24.168900
v 3.915524 2.747533 24.268436
v 3.915524 2.747533 24.168900
v 4.010715 2.835975 24.168900
v 5.084568 2.835975 24.168900
v 4.010715 4.896825 24.168900
v 5.084568 4.896825 24.168900
v 4.010715 2.835975 24.254166
v 5.084568 2.835975 24.254166
v 4.010715 4.896825 24.254166
v 5.084568 4.896825 24.254166
v 4.937878 3.828198 24.199669
v 4.937878 3.786531 24.199669
v 4.980205 3.765698 24.199669
v 5.022532 3.786531 24.199669
v 5.022532 3.828198 24.199669
v 4.980205 3.849032 24.199669
v 4.937878 3.828198 24.223202
v 4.937878 3.786531 24.223202
v 4.980205 3.765698 24.223202
v 5.022532 3.786531 24.223202
v 5.022532 3.828198 24.223202
v 4.980205 3.849032 24.223202
v 4.980205 3.807365 24.199669
v 4.980205 3.807365 24.223202
v 4.964393 3.816147 24.151237
v 4.964393 3.801436 24.151237
v 4.979336 3.794080 24.151237
v 4.994280 3.801436 24.151237
v 4.994280 3.816147 24.151237
v 4.979336 3.823502 24.151237
v 4.953453 3.821531 24.162008
v 4.953453 3.796052 24.162008
v 4.979336 3.783311 24.162008
v 5.005220 3.796052 24.162008
v 5.005220 3.821531 24.162008
v 4.979336 3.834271 24.162008
v 4.949449 3.823502 24.176720
v 4.949449 3.794080 24.176720
v 4.979336 3.779370 24.176720
v 5.009224 3.794080 24.176720
v 5.009224 3.823502 24.176720
v 4.979336 3.838213 24.176720
v 4.953453 3.821531 24.191429
v 4.953453 3.796052 24.191429
v 4.979336 3.783311 24.191429
v 5.005220 3.796052 24.191429
v 5.005220 3.821531 24.191429
v 4.979336 3.834271 24.191429
v 4.964393 3.816147 24.202198
v 4.964393 3.801436 24.202198
v 4.979336 3.794080 24.202198
v 4.994280 3.801436 24.202198
v 4.994280 3.816147 24.202198
v 4.979336 3.823502 24.202198
v 4.979336 3.808791 24.147297
v 4.979336 3.808791 24.206141
vt 0.001901 0.001992
vt 0.025862 0.001992
vt 0.025862 0.540677
vt 0.001901 0.540677
vt 0.055800 0.540677
vt 0.031839 0.540677
vt 0.031839 0.001992
vt 0.055800 0.001992
vt 0.952202 0.501904
vt 0.952202 0.998008
vt 0.931676 0.998008
vt 0.931676 0.501904
vt 0.905297 0.998008
vt 0.905297 0.501904
vt 0.925823 0.501904
vt 0.925823 0.998008
vt 0.644411 0.554515
vt 0.644411 0.544485
vt 0.650076 0.544485
vt 0.650076 0.554515
vt 0.638558 0.544485
vt 0.638558 0.554515
vt 0.632893 0.554515
vt 0.632893 0.544485
vt 0.675472 0.554160
vt 0.669339 0.554160
vt 0.668864 0.550618
vt 0.675947 0.550618
vt 0.674176 0.556753
vt 0.670635 0.556753
vt 0.669339 0.547077
vt 0.675472 0.547077
vt 0.670635 0.544485
vt 0.674176 0.544485
vt 0.656403 0.547078
vt 0.662536 0.547078
vt 0.663011 0.550619
vt 0.655929 0.550619
vt 0.657699 0.544485
vt 0.661241 0.544485
vt 0.662536 0.554160
vt 0.656403 0.554160
vt 0.661241 0.556753
vt 0.657699 0.556753
vt 0.875483 0.501904
vt 0.899444 0.501904
vt 0.899444 0.806240
vt 0.875483 0.806240
vt 0.869629 0.806240
vt 0.845668 0.806240
vt 0.845668 0.501904
vt 0.869629 0.501904
vt 0.839814 0.501904
vt 0.839814 0.760410
vt 0.819289 0.760410
vt 0.819289 0.501904
vt 0.792910 0.760410
vt 0.792910 0.501904
vt 0.813435 0.501904
vt 0.813435 0.760410
vt 0.781391 0.522282
vt 0.781391 0.512093
vt 0.787056 0.512093
vt 0.787056 0.522282
vt 0.781391 0.501904
vt 0.787056 0.501904
vt 0.775537 0.501904
vt 0.775537 0.512093
vt 0.769872 0.512093
vt 0.769872 0.501904
vt 0.775537 0.522283
vt 0.769872 0.522283
vt 0.702515 0.515329
vt 0.702515 0.509098
vt 0.706056 0.509098
vt 0.706056 0.516294
vt 0.699922 0.512696
vt 0.699922 0.509098
vt 0.702515 0.502868
vt 0.706056 0.501904
vt 0.709597 0.509098
vt 0.709597 0.515329
vt 0.699922 0.505501
vt 0.709597 0.502868
vt 0.712190 0.509098
vt 0.712190 0.512696
vt 0.712190 0.505501
vt 0.691475 0.545448
vt 0.691475 0.551679
vt 0.687934 0.551679
vt 0.687934 0.544484
vt 0.694068 0.548082
vt 0.694068 0.551679
vt 0.691475 0.557910
vt 0.687934 0.558874
vt 0.684392 0.551679
vt 0.684392 0.545448
vt 0.694068 0.555276
vt 0.684392 0.557910
vt 0.681800 0.551679
vt 0.681800 0.548082
vt 0.681800 0.555276
vt 0.943029 0.498096
vt 0.684523 0.498096
vt 0.684523 0.001992
vt 0.943029 0.001992
vt 0.063450 0.001992
vt 0.367787 0.001992
vt 0.367787 0.540677
vt 0.063450 0.540677
vt 0.678323 0.540677
vt 0.373987 0.540677
vt 0.396902 0.519386
vt 0.655408 0.519386
vt 0.373987 0.001992
vt 0.396902 0.023282
vt 0.678323 0.001992
vt 0.655408 0.023282
vt 0.759003 0.522283
vt 0.748973 0.522283
vt 0.753988 0.512093
vt 0.743958 0.512093
vt 0.764019 0.512093
vt 0.748973 0.501904
vt 0.759003 0.501904
vt 0.733089 0.522283
vt 0.723059 0.522283
vt 0.728074 0.512093
vt 0.718043 0.512093
vt 0.738104 0.512093
vt 0.723059 0.501904
vt 0.733089 0.501904
vt 0.625268 0.551679
vt 0.621727 0.551679
vt 0.623498 0.548082
vt 0.619956 0.548082
vt 0.627039 0.548082
vt 0.621727 0.544485
vt 0.625268 0.544485
vt 0.612332 0.551679
vt 0.608791 0.551679
vt 0.610561 0.548082
vt 0.607020 0.548082
vt 0.614103 0.548082
vt 0.608791 0.544485
vt 0.612332 0.544485
vn 1.000000 0.000000 0.000000
vn 1.000000 0.000000 0.000000
vn 1.000000 0.000000 0.000000
vn 1.000000 0.000000 0.000000
vn 0.000000 1.000000 0.000000
vn 0.000000 1.000000 0.000000
vn 0.000000 1.000000 0.000000
vn 0.000000 1.000000 0.000000
vn -1.000000 0.000000 0.000000
vn -1.000000 0.000000 0.000000
vn -1.000000 0.000000 0.000000
vn -1.000000 0.000000 0.000000
vn 0.000000 -1.000000 0.000000
vn 0.000000 -1.000000 0.000000
vn 0.000000 -1.000000 0.000000
vn 0.000000 -1.000000 0.000000
vn 0.000000 0.000000 -1.000000
vn 0.000000 0.000000 -1.000000
vn 0.000000 0.000000 -1.000000
vn 0.000000 0.000000 -1.000000
vn 0.000000 0.000000 1.000000
vn 0.000000 0.000000 1.000000
vn 0.000000 0.000000 1.000000
vn 0.000000 0.000000 1.000000
vn 0.000000 0.000000 -1.000000
vn 0.000000 0.000000 -1.000000
vn 0.000000 0.000000 -1.000000
vn 0.000000 0.000000 -1.000000
vn -0.000003 0.000000 -1.000000
vn -0.000003 0.000000 -1.000000
vn -0.000003 0.000000 -1.000000
vn -0.000003 0.000000 -1.000000
vn 0.000000 0.000000 -1.000000
vn 0.000000 0.000000 -1.000000
vn 0.000000 0.000000 -1.000000
vn 0.000000 0.000000 -1.000000
vn 0.000002 0.000000 -1.000000
vn 0.000002 0.000000 -1.000000
vn 0.000002 0.000000 -1.000000
vn 0.000002 0.000000 -1.000000
vn 0.000000 1.000000 0.000000
vn 0.000000 1.000000 0.000000
vn 0.000000 1.000000 0.000000
vn 0.000000 1.000000 0.000000
vn 1.000000 0.000000 0.000000
vn 1.000000 0.000000 0.000000
vn 1.000000 0.000000 0.000000
vn 1.000000 0.000000 0.000000
vn 0.000000 -1.000000 0.000000
vn 0.000000 -1.000000 0.000000
vn 0.000000 -1.000000 0.000000
vn 0.000000 -1.000000 0.000000
vn -1.000000 0.000000 0.000000
vn -1.000000 0.000000 0.000000
vn -1.000000 0.000000 0.000000
vn -1.000000 0.000000 0.000000
vn -1.000000 0.000000 0.000000
vn -1.000000 0.000000 0.000000
vn -1.000000 0.000000 0.000000
vn -1.000000 0.000000 0.000000
vn -0.441592 -0.897216 0.000000
vn -0.441592 -0.897216 0.000000
vn -0.441592 -0.897216 0.000000
vn -0.441592 -0.897216 0.000000
vn 0.441592 -0.897216 0.000000
vn 0.441592 -0.897216 0.000000
vn 0.441592 -0.897216 0.000000
vn 0.441592 -0.897216 0.000000
vn 1.000000 0.000000 0.000000
vn 1.000000 0.000000 0.000000
vn 1.000000 0.000000 0.000000
vn 1.000000 0.000000 0.000000
vn 0.441592 0.897216 0.000000
vn 0.441592 0.897216 0.000000
vn 0.441592 0.897216 0.000000
vn 0.441592 0.897216 0.000000
vn -0.441592 0.897216 0.000000
vn -0.441592 0.897216 0.000000
vn -0.441592 0.897216 0.000000
vn -0.441592 0.897216 0.000000
vn 0.000000 0.000000 -1.000000
vn 0.000000 0.000000 -1.000000
vn 0.000000 0.000000 -1.000000
vn -0.000135 0.000000 -1.000000
vn -0.000135 0.000000 -1.000000
vn -0.000135 0.000000 -1.000000
vn 0.000068 0.000000 -1.000000
vn 0.000068 0.000000 -1.000000
vn 0.000068 0.000000 -1.000000
vn 0.000000 0.000000 -1.000000
vn 0.000000 0.000000 -1.000000
vn 0.000000 0.000000 -1.000000
vn 0.000135 0.000000 -1.000000
vn 0.000135 0.000000 -1.000000
vn 0.000135 0.000000 -1.000000
vn -0.000068 0.000000 -1.000000
vn -0.000068 0.000000 -1.000000
vn -0.000068 0.000000 -1.000000
vn 0.000000 0.000000 1.000000
vn 0.000000 0.000000 1.000000
vn 0.000000 0.000000 1.000000
vn -0.000068 0.000000 1.000000
vn -0.000068 0.000000 1.000000
vn -0.000068 0.000000 1.000000
vn 0.000135 0.000000 1.000000
vn 0.000135 0.000000 1.000000
vn 0.000135 0.000000 1.000000
vn 0.000000 0.000000 1.000000
vn 0.000000 0.000000 1.000000
vn 0.000000 0.000000 1.000000
vn 0.000068 0.000000 1.000000
vn 0.000068 0.000000 1.000000
vn 0.000068 0.000000 1.000000
vn -0.000135 0.000000 1.000000
vn -0.000135 0.000000 1.000000
vn -0.000135 0.000000 1.000000
vn -0.701567 0.000000 -0.712604
vn -0.701567 0.000000 -0.712604
vn -0.701567 0.000000 -0.712604
vn -0.701567 0.000000 -0.712604
vn -0.328819 -0.667843 -0.667730
vn -0.328819 -0.667843 -0.667730
vn -0.328819 -0.667843 -0.667730
vn -0.328819 -0.667843 -0.667730
vn 0.328778 -0.667853 -0.667740
vn 0.328778 -0.667853 -0.667740
vn 0.328778 -0.667853 -0.667740
vn 0.328778 -0.667853 -0.667740
vn 0.701567 0.000000 -0.712604
vn 0.701567 0.000000 -0.712604
vn 0.701567 0.000000 -0.712604
vn 0.701567 0.000000 -0.712604
vn 0.328819 0.667843 -0.667730
vn 0.328819 0.667843 -0.667730
vn 0.328819 0.667843 -0.667730
vn 0.328819 0.667843 -0.667730
vn -0.328778 0.667853 -0.667740
vn -0.328778 0.667853 -0.667740
vn -0.328778 0.667853 -0.667740
vn -0.328778 0.667853 -0.667740
vn -0.964901 0.000000 -0.262614
vn -0.964901 0.000000 -0.262614
vn -0.964901 0.000000 -0.262614
vn -0.964901 0.000000 -0.262614
vn -0.429361 -0.872364 -0.233732
vn -0.429361 -0.872364 -0.233732
vn -0.429361 -0.872364 -0.233732
vn -0.429361 -0.872364 -0.233732
vn 0.429360 -0.872362 -0.233740
vn 0.429360 -0.872362 -0.233740
vn 0.429360 -0.872362 -0.233740
vn 0.429360 -0.872362 -0.233740
vn 0.964901 0.000000 -0.262614
vn 0.964901 0.000000 -0.262614
vn 0.964901 0.000000 -0.262614
vn 0.964901 0.000000 -0.262614
vn 0.429367 0.872359 -0.233737
vn 0.429367 0.872359 -0.233737
vn 0.429367 0.872359 -0.233737
vn 0.429367 0.872359 -0.233737
vn -0.429354 0.872366 -0.233737
vn -0.429354 0.872366 -0.233737
vn -0.429354 0.872366 -0.233737
vn -0.429354 0.872366 -0.233737
vn -0.964887 0.000000 0.262666
vn -0.964887 0.000000 0.262666
vn -0.964887 0.000000 0.262666
vn -0.964887 0.000000 0.262666
vn -0.429351 -0.872360 0.233765
vn -0.429351 -0.872360 0.233765
vn -0.429351 -0.872360 0.233765
vn -0.429351 -0.872360 0.233765
vn 0.429370 -0.872351 0.233763
vn 0.429370 -0.872351 0.233763
vn 0.429370 -0.872351 0.233763
vn 0.429370 -0.872351 0.233763
vn 0.964887 0.000000 0.262666
vn 0.964887 0.000000 0.262666
vn 0.964887 0.000000 0.262666
vn 0.964887 0.000000 0.262666
vn 0.429344 0.872363 0.233764
vn 0.429344 0.872363 0.233764
vn 0.429344 0.872363 0.233764
vn 0.429344 0.872363 0.233764
vn -0.429376 0.872347 0.233766
vn -0.429376 0.872347 0.233766
vn -0.429376 0.872347 0.233766
vn -0.429376 0.872347 0.233766
vn -0.701469 0.000000 0.712700
vn -0.701469 0.000000 0.712700
vn -0.701469 0.000000 0.712700
vn -0.701469 0.000000 0.712700
vn -0.328684 -0.667814 0.667825
vn -0.328684 -0.667814 0.667825
vn -0.328684 -0.667814 0.667826
vn -0.328684 -0.667814 0.667825
vn 0.328722 -0.667810 0.667810
vn 0.328722 -0.667810 0.667810
vn 0.328722 -0.667810 0.667810
vn 0.328722 -0.667810 0.667810
vn 0.701469 0.000000 0.712700
vn 0.701469 0.000000 0.712700
vn 0.701469 0.000000 0.712700
vn 0.701469 0.000000 0.712700
vn 0.328682 0.667820 0.667820
vn 0.328682 0.667820 0.667820
vn 0.328682 0.667820 0.667820
vn 0.328682 0.667820 0.667820
vn -0.328725 0.667804 0.667816
vn -0.328725 0.667804 0.667816
vn -0.328725 0.667804 0.667816
vn -0.328725 0.667804 0.667816
vn -0.254847 0.000000 -0.966982
vn -0.254847 0.000000 -0.966982
vn -0.254847 0.000000 -0.966982
vn -0.126260 -0.256661 -0.958219
vn -0.126260 -0.256661 -0.958219
vn -0.126260 -0.256661 -0.958219
vn 0.126260 -0.256661 -0.958219
vn 0.126260 -0.256661 -0.958219
vn 0.126260 -0.256661 -0.958219
vn 0.254847 0.000000 -0.966982
vn 0.254847 0.000000 -0.966982
vn 0.254847 0.000000 -0.966982
vn 0.126264 0.256669 -0.958216
vn 0.126264 0.256669 -0.958216
vn 0.126264 0.256669 -0.958216
vn -0.126264 0.256669 -0.958216
vn -0.126264 0.256669 -0.958216
vn -0.126264 0.256669 -0.958216
vn -0.255337 0.000000 0.966852
vn -0.255337 0.000000 0.966852
vn -0.255337 0.000000 0.966852
vn -0.126512 -0.256758 0.958160
vn -0.126512 -0.256758 0.958160
vn -0.126512 -0.256758 0.958160
vn 0.126512 -0.256758 0.958160
vn 0.126512 -0.256758 0.958160
vn 0.126512 -0.256758 0.958160
vn 0.255337 0.000000 0.966852
vn 0.255337 0.000000 0.966852
vn 0.255337 0.000000 0.966852
vn 0.126516 0.256766 0.958157
vn 0.126516 0.256766 0.958157
vn 0.126516 0.256766 0.958157
vn -0.126516 0.256766 0.958157
vn -0.126516 0.256766 0.958157
vn -0.126516 0.256766 0.958157
s off
g polySurface433
usemtl blinn7SG
f 1/1/1 2/2/2 4/3/3 3/4/4
f 3/45/5 4/46/6 6/47/7 5/48/8
f 5/5/9 6/6/10 8/7/11 7/8/12
f 7/49/13 8/50/14 2/51/15 1/52/16
f 14/103/17 13/104/18 15/105/19 16/106/20
f 7/107/21 1/108/22 3/109/23 5/110/24
f 2/111/25 8/112/26 9/113/27 10/114/28
f 8/112/29 6/115/30 11/116/31 9/113/32
f 6/115/33 4/117/34 12/118/35 11/116/36
f 4/117/37 2/111/38 10/114/39 12/118/40
f 10/53/41 9/54/42 13/55/43 14/56/44
f 9/9/45 11/10/46 15/11/47 13/12/48
f 11/57/49 12/58/50 16/59/51 15/60/52
f 12/13/53 10/14/54 14/15/55 16/16/56
f 17/17/57 18/18/58 24/19/59 23/20/60
f 18/61/61 19/62/62 25/63/63 24/64/64
f 19/62/65 20/65/66 26/66/67 25/63/68
f 20/21/69 21/22/70 27/23/71 26/24/72
f 21/67/73 22/68/74 28/69/75 27/70/76
f 22/68/77 17/71/78 23/72/79 28/69/80
f 18/119/81 17/120/82 29/121/83
f 19/123/84 18/119/85 29/121/86
f 20/125/87 19/123/88 29/121/89
f 21/124/90 20/125/91 29/121/92
f 22/122/93 21/124/94 29/121/95
f 17/120/96 22/122/97 29/121/98
f 23/126/99 24/127/100 30/128/101
f 24/127/102 25/129/103 30/128/104
f 25/129/105 26/131/106 30/128/107
f 26/131/108 27/132/109 30/128/110
f 27/132/111 28/130/112 30/128/113
f 28/130/114 23/126/115 30/128/116
f 31/29/117 32/30/118 38/26/119 37/25/120
f 32/77/121 33/78/122 39/74/123 38/73/124
f 33/78/125 34/83/126 40/79/127 39/74/128
f 34/39/129 35/40/130 41/36/131 40/35/132
f 35/92/133 36/93/134 42/89/135 41/88/136
f 36/93/137 31/98/138 37/94/139 42/89/140
f 37/25/141 38/26/142 44/27/143 43/28/144
f 38/73/145 39/74/146 45/75/147 44/76/148
f 39/74/149 40/79/150 46/80/151 45/75/152
f 40/35/153 41/36/154 47/37/155 46/38/156
f 41/88/157 42/89/158 48/90/159 47/91/160
f 42/89/161 37/94/162 43/95/163 48/90/164
f 43/28/165 44/27/166 50/31/167 49/32/168
f 44/76/169 45/75/170 51/81/171 50/82/172
f 45/75/173 46/80/174 52/84/175 51/81/176
f 46/38/177 47/37/178 53/41/179 52/42/180
f 47/91/181 48/90/182 54/96/183 53/97/184
f 48/90/185 43/95/186 49/99/187 54/96/188
f 49/32/189 50/31/190 56/33/191 55/34/192
f 50/82/193 51/81/194 57/85/195 56/86/196
f 51/81/197 52/84/198 58/87/199 57/85/200
f 52/42/201 53/41/202 59/43/203 58/44/204
f 53/97/205 54/96/206 60/100/207 59/101/208
f 54/96/209 49/99/210 55/102/211 60/100/212
f 32/133/213 31/134/214 61/135/215
f 33/137/216 32/133/217 61/135/218
f 34/139/219 33/137/220 61/135/221
f 35/138/222 34/139/223 61/135/224
f 36/136/225 35/138/226 61/135/227
f 31/134/228 36/136/229 61/135/230
f 55/140/231 56/141/232 62/142/233
f 56/141/234 57/143/235 62/142/236
f 57/143/237 58/145/238 62/142/239
f 58/145/240 59/146/241 62/142/242
f 59/146/243 60/144/244 62/142/245
f 60/144/246 55/140/247 62/142/248
g default
v -0.310225 2.537292 29.575207
v 8.986867 2.537292 29.575207
v 8.986867 2.748950 29.575207
v -0.310225 2.748950 29.575207
v -0.310225 2.537292 26.748667
v -0.310225 2.748950 26.748667
v 8.986867 2.537292 26.748667
v 8.986867 2.748950 26.748667
v 8.621710 2.748950 29.224838
v 0.054933 2.748950 29.224838
v -0.310225 2.537292 23.922129
v -0.310225 2.748950 23.922129
v 0.054933 2.748950 26.748667
v 8.986867 2.537292 23.922129
v 8.986867 2.748950 23.922129
v 8.621710 2.748950 26.748667
v 8.621710 6.096105 29.224838
v 0.054933 6.096105 29.224838
v 0.054933 2.748950 24.272495
v 0.054933 8.128992 26.748667
v 8.621710 2.748950 24.272495
v 8.621710 8.128992 26.748667
v 8.621710 5.840782 29.524836
v 0.054933 5.840782 29.524836
v 0.054933 6.096105 24.272495
v -0.245067 6.096105 29.224838
v -0.245067 8.128992 26.748667
v 8.621710 6.096105 24.272495
v 8.921709 8.128992 26.748667
v 8.921709 6.096105 29.224838
v -0.245067 5.840782 29.524836
v 8.921709 5.840782 29.524836
v 8.621710 6.121719 29.524836
v 0.054933 6.121719 29.524836
v 6.041111 3.874538 24.272495
v 7.596260 3.874538 24.272495
v 7.596260 5.151550 24.272495
v 6.041111 5.151550 24.272495
v 1.383796 3.874538 24.272495
v 2.938944 3.874538 24.272495
v 2.938944 5.151550 24.272495
v 1.383796 5.151550 24.272495
v -0.245067 6.096105 24.272495
v -0.245067 6.377043 29.224838
v -0.245067 8.580557 26.748667
v 8.921709 6.096105 24.272495
v 8.921709 8.580557 26.748667
v 8.921709 6.377043 29.224838
v -0.245067 6.121719 29.524836
v 8.921709 6.121719 29.524836
v 8.621710 6.377043 29.224838
v 0.054933 6.377043 29.224838
v 6.041111 3.874538 24.373356
v 7.596260 3.874538 24.373356
v 7.596260 5.151550 24.373356
v 6.041111 5.151550 24.373356
v 0.054933 5.840782 23.972496
v 8.621710 5.840782 23.972496
v -0.245067 5.840782 23.972496
v -0.245067 6.377043 24.272495
v 0.054933 8.580557 26.748667
v 8.921709 5.840782 23.972496
v 8.921709 6.377043 24.272495
v 8.621710 8.580557 26.748667
v 0.054933 6.121719 23.972496
v 8.621710 6.121719 23.972496
v -0.245067 6.121719 23.972496
v 0.054933 6.377043 24.272495
v 8.921709 6.121719 23.972496
v 8.621710 6.377043 24.272495
v 1.383796 3.874538 24.373356
v 1.383796 5.151550 24.373356
v 2.938944 5.151550 24.373356
v 2.938944 3.874538 24.373356
vt 0.523100 0.579695
vt 0.523100 0.445924
vt 0.533117 0.445924
vt 0.533117 0.579695
vt 0.523100 0.713466
vt 0.533117 0.713466
vt 0.506948 0.713466
vt 0.506948 0.579695
vt 0.516965 0.579695
vt 0.516965 0.713466
vt 0.506948 0.445924
vt 0.516965 0.445924
vt 0.119181 0.712689
vt 0.236370 0.712689
vt 0.236370 0.871100
vt 0.119181 0.967310
vt 0.001992 0.712689
vt 0.001992 0.871100
vt 0.243857 0.712689
vt 0.361046 0.712689
vt 0.361046 0.967310
vt 0.243857 0.871100
vt 0.478235 0.871100
vt 0.478235 0.712689
vt 0.479441 0.577311
vt 0.383231 0.460122
vt 0.396527 0.460122
vt 0.500812 0.577311
vt 0.371148 0.445924
vt 0.384444 0.445924
vt 0.383231 0.694500
vt 0.396527 0.694500
vt 0.384444 0.708698
vt 0.371148 0.708698
vt 0.247431 0.694500
vt 0.343641 0.577311
vt 0.365013 0.577311
vt 0.260727 0.694500
vt 0.247431 0.460122
vt 0.260727 0.460122
vt 0.248644 0.708698
vt 0.235348 0.708698
vt 0.235348 0.445924
vt 0.248644 0.445924
vt 0.668729 0.915790
vt 0.668729 0.855353
vt 0.673502 0.855353
vt 0.673502 0.915790
vt 0.685196 0.855353
vt 0.685196 0.915790
vt 0.680422 0.915790
vt 0.680422 0.855353
vt 0.696889 0.855353
vt 0.696889 0.915790
vt 0.692116 0.915790
vt 0.692116 0.855353
vt 0.703810 0.909622
vt 0.703810 0.849186
vt 0.708583 0.849186
vt 0.708583 0.909622
vt 0.153499 0.441932
vt 0.153499 0.001931
vt 0.287270 0.001931
vt 0.287270 0.441932
vt 0.019728 0.441932
vt 0.019728 0.001931
vt 0.294530 0.441932
vt 0.294530 0.001931
vt 0.311112 0.019213
vt 0.311112 0.424650
vt 0.428301 0.001931
vt 0.428301 0.019213
vt 0.428301 0.441932
vt 0.428301 0.424650
vt 0.562072 0.001931
vt 0.545490 0.019213
vt 0.562072 0.441932
vt 0.545490 0.424650
vt 0.490300 0.712689
vt 0.490300 0.786290
vt 0.485527 0.786290
vt 0.485527 0.712689
vt 0.497221 0.786290
vt 0.497221 0.712689
vt 0.501994 0.712689
vt 0.501994 0.786290
vt 0.650114 0.855353
vt 0.650114 0.928953
vt 0.645341 0.928953
vt 0.645341 0.855353
vt 0.657035 0.928953
vt 0.657035 0.855353
vt 0.661808 0.855353
vt 0.661808 0.928953
vt 0.001992 0.441932
vt 0.001992 0.001931
vt 0.012009 0.001931
vt 0.012009 0.441932
vt 0.703798 0.845194
vt 0.703798 0.439756
vt 0.862208 0.439756
vt 0.862208 0.845194
vt 0.569332 0.441932
vt 0.569332 0.001931
vt 0.579349 0.001931
vt 0.579349 0.441932
vt 0.855828 0.421567
vt 0.855828 0.016129
vt 0.869124 0.016129
vt 0.869124 0.421567
vt 0.855828 0.001931
vt 0.869124 0.001931
vt 0.881207 0.016129
vt 0.881207 0.421567
vt 0.869124 0.435765
vt 0.855828 0.435765
vt 0.881207 0.001931
vt 0.985493 0.016129
vt 0.985493 0.421567
vt 0.881207 0.435765
vt 0.985493 0.001931
vt 0.985493 0.435765
vt 0.697663 0.445924
vt 0.697663 0.851362
vt 0.644392 0.568055
vt 0.644392 0.494455
vt 0.583955 0.494455
vt 0.539252 0.445924
vt 0.583955 0.568055
vt 0.644392 0.788471
vt 0.644392 0.714871
vt 0.583955 0.714871
vt 0.583955 0.788471
vt 0.539252 0.851362
vt 0.569351 0.928953
vt 0.508914 0.928953
vt 0.508914 0.855353
vt 0.569351 0.855353
vt 0.998008 0.453954
vt 0.998008 0.859392
vt 0.984712 0.859392
vt 0.984712 0.453954
vt 0.998008 0.873590
vt 0.984712 0.873590
vt 0.972628 0.859392
vt 0.972628 0.453954
vt 0.984712 0.439756
vt 0.998008 0.439756
vt 0.972628 0.873590
vt 0.868343 0.859392
vt 0.868343 0.453954
vt 0.972628 0.439756
vt 0.868343 0.873590
vt 0.868343 0.439756
vt 0.637565 0.928953
vt 0.577128 0.928953
vt 0.577128 0.855353
vt 0.637565 0.855353
vt 0.835449 0.421567
vt 0.835449 0.016129
vt 0.849647 0.016129
vt 0.849647 0.421567
vt 0.835449 0.001931
vt 0.849647 0.001931
vt 0.835449 0.435765
vt 0.849647 0.435765
vt 0.718260 0.016129
vt 0.718260 0.001931
vt 0.718260 0.421567
vt 0.718260 0.435765
vt 0.601071 0.016129
vt 0.601071 0.001931
vt 0.601071 0.421567
vt 0.601071 0.435765
vt 0.586873 0.016129
vt 0.586873 0.001931
vt 0.586873 0.435765
vt 0.586873 0.421567
vn 0.000000 0.000000 1.000000
vn 0.000000 0.000000 1.000000
vn 0.000000 0.000000 1.000000
vn 0.000000 0.000000 1.000000
vn -1.000000 0.000000 0.000000
vn -1.000000 0.000000 0.000000
vn -1.000000 0.000000 0.000000
vn -1.000000 0.000000 0.000000
vn 0.000000 -1.000000 0.000000
vn 0.000000 -1.000000 0.000000
vn 0.000000 -1.000000 0.000000
vn 0.000000 -1.000000 0.000000
vn 1.000000 0.000000 0.000000
vn 1.000000 0.000000 0.000000
vn 1.000000 0.000000 0.000000
vn 1.000000 0.000000 0.000000
vn 0.000000 1.000000 -0.000000
vn 0.000000 1.000000 -0.000000
vn 0.000000 1.000000 -0.000000
vn 0.000000 1.000000 -0.000000
vn -1.000000 0.000000 0.000000
vn -1.000000 0.000000 0.000000
vn -1.000000 0.000000 0.000000
vn -1.000000 0.000000 0.000000
vn 0.000000 1.000000 0.000000
vn 0.000000 1.000000 0.000000
vn 0.000000 1.000000 0.000000
vn 0.000000 1.000000 0.000000
vn 0.000000 -1.000000 0.000000
vn 0.000000 -1.000000 0.000000
vn 0.000000 -1.000000 0.000000
vn 0.000000 -1.000000 0.000000
vn 1.000000 0.000000 0.000000
vn 1.000000 0.000000 0.000000
vn 1.000000 0.000000 0.000000
vn 1.000000 0.000000 0.000000
vn 0.000000 1.000000 0.000000
vn 0.000000 1.000000 0.000000
vn 0.000000 1.000000 0.000000
vn 0.000000 1.000000 0.000000
vn 0.000000 0.000000 1.000000
vn 0.000000 0.000000 1.000000
vn 0.000000 0.000000 1.000000
vn 0.000000 0.000000 1.000000
vn 0.000000 0.000000 -1.000000
vn 0.000000 0.000000 -1.000000
vn 0.000000 0.000000 -1.000000
vn 0.000000 0.000000 -1.000000
vn 0.000000 1.000000 0.000000
vn 0.000000 1.000000 0.000000
vn 0.000000 1.000000 0.000000
vn 0.000000 1.000000 0.000000
vn -1.000000 0.000000 0.000000
vn -1.000000 0.000000 0.000000
vn -1.000000 0.000000 0.000000
vn -1.000000 0.000000 0.000000
vn 0.000000 1.000000 0.000000
vn 0.000000 1.000000 0.000000
vn 0.000000 1.000000 0.000000
vn 0.000000 1.000000 0.000000
vn 1.000000 0.000000 0.000000
vn 1.000000 0.000000 0.000000
vn 1.000000 0.000000 0.000000
vn 1.000000 0.000000 0.000000
vn 0.000000 -0.761531 -0.648128
vn 0.000000 -0.761531 -0.648128
vn 0.000000 -0.761531 -0.648128
vn 0.000000 -0.761531 -0.648128
vn 0.000000 1.000000 0.000001
vn 0.000000 1.000000 0.000001
vn 0.000000 1.000000 0.000001
vn 0.000000 1.000000 0.000001
vn -1.000000 0.000000 0.000000
vn -1.000000 0.000000 0.000000
vn -1.000000 0.000000 0.000000
vn -1.000000 0.000000 0.000000
vn 0.000000 -0.772896 -0.634532
vn 0.000000 -0.772896 -0.634532
vn 0.000000 -0.772896 -0.634532
vn 0.000000 -0.772896 -0.634532
vn 1.000000 0.000000 0.000000
vn 1.000000 0.000000 0.000000
vn 1.000000 0.000000 0.000000
vn 1.000000 0.000000 0.000000
vn 0.000000 -0.772897 -0.634531
vn 0.000000 -0.772897 -0.634531
vn 0.000000 -0.772897 -0.634531
vn 0.000000 -0.772897 -0.634531
vn 0.000000 -0.761531 -0.648128
vn 0.000000 -0.761531 -0.648128
vn 0.000000 -0.761531 -0.648128
vn 0.000000 -0.761531 -0.648128
vn 0.000000 -0.761531 -0.648128
vn 0.000000 -0.761531 -0.648128
vn 0.000000 -0.761531 -0.648128
vn 0.000000 -0.761531 -0.648128
vn 0.000000 0.000000 1.000000
vn 0.000000 0.000000 1.000000
vn 0.000000 0.000000 1.000000
vn 0.000000 0.000000 1.000000
vn 0.000000 0.000000 -1.000000
vn -0.000000 0.000000 -1.000000
vn -0.000000 0.000000 -1.000000
vn 0.000000 0.000000 -1.000000
vn -0.000000 0.000000 -1.000000
vn -0.000000 0.000000 -1.000000
vn -0.000000 0.000000 -1.000000
vn -0.000000 0.000000 -1.000000
vn -0.000000 0.000000 -1.000000
vn -0.000000 0.000000 -1.000000
vn -0.000000 0.000000 -1.000000
vn -0.000000 0.000000 -1.000000
vn 0.000000 -0.772896 0.634532
vn 0.000000 -0.772896 0.634532
vn 0.000000 -0.772896 0.634532
vn 0.000000 -0.772896 0.634532
vn -1.000000 0.000000 0.000000
vn -1.000000 0.000000 0.000000
vn -1.000000 0.000000 0.000000
vn -1.000000 0.000000 0.000000
vn 0.000000 -0.772897 0.634531
vn 0.000000 -0.772897 0.634531
vn 0.000000 -0.772897 0.634531
vn 0.000000 -0.772897 0.634531
vn 1.000000 0.000000 0.000000
vn 1.000000 0.000000 0.000000
vn 1.000000 0.000000 0.000000
vn 1.000000 0.000000 0.000000
vn -1.000000 0.000000 0.000000
vn -1.000000 0.000000 0.000000
vn -1.000000 0.000000 0.000000
vn -1.000000 0.000000 0.000000
vn 0.000000 0.000000 1.000000
vn 0.000000 0.000000 1.000000
vn 0.000000 0.000000 1.000000
vn 0.000000 0.000000 1.000000
vn 1.000000 0.000000 0.000000
vn 1.000000 0.000000 0.000000
vn 1.000000 0.000000 0.000000
vn 1.000000 0.000000 0.000000
vn 0.000000 0.000000 1.000000
vn 0.000000 0.000000 1.000000
vn 0.000000 0.000000 1.000000
vn 0.000000 0.000000 1.000000
vn 0.000000 0.761531 0.648128
vn 0.000000 0.761531 0.648128
vn 0.000000 0.761531 0.648128
vn 0.000000 0.761531 0.648128
vn 0.000000 1.000000 0.000000
vn 0.000000 1.000000 0.000000
vn 0.000000 1.000000 0.000000
vn 0.000000 1.000000 0.000000
vn -1.000000 0.000000 0.000000
vn -1.000000 0.000000 0.000000
vn -1.000000 0.000000 0.000000
vn -1.000000 0.000000 0.000000
vn 0.000000 -1.000000 0.000000
vn 0.000000 -1.000000 0.000000
vn 0.000000 -1.000000 0.000000
vn 0.000000 -1.000000 0.000000
vn 1.000000 0.000000 0.000000
vn 1.000000 0.000000 0.000000
vn 1.000000 0.000000 0.000000
vn 1.000000 0.000000 0.000000
vn 0.000000 -0.761533 0.648126
vn 0.000000 -0.761533 0.648126
vn 0.000000 -0.761533 0.648126
vn 0.000000 -0.761533 0.648126
vn 0.000000 -0.761533 0.648126
vn 0.000000 -0.761533 0.648126
vn 0.000000 -0.761533 0.648126
vn 0.000000 -0.761533 0.648126
vn -1.000000 0.000000 0.000000
vn -1.000000 0.000000 0.000000
vn -1.000000 0.000000 0.000000
vn -1.000000 0.000000 0.000000
vn 0.000000 0.747039 0.664780
vn 0.000000 0.747039 0.664780
vn 0.000000 0.747039 0.664780
vn 0.000000 0.747039 0.664780
vn 0.000000 -0.761533 0.648126
vn 0.000000 -0.761533 0.648126
vn 0.000000 -0.761533 0.648126
vn 0.000000 -0.761533 0.648126
vn 1.000000 0.000000 0.000000
vn 1.000000 0.000000 0.000000
vn 1.000000 0.000000 0.000000
vn 1.000000 0.000000 0.000000
vn 0.000000 0.747039 0.664780
vn 0.000000 0.747039 0.664780
vn 0.000000 0.747039 0.664780
vn 0.000000 0.747039 0.664780
vn 0.000000 0.761531 0.648128
vn 0.000000 0.761531 0.648128
vn 0.000000 0.761531 0.648128
vn 0.000000 0.761531 0.648128
vn 0.000000 0.761531 0.648128
vn 0.000000 0.761531 0.648128
vn 0.000000 0.761531 0.648128
vn 0.000000 0.761531 0.648128
vn 0.000000 0.747039 0.664781
vn 0.000000 0.747039 0.664781
vn 0.000000 0.747039 0.664781
vn 0.000000 0.747039 0.664781
vn 0.000000 0.000000 -1.000000
vn 0.000000 0.000000 -1.000000
vn 0.000000 0.000000 -1.000000
vn 0.000000 0.000000 -1.000000
vn 0.000000 0.000000 -1.000000
vn 0.000000 0.000000 -1.000000
vn 0.000000 0.000000 -1.000000
vn 0.000000 0.000000 -1.000000
vn -1.000000 0.000000 0.000000
vn -1.000000 0.000000 0.000000
vn -1.000000 0.000000 0.000000
vn -1.000000 0.000000 0.000000
vn 0.000000 0.000000 -1.000000
vn 0.000000 0.000000 -1.000000
vn 0.000000 0.000000 -1.000000
vn 0.000000 0.000000 -1.000000
vn 0.000000 0.747039 -0.664780
vn 0.000000 0.747039 -0.664780
vn 0.000000 0.747039 -0.664780
vn 0.000000 0.747039 -0.664780
vn 1.000000 0.000000 0.000000
vn 1.000000 0.000000 0.000000
vn 1.000000 0.000000 0.000000
vn 1.000000 0.000000 0.000000
vn 0.000000 0.000000 -1.000000
vn 0.000000 0.000000 -1.000000
vn 0.000000 0.000000 -1.000000
vn 0.000000 0.000000 -1.000000
vn 0.000000 0.747039 -0.664780
vn 0.000000 0.747039 -0.664780
vn 0.000000 0.747039 -0.664780
vn 0.000000 0.747039 -0.664780
vn 0.000000 0.747039 -0.664781
vn 0.000000 0.747039 -0.664781
vn 0.000000 0.747039 -0.664781
vn 0.000000 0.747039 -0.664781
vn 0.000000 0.761533 -0.648126
vn 0.000000 0.761533 -0.648126
vn 0.000000 0.761533 -0.648126
vn 0.000000 0.761533 -0.648126
vn 0.000000 0.761533 -0.648126
vn 0.000000 0.761533 -0.648126
vn 0.000000 0.761533 -0.648126
vn 0.000000 0.761533 -0.648126
vn 0.000000 0.761533 -0.648126
vn 0.000000 0.761533 -0.648126
vn 0.000000 0.761533 -0.648126
vn 0.000000 0.761533 -0.648126
vn 0.000000 0.000000 -1.000000
vn 0.000000 0.000000 -1.000000
vn 0.000000 0.000000 -1.000000
vn 0.000000 0.000000 -1.000000
vn 1.000000 0.000000 0.000000
vn 1.000000 0.000000 0.000000
vn 1.000000 0.000000 0.000000
vn 1.000000 0.000000 0.000000
vn 0.000000 1.000000 0.000000
vn 0.000000 1.000000 0.000000
vn 0.000000 1.000000 0.000000
vn 0.000000 1.000000 0.000000
vn -1.000000 0.000000 0.000000
vn -1.000000 0.000000 0.000000
vn -1.000000 0.000000 0.000000
vn -1.000000 0.000000 0.000000
vn 0.000000 -1.000000 0.000000
vn 0.000000 -1.000000 0.000000
vn 0.000000 -1.000000 0.000000
vn 0.000000 -1.000000 0.000000
s off
g pCube147
usemtl blinn6SG
f 63/241/249 64/242/250 65/243/251 66/244/252
f 67/147/253 63/148/254 66/149/255 68/150/256
f 67/207/257 69/208/258 64/209/259 63/210/260
f 64/153/261 69/154/262 70/155/263 65/156/264
f 66/213/265 65/214/266 71/215/267 72/216/268
f 73/151/269 67/147/270 68/150/271 74/152/272
f 68/219/273 66/213/274 72/216/275 75/220/276
f 73/211/277 76/212/278 69/208/279 67/207/280
f 70/155/281 69/154/282 76/157/283 77/158/284
f 65/214/285 70/217/286 78/218/287 71/215/288
f 72/245/289 71/246/290 79/247/291 80/248/292
f 74/249/293 77/250/294 76/251/295 73/252/296
f 74/223/297 68/219/298 75/220/299 81/224/300
f 75/159/301 72/160/302 80/161/303 82/162/304
f 78/218/305 70/217/306 77/221/307 83/222/308
f 71/165/309 78/166/310 84/167/311 79/168/312
f 80/305/313 79/306/314 85/307/315 86/308/316
f 77/221/317 74/223/318 81/224/319 83/222/320
f 81/163/321 75/159/322 82/162/323 87/164/324
f 82/315/325 80/305/326 88/311/327 89/316/328
f 90/169/329 84/167/330 78/166/331 83/170/332
f 79/306/333 84/313/334 91/314/335 92/309/336
f 88/311/337 80/305/338 86/308/339 93/312/340
f 79/306/341 92/309/342 94/310/343 85/307/344
f 86/253/345 85/254/346 95/255/347 96/256/348
s 1
f 83/269/349 81/270/350 97/271/351 98/272/352 99/273/353 90/274/354
f 99/273/353 100/275/355 97/271/351 81/270/350 101/276/356 102/277/357 103/278/358 90/274/354
f 103/278/358 104/279/359 101/276/356 81/270/350 87/280/360 90/274/354
s off
f 87/319/361 82/315/362 89/316/363 105/320/364
f 89/171/365 88/172/366 106/173/367 107/174/368
f 84/313/369 90/317/370 108/318/371 91/314/372
f 92/181/373 91/182/374 109/183/375 110/184/376
f 106/173/377 88/172/378 93/175/379 111/176/380
f 86/253/381 96/256/382 111/261/383 93/262/384
f 92/181/385 110/184/386 112/187/387 94/188/388
f 95/255/389 85/254/390 94/257/391 112/258/392
f 113/259/393 114/260/394 96/256/395 95/255/396
f 98/225/397 97/226/398 115/227/399 116/228/400
f 99/191/401 98/192/402 116/193/403 117/194/404
f 100/229/405 99/230/406 117/231/407 118/232/408
f 97/195/409 100/196/410 118/197/411 115/198/412
f 90/317/413 87/319/414 119/324/415 120/321/416
f 87/319/417 105/320/418 121/323/419 119/324/420
f 105/177/421 89/171/422 107/174/423 122/178/424
f 114/260/425 123/265/426 107/268/427 106/266/428
f 108/318/429 90/317/430 120/321/431 124/322/432
f 109/183/433 91/182/434 108/185/435 125/186/436
f 126/264/437 113/259/438 110/263/439 109/267/440
f 114/260/441 106/266/442 111/261/443 96/256/444
f 110/263/445 113/259/446 95/255/447 112/258/448
f 114/260/449 113/259/450 126/264/451 123/265/452
f 115/281/453 118/282/454 117/283/455 116/284/456
f 120/285/457 119/286/458 127/287/459 128/288/460
f 105/177/461 122/178/462 129/179/463 121/180/464
f 127/287/465 119/286/466 121/289/467 129/290/468
f 123/296/469 130/291/470 122/295/471 107/299/472
f 125/186/473 108/185/474 124/189/475 131/190/476
f 120/285/477 128/288/478 131/293/479 124/294/480
f 132/292/481 126/297/482 109/300/483 125/298/484
f 123/296/485 126/297/486 132/292/487 130/291/488
f 130/291/489 132/292/490 128/288/491 127/287/492
f 122/295/493 130/291/494 127/287/495 129/290/496
f 132/292/497 125/298/498 131/293/499 128/288/500
f 133/301/501 134/302/502 135/303/503 136/304/504
f 101/199/505 104/200/506 134/201/507 133/202/508
f 102/233/509 101/234/510 133/235/511 136/236/512
f 103/203/513 102/204/514 136/205/515 135/206/516
f 104/237/517 103/238/518 135/239/519 134/240/520
