# This file uses centimeters as units for non-parametric coordinates.

mtllib Straight_Pathway.mtl
g default
v -12.256530 0.142929 -16.039829
v 12.078821 0.142929 -16.039829
v -12.256530 0.460469 -16.039829
v 12.078821 0.460469 -16.039829
v -12.256530 0.460470 -28.439872
v 12.078821 0.460470 -28.439872
v -12.256530 0.142928 -28.439872
v 12.078821 0.142928 -28.439872
v 12.078821 0.460470 -25.262761
v -12.256530 0.460470 -25.262761
v -12.256530 0.142928 -25.262761
v 12.078821 0.142928 -25.262761
v 12.078821 0.460469 -19.040201
v -12.256530 0.460469 -19.040201
v -12.256530 0.142929 -19.040201
v 12.078821 0.142929 -19.040201
v -12.256530 0.811369 -16.039829
v 12.078821 0.811369 -16.039829
v 12.078821 0.811369 -19.040201
v -12.256530 0.811369 -19.040201
v 12.078821 0.811369 -25.262761
v -12.256530 0.811369 -25.262761
v 12.078821 0.811369 -28.439872
v -12.256530 0.811369 -28.439872
v 12.078821 0.961416 -17.540015
v -12.256530 0.961416 -17.540015
v -12.256530 0.546775 -17.540015
v -12.256530 0.149975 -17.540015
v 12.078821 0.149975 -17.540015
v 12.078821 0.546775 -17.540015
v -0.088855 0.811369 -16.039829
v -0.088855 0.811369 -17.540015
v -0.088855 0.892625 -19.040201
v 5.994983 0.811369 -19.040201
v 5.994983 0.811369 -17.540015
v 5.994983 0.811369 -16.039829
v -6.172692 0.811369 -16.039829
v -6.172692 0.811369 -17.540015
v -6.172692 0.748406 -19.040201
v 9.036902 0.878559 -19.040201
v 9.036902 0.811369 -17.540015
v 9.036902 0.613063 -16.039829
v 2.953064 0.914837 -16.039829
v 2.953064 0.811369 -17.540015
v 2.953064 0.937674 -19.040201
v -3.130774 0.594987 -19.040201
v -3.130774 0.811369 -17.540015
v -3.130774 1.007004 -16.039829
v -9.214611 0.620474 -16.039829
v -9.214611 0.811369 -17.540015
v -9.214611 0.963570 -19.040201
v 12.078821 0.870829 -26.851316
v -12.256530 0.870829 -26.851316
v -0.088855 0.811369 -25.262761
v -0.088855 0.811369 -26.851316
v -0.088855 0.811369 -28.439872
v 5.994983 0.775701 -25.262761
v 5.994983 0.811369 -26.851316
v 5.994983 0.811369 -28.439872
v 9.036902 0.687461 -25.262761
v 9.036902 0.811369 -26.851316
v 9.036902 0.613063 -28.439872
v 2.953064 0.914837 -28.439872
v 2.953064 0.811369 -26.851316
v 2.953064 0.937674 -25.262761
v -6.172692 0.811369 -28.439872
v -6.172692 0.811369 -26.851316
v -6.172692 0.748406 -25.262761
v -3.130774 0.594987 -25.262761
v -3.130774 0.811369 -26.851316
v -3.130774 1.007004 -28.439872
v -9.214611 0.620474 -28.439872
v -9.214611 0.811369 -26.851316
v -9.214611 0.988045 -25.262761
v 12.078821 0.460470 -22.151481
v -12.256530 0.460470 -22.151481
v 12.078821 0.460470 -20.595841
v -12.256530 0.460470 -20.595841
v 12.078821 0.460470 -23.707121
v -12.256530 0.460470 -23.707121
v -0.088855 0.460470 -25.262761
v -0.088855 0.460470 -23.707121
v -0.088855 0.548059 -22.151481
v -0.088855 0.741499 -20.595841
v -0.088855 0.548059 -19.040201
v 5.994983 0.422022 -25.262761
v 5.994983 0.337111 -23.707121
v 5.994983 0.422022 -22.151481
v 5.994983 0.460470 -20.595841
v 5.994983 0.460470 -19.040201
v 9.036902 0.358435 -25.262761
v 9.036902 0.460470 -23.707121
v 9.036902 0.532897 -22.151481
v 9.036902 0.692849 -20.595841
v 9.036902 0.532897 -19.040201
v 2.953064 0.564479 -25.262761
v 2.953064 0.460470 -23.707121
v 2.953064 0.460470 -22.151481
v 2.953064 0.460470 -20.595841
v 2.953064 0.564479 -19.040201
v -6.172692 0.408621 -25.262761
v -6.172692 0.548190 -23.707121
v -6.172692 0.741919 -22.151481
v -6.172692 0.548190 -20.595841
v -6.172692 0.408621 -19.040201
v -3.130774 0.460470 -20.595841
v -3.130774 0.282284 -19.040201
v -3.130774 0.282284 -25.262761
v -3.130774 0.460470 -23.707121
v -3.130774 0.460470 -22.151481
v -9.214611 0.605958 -25.262761
v -9.214611 0.460470 -23.707121
v -9.214611 0.434087 -22.151481
v -9.214611 0.375823 -20.595841
v -9.214611 0.579257 -19.040201
v 12.078821 0.460470 -26.851316
v 12.078821 0.142928 -26.851316
v -12.256530 0.142928 -26.851316
v -12.256530 0.460470 -26.851316
v 12.078821 0.142928 -22.151481
v -12.256530 0.142928 -22.151481
v 12.078821 0.142928 -23.707121
v -12.256530 0.142928 -23.707121
v 12.078821 0.142929 -20.595841
v -12.256530 0.142929 -20.595841
v -0.088855 0.460470 -28.439872
v -0.088855 0.142928 -28.439872
v -0.088855 0.142928 -26.851316
v -0.088855 0.142928 -25.262761
v -0.088855 0.142928 -23.707121
v -0.088855 0.225310 -22.151481
v -0.088855 0.412895 -20.595841
v -0.088855 0.225310 -19.040201
v -0.088855 0.142928 -17.540015
v -0.088855 0.142928 -16.039829
v -0.088855 0.460470 -16.039829
v 5.994983 0.460470 -28.439872
v 5.994983 0.142928 -28.439872
v 5.994983 0.142928 -26.851316
v 5.994983 0.106767 -25.262761
v 5.994983 0.024425 -23.707121
v 5.994983 0.106767 -22.151481
v 5.994983 0.142928 -20.595841
v 5.994983 0.142928 -19.040201
v 5.994983 0.142928 -17.540015
v 5.994983 0.142928 -16.039829
v 5.994983 0.460470 -16.039829
v 2.953064 0.519983 -28.439872
v 2.953064 0.147787 -28.439872
v 2.953064 0.142928 -26.851316
v 2.953064 0.200959 -25.262761
v 2.953064 0.142928 -23.707121
v 2.953064 0.142928 -22.151481
v 2.953064 0.142928 -20.595841
v 2.953064 0.200959 -19.040201
v 2.953064 0.142928 -17.540015
v 2.953064 0.147787 -16.039829
v 2.953064 0.519983 -16.039829
v 9.036902 0.346407 -28.439872
v 9.036902 0.133616 -28.439872
v 9.036902 0.142928 -26.851316
v 9.036902 0.085999 -25.262761
v 9.036902 0.142928 -23.707121
v 9.036902 0.211049 -22.151481
v 9.036902 0.366161 -20.595841
v 9.036902 0.211049 -19.040201
v 9.036902 0.142928 -17.540015
v 9.036902 0.133616 -16.039829
v 9.036902 0.346406 -16.039829
v -6.172692 0.460470 -28.439872
v -6.172692 0.142928 -28.439872
v -6.172692 0.142928 -26.851316
v -6.172692 0.114000 -25.262761
v -6.172692 0.225433 -23.707121
v -6.172692 0.413298 -22.151481
v -6.172692 0.225433 -20.595841
v -6.172692 0.114000 -19.040201
v -6.172692 0.142928 -17.540015
v -6.172692 0.142928 -16.039829
v -6.172692 0.460470 -16.039829
v -3.130774 0.572997 -28.439872
v -3.130774 0.152116 -28.439872
v -3.130774 0.142928 -26.851316
v -3.130774 0.043512 -25.262761
v -3.130774 0.142928 -23.707121
v -3.130774 0.142928 -22.151481
v -3.130774 0.142928 -20.595841
v -3.130774 0.043512 -19.040201
v -3.130774 0.142928 -17.540015
v -3.130774 0.152116 -16.039829
v -3.130774 0.572997 -16.039829
v -9.214611 0.350669 -28.439872
v -9.214611 0.133964 -28.439872
v -9.214611 0.142928 -26.851316
v -9.214611 0.224102 -25.262761
v -9.214611 0.142928 -23.707121
v -9.214611 0.118115 -22.151481
v -9.214611 0.061614 -20.595841
v -9.214611 0.199214 -19.040201
v -9.214611 0.142928 -17.540015
v -9.214611 0.133964 -16.039829
v -9.214611 0.350669 -16.039829
vt 0.193184 0.034718
vt 0.215339 0.038782
vt 0.215339 0.267618
vt 0.193184 0.217845
vt 0.237494 0.034718
vt 0.237494 0.217845
vt 0.215339 0.506743
vt 0.193184 0.420210
vt 0.260468 0.034718
vt 0.260468 0.217845
vt 0.237494 0.420210
vt 0.283442 0.034718
vt 0.283442 0.217845
vt 0.260468 0.351859
vt 0.237494 0.259614
vt 0.306417 0.034718
vt 0.306417 0.217845
vt 0.283442 0.259614
vt 0.329391 0.034718
vt 0.329391 0.217845
vt 0.306417 0.217845
vt 0.306417 0.034718
vt 0.329391 0.001887
vt 0.352851 0.034718
vt 0.352851 0.217845
vt 0.352851 0.034718
vt 0.376311 0.034718
vt 0.376311 0.217845
vt 0.352851 0.454500
vt 0.329391 0.420210
vt 0.376311 0.420210
vt 0.162964 0.052845
vt 0.185119 0.048781
vt 0.185119 0.231908
vt 0.162964 0.281681
vt 0.185119 0.434273
vt 0.162964 0.520806
vt 0.140809 0.048781
vt 0.140809 0.231908
vt 0.140809 0.434273
vt 0.117835 0.231908
vt 0.117835 0.048781
vt 0.094861 0.231908
vt 0.094861 0.048781
vt 0.071887 0.231908
vt 0.071887 0.048781
vt 0.094861 0.034471
vt 0.117835 0.001887
vt 0.048912 0.048781
vt 0.048912 0.231908
vt 0.071887 0.231908
vt 0.048912 0.315812
vt 0.025452 0.231908
vt 0.025452 0.048781
vt 0.001992 0.048781
vt 0.001992 0.231908
vt 0.025452 0.468563
vt 0.048912 0.434273
vt 0.001992 0.434273
vt 0.503068 0.746767
vt 0.525223 0.871556
vt 0.525223 0.871556
vt 0.503068 0.918416
vt 0.683088 0.902471
vt 0.660933 0.814696
vt 0.660933 0.814696
vt 0.683088 0.778385
vt 0.321888 0.842346
vt 0.298428 0.915187
vt 0.298428 0.821776
vt 0.321888 0.842346
vt 0.345348 0.902016
vt 0.345348 0.842346
vt 0.321888 0.842346
vt 0.345348 0.727982
vt 0.555762 0.783078
vt 0.532302 0.884968
vt 0.532302 0.746767
vt 0.555762 0.783078
vt 0.664765 0.612324
vt 0.687739 0.612324
vt 0.687739 0.774394
vt 0.664765 0.662837
vt 0.710713 0.509564
vt 0.710713 0.662837
vt 0.641791 0.612324
vt 0.641791 0.612324
vt 0.618817 0.509564
vt 0.618817 0.612324
vt 0.641791 0.612324
vt 0.618817 0.672306
vt 0.589707 0.580706
vt 0.566733 0.580706
vt 0.566733 0.558533
vt 0.589707 0.509564
vt 0.589707 0.580706
vt 0.566733 0.631219
vt 0.612681 0.640688
vt 0.612681 0.558533
vt 0.543759 0.742776
vt 0.543759 0.580706
vt 0.520785 0.631219
vt 0.520785 0.640688
vt 0.520785 0.580706
vt 0.543759 0.580706
vt 0.047940 0.788885
vt 0.070914 0.811058
vt 0.070914 0.945072
vt 0.047940 0.852827
vt 0.093888 0.811058
vt 0.093888 0.852827
vt 0.024966 0.739917
vt 0.024966 0.811058
vt 0.001992 0.788885
vt 0.001992 0.752214
vt 0.024966 0.811058
vt 0.001992 0.811058
vt 0.106349 0.558398
vt 0.106349 0.735925
vt 0.083375 0.624201
vt 0.083375 0.573613
vt 0.129323 0.524797
vt 0.129323 0.624201
vt 0.785771 0.662912
vt 0.762797 0.774636
vt 0.762797 0.612324
vt 0.785771 0.612324
vt 0.739823 0.662912
vt 0.739823 0.612324
vt 0.808745 0.582423
vt 0.808745 0.509564
vt 0.716849 0.582423
vt 0.716849 0.509564
vt 0.469520 0.734765
vt 0.446546 0.626585
vt 0.446546 0.579075
vt 0.469520 0.579075
vt 0.423572 0.579075
vt 0.423572 0.579075
vt 0.492494 0.626585
vt 0.492494 0.612541
vt 0.423572 0.510734
vt 0.446546 0.558220
vt 0.469520 0.579075
vt 0.492494 0.579075
vt 0.400598 0.612541
vt 0.400598 0.558220
vt 0.514649 0.579075
vt 0.514649 0.579075
vt 0.377138 0.579075
vt 0.377138 0.579075
vt 0.222722 0.810153
vt 0.245696 0.789299
vt 0.245696 0.849439
vt 0.222722 0.938892
vt 0.268670 0.741813
vt 0.268670 0.810153
vt 0.199748 0.810153
vt 0.199748 0.849439
vt 0.291644 0.789299
vt 0.291644 0.777322
vt 0.177593 0.810153
vt 0.177593 0.810154
vt 0.609433 0.907124
vt 0.586459 0.817671
vt 0.586459 0.778385
vt 0.609433 0.778386
vt 0.563485 0.778385
vt 0.563485 0.778385
vt 0.632407 0.817671
vt 0.632407 0.778386
vt 0.654562 0.778386
vt 0.654562 0.782449
vt 0.325054 0.723991
vt 0.302080 0.615648
vt 0.302080 0.568068
vt 0.325054 0.568068
vt 0.279106 0.551385
vt 0.279106 0.510734
vt 0.348028 0.615648
vt 0.348028 0.568068
vt 0.371002 0.551385
vt 0.371002 0.510734
vt 0.180588 0.582131
vt 0.203562 0.582131
vt 0.203562 0.629640
vt 0.180588 0.737821
vt 0.226537 0.582131
vt 0.226537 0.582131
vt 0.157614 0.524797
vt 0.157614 0.629640
vt 0.249511 0.524797
vt 0.249511 0.582131
vt 0.135459 0.582131
vt 0.135459 0.582131
vt 0.272971 0.582131
vt 0.272971 0.582131
vt 0.249511 0.615597
vt 0.226537 0.582131
vt 0.272971 0.582131
vt 0.147532 0.774397
vt 0.170506 0.788707
vt 0.170506 0.836287
vt 0.147532 0.944630
vt 0.124558 0.741813
vt 0.124558 0.836287
vt 0.101584 0.821167
vt 0.101584 0.772024
vt 0.375154 0.921884
vt 0.375154 0.898993
vt 0.397309 0.898993
vt 0.397309 0.921884
vt 0.352998 0.921884
vt 0.352998 0.898993
vt 0.375154 0.876102
vt 0.397309 0.876102
vt 0.352998 0.876102
vt 0.375154 0.853211
vt 0.397309 0.853211
vt 0.375154 0.830320
vt 0.397309 0.830320
vt 0.375154 0.807430
vt 0.397309 0.807430
vt 0.375154 0.784539
vt 0.397309 0.784539
vt 0.375154 0.761648
vt 0.397309 0.761648
vt 0.375154 0.738757
vt 0.397309 0.738757
vt 0.403671 0.921884
vt 0.403671 0.898993
vt 0.427132 0.898993
vt 0.427132 0.921884
vt 0.403671 0.876102
vt 0.427132 0.876102
vt 0.450592 0.898993
vt 0.450592 0.921884
vt 0.403671 0.853211
vt 0.427132 0.853211
vt 0.450592 0.876102
vt 0.473566 0.898993
vt 0.473566 0.921884
vt 0.403671 0.830320
vt 0.427132 0.830320
vt 0.473566 0.876102
vt 0.496540 0.898993
vt 0.496540 0.921884
vt 0.403671 0.807430
vt 0.427132 0.807430
vt 0.403671 0.784539
vt 0.427132 0.784539
vt 0.403671 0.761648
vt 0.427132 0.761648
vt 0.403671 0.738757
vt 0.427132 0.738757
vt 0.450592 0.784539
vt 0.450592 0.761648
vt 0.888774 0.929982
vt 0.888774 0.907091
vt 0.910930 0.907091
vt 0.910930 0.929982
vt 0.975117 0.918681
vt 0.975117 0.895707
vt 0.998008 0.895707
vt 0.998008 0.918681
vt 0.957174 0.868740
vt 0.980064 0.868740
vt 0.980064 0.891715
vt 0.957174 0.891715
vt 0.957174 0.845766
vt 0.980064 0.845766
vt 0.917065 0.930065
vt 0.917065 0.907091
vt 0.939956 0.907091
vt 0.939956 0.930065
vt 0.384182 0.007257
vt 0.407073 0.002087
vt 0.407073 0.127062
vt 0.384182 0.190384
vt 0.429963 0.007257
vt 0.429963 0.190384
vt 0.407073 0.282660
vt 0.384182 0.392749
vt 0.452854 0.012555
vt 0.452854 0.255279
vt 0.429963 0.392749
vt 0.407073 0.392749
vt 0.384182 0.479282
vt 0.475745 0.007257
vt 0.475745 0.190384
vt 0.452854 0.505573
vt 0.429963 0.392749
vt 0.498636 0.010059
vt 0.498636 0.224706
vt 0.475745 0.392749
vt 0.521527 0.007257
vt 0.521527 0.190384
vt 0.498636 0.452420
vt 0.544418 0.001887
vt 0.544418 0.124604
vt 0.521527 0.392749
vt 0.567309 0.007257
vt 0.567309 0.190384
vt 0.544418 0.278385
vt 0.567309 0.392749
vt 0.521527 0.392749
vt 0.544418 0.392749
vt 0.567309 0.479282
vt 0.521527 0.392749
vt 0.544418 0.431498
vt 0.498636 0.465590
vt 0.498636 0.392749
vt 0.475745 0.439610
vt 0.475745 0.392749
vt 0.575179 0.317074
vt 0.598070 0.380396
vt 0.598070 0.505371
vt 0.575179 0.500201
vt 0.598070 0.224799
vt 0.575179 0.114709
vt 0.620961 0.317074
vt 0.620961 0.500201
vt 0.620961 0.114709
vt 0.575179 0.080419
vt 0.598070 0.114709
vt 0.643852 0.252180
vt 0.643852 0.494903
vt 0.643852 0.001886
vt 0.620961 0.114709
vt 0.666742 0.317074
vt 0.666742 0.500201
vt 0.666742 0.114709
vt 0.689633 0.282752
vt 0.689633 0.497399
vt 0.689633 0.055039
vt 0.712524 0.317074
vt 0.712524 0.500201
vt 0.712524 0.114709
vt 0.735415 0.382855
vt 0.735415 0.505572
vt 0.735415 0.229074
vt 0.758306 0.317074
vt 0.758306 0.500201
vt 0.758306 0.114709
vt 0.735415 0.114709
vt 0.758306 0.080419
vt 0.811958 0.307012
vt 0.811958 0.270701
vt 0.834849 0.182224
vt 0.834849 0.307012
vt 0.811958 0.074746
vt 0.834849 0.001887
vt 0.857740 0.307012
vt 0.857740 0.307012
vt 0.811958 0.307012
vt 0.834849 0.419835
vt 0.789067 0.408901
vt 0.789067 0.188550
vt 0.857740 0.104647
vt 0.857740 0.307012
vt 0.766176 0.104647
vt 0.766176 0.307012
vt 0.880631 0.164630
vt 0.880631 0.379853
vt 0.880631 0.307012
vt 0.880631 0.366682
vt 0.903522 0.082474
vt 0.903522 0.286442
vt 0.926413 0.045803
vt 0.926413 0.235554
vt 0.949303 0.104647
vt 0.949303 0.307012
vt 0.903522 0.307012
vt 0.926413 0.307012
vt 0.949303 0.341302
vt 0.837772 0.448875
vt 0.837772 0.670509
vt 0.814881 0.739015
vt 0.814881 0.536649
vt 0.860663 0.572960
vt 0.860663 0.768916
vt 0.837772 0.787830
vt 0.814881 0.739015
vt 0.883554 0.661438
vt 0.883554 0.841775
vt 0.906444 0.489788
vt 0.906444 0.688501
vt 0.860663 0.536649
vt 0.883554 0.536649
vt 0.929335 0.463809
vt 0.929335 0.679032
vt 0.860663 0.536649
vt 0.883554 0.423826
vt 0.952226 0.536649
vt 0.952226 0.739015
vt 0.975117 0.497901
vt 0.975117 0.697245
vt 0.998008 0.739015
vt 0.998008 0.536649
vt 0.809053 0.892660
vt 0.831944 0.845766
vt 0.831944 0.925120
vt 0.809053 0.892660
vt 0.927939 0.893275
vt 0.927939 0.845765
vt 0.950830 0.859808
vt 0.950830 0.893275
vt 0.869471 0.862449
vt 0.869471 0.845765
vt 0.892362 0.845765
vt 0.892362 0.903099
vt 0.898705 0.903100
vt 0.898705 0.886417
vt 0.921596 0.845766
vt 0.921596 0.903100
vt 0.690167 0.808529
vt 0.690167 0.859117
vt 0.713141 0.778628
vt 0.713141 0.892432
vt 0.741556 0.778628
vt 0.719401 0.778628
vt 0.719401 0.838298
vt 0.741556 0.778628
vt 0.741556 0.778628
vt 0.719401 0.891451
vt 0.719401 0.778628
vt 0.741556 0.778628
vt 0.838287 0.845766
vt 0.861747 0.845766
vt 0.861747 0.918607
vt 0.838287 0.845766
vt 0.772096 0.778628
vt 0.772096 0.880517
vt 0.748636 0.778628
vt 0.748636 0.812918
vt 0.946091 0.897267
vt 0.968982 0.897267
vt 0.968982 0.920241
vt 0.946091 0.920241
vt 0.779819 0.817377
vt 0.801974 0.778628
vt 0.801974 0.865161
vt 0.779819 0.778628
vn 0.000000 0.000000 1.000000
vn -0.000000 0.000000 1.000000
vn -0.000000 0.000000 1.000000
vn 0.000000 0.000000 1.000000
vn 0.055596 0.992069 0.112732
vn 0.055596 0.992069 0.112732
vn 0.049403 0.993726 0.100335
vn 0.027787 0.997984 0.057060
vn 0.000000 0.000000 -1.000000
vn 0.000000 0.000000 -1.000000
vn 0.000000 0.000000 -1.000000
vn 0.000000 0.000000 -1.000000
vn 0.002731 -0.999937 -0.010873
vn -0.002005 -0.999964 -0.008257
vn -0.000579 -0.999991 -0.004162
vn -0.002632 -0.999982 -0.005336
vn 1.000000 0.000000 0.000000
vn 1.000000 0.000000 0.000000
vn 1.000000 0.000000 0.000000
vn 1.000000 0.000000 0.000000
vn -1.000000 0.000000 0.000000
vn -1.000000 0.000000 0.000000
vn -1.000000 0.000000 0.000000
vn -1.000000 0.000000 0.000000
vn 0.025113 0.995843 0.087559
vn 0.025113 0.995843 0.087559
vn 0.025113 0.995843 0.087559
vn 0.025113 0.995843 0.087559
vn -1.000000 0.000000 0.000000
vn -1.000000 0.000000 0.000000
vn -1.000000 0.000000 0.000000
vn -1.000000 0.000000 0.000000
vn -0.001473 -0.999995 0.002822
vn 0.000000 -0.999996 0.002822
vn -0.001189 -0.999928 0.011908
vn 0.005934 -0.999882 0.014184
vn 1.000000 0.000000 0.000000
vn 1.000000 0.000000 0.000000
vn 1.000000 0.000000 0.000000
vn 1.000000 0.000000 0.000000
vn 0.049973 0.997433 0.051279
vn 0.049973 0.997433 0.051279
vn 0.049973 0.997433 0.051279
vn 0.049973 0.997433 0.051279
vn -1.000000 0.000000 0.000000
vn -1.000000 0.000000 0.000000
vn -1.000000 0.000000 0.000000
vn -1.000000 0.000000 0.000000
vn 0.013341 -0.999911 0.000000
vn 0.001648 -0.999979 0.006264
vn 0.023983 -0.999658 0.010437
vn 0.004631 -0.999844 -0.017030
vn 1.000000 0.000000 0.000000
vn 1.000000 0.000000 0.000000
vn 1.000000 0.000000 0.000000
vn 1.000000 0.000000 0.000000
vn -0.000000 0.000000 1.000000
vn 0.000000 0.000000 1.000000
vn -0.000000 0.000000 1.000000
vn -0.000000 0.000000 1.000000
vn 1.000000 0.000000 0.000000
vn 1.000000 0.000000 0.000000
vn -0.000000 0.000000 -1.000000
vn -0.000000 0.000000 -1.000000
vn -0.000000 0.000000 -1.000000
vn -0.000000 0.000000 -1.000000
vn -1.000000 0.000000 0.000000
vn -1.000000 0.000000 0.000000
vn 0.000000 0.000000 1.000000
vn 0.000000 0.000000 1.000000
vn -0.000000 0.000000 1.000000
vn -0.000000 0.000000 1.000000
vn 1.000000 0.000000 0.000000
vn 1.000000 0.000000 0.000000
vn 0.000000 0.000000 -1.000000
vn 0.000000 0.000000 -1.000000
vn -1.000000 0.000000 0.000000
vn -1.000000 0.000000 0.000000
vn -0.000354 1.000000 0.000718
vn -0.000354 1.000000 0.000718
vn -1.000000 0.000000 0.000000
vn -1.000000 0.000000 0.000000
vn -1.000000 0.000000 0.000000
vn 0.001577 -0.999871 0.015953
vn 0.000217 -0.999986 0.005358
vn 1.000000 0.000000 0.000000
vn -0.049602 0.994589 0.091278
vn -0.056785 0.991725 0.115142
vn -0.056785 0.991725 0.115142
vn -0.035382 0.998397 0.044173
vn -0.013613 0.999526 -0.027602
vn -0.013613 0.999526 -0.027602
vn -0.007387 0.997589 0.069012
vn -0.012203 0.999775 0.017343
vn -0.012203 0.999775 0.017343
vn -0.007387 0.997588 0.069012
vn -0.016994 0.999262 -0.034460
vn -0.016995 0.999262 -0.034460
vn -0.008370 0.998449 -0.055035
vn 0.032072 0.997368 -0.065032
vn 0.032072 0.997368 -0.065032
vn -0.008370 0.998449 -0.055035
vn -0.048815 0.997796 -0.044937
vn -0.048815 0.997796 -0.044937
vn -0.011041 0.999689 0.022387
vn 0.010765 0.998965 0.044198
vn 0.010765 0.998965 0.044198
vn -0.011041 0.999689 0.022387
vn 0.032507 0.997296 0.065915
vn 0.032507 0.997296 0.065915
vn 0.018880 0.999815 0.003805
vn 0.016994 0.999262 -0.034460
vn 0.016994 0.999262 -0.034460
vn 0.018880 0.999815 0.003805
vn 0.020738 0.998900 0.042050
vn 0.020738 0.998900 0.042050
vn 0.025101 0.995380 -0.092673
vn -0.003459 0.996876 -0.078906
vn -0.003459 0.996876 -0.078906
vn 0.025101 0.995380 -0.092673
vn -0.032072 0.997368 -0.065032
vn -0.032072 0.997368 -0.065032
vn 0.001992 0.998910 0.046632
vn -0.031299 0.997493 0.063464
vn -0.031299 0.997493 0.063464
vn 0.001992 0.998910 0.046632
vn 0.035329 0.998934 0.029711
vn 0.035329 0.998934 0.029711
vn -0.032079 0.997596 0.061428
vn -0.032079 0.997596 0.061428
vn -0.032079 0.997596 0.061428
vn -0.032079 0.997596 0.061428
vn 0.026603 0.999240 -0.028507
vn 0.026603 0.999240 -0.028507
vn 0.026603 0.999240 -0.028507
vn 0.026603 0.999240 -0.028507
vn 0.016996 0.999326 0.032545
vn 0.016996 0.999326 0.032545
vn 0.016996 0.999326 0.032545
vn 0.016996 0.999326 0.032545
vn 0.014484 0.998636 0.050158
vn 0.014484 0.998636 0.050158
vn 0.014484 0.998636 0.050158
vn 0.014484 0.998636 0.050158
vn 0.032515 0.997530 -0.062263
vn 0.032515 0.997530 -0.062263
vn 0.032515 0.997530 -0.062263
vn 0.032515 0.997530 -0.062263
vn -0.030076 0.997887 0.057593
vn -0.030076 0.997887 0.057593
vn -0.030076 0.997887 0.057593
vn -0.030076 0.997887 0.057593
vn -0.042193 0.995837 -0.080794
vn -0.042193 0.995837 -0.080794
vn -0.042193 0.995837 -0.080794
vn -0.042193 0.995837 -0.080794
vn -0.016996 0.999326 0.032545
vn -0.016996 0.999326 0.032545
vn -0.016996 0.999326 0.032545
vn -0.016996 0.999326 0.032545
vn -0.020740 0.998996 -0.039715
vn -0.020740 0.998996 -0.039715
vn -0.020740 0.998996 -0.039715
vn -0.020740 0.998996 -0.039715
vn -0.031306 0.997711 -0.059947
vn -0.031306 0.997711 -0.059947
vn -0.031306 0.997711 -0.059947
vn -0.031306 0.997711 -0.059947
vn 0.039334 0.998587 -0.035741
vn 0.039334 0.998587 -0.035741
vn 0.039334 0.998587 -0.035741
vn 0.039334 0.998587 -0.035741
vn -0.035462 0.997061 0.067906
vn -0.035462 0.997061 0.067906
vn -0.035462 0.997061 0.067906
vn -0.035462 0.997061 0.067906
vn 0.032079 0.997596 0.061428
vn 0.032079 0.997596 0.061428
vn 0.032079 0.997596 0.061428
vn 0.032079 0.997596 0.061428
vn 0.040989 0.996072 -0.078490
vn 0.040989 0.996072 -0.078490
vn 0.040989 0.996072 -0.078490
vn 0.040989 0.996072 -0.078490
vn -0.019250 0.999135 -0.036862
vn -0.019250 0.999135 -0.036862
vn -0.019250 0.999135 -0.036862
vn -0.019250 0.999135 -0.036862
vn 0.011901 0.999658 -0.023271
vn 0.011901 0.999658 -0.023271
vn 0.011901 0.999658 -0.023271
vn 0.011901 0.999658 -0.023271
vn 0.049972 0.997433 -0.051279
vn 0.049972 0.997433 -0.051279
vn 0.049972 0.997433 -0.051279
vn 0.049972 0.997433 -0.051279
vn -0.016760 0.999322 -0.032773
vn -0.016760 0.999322 -0.032773
vn -0.016760 0.999322 -0.032773
vn -0.016760 0.999322 -0.032773
vn -0.029228 0.997938 -0.057153
vn -0.029228 0.997938 -0.057153
vn -0.029228 0.997938 -0.057153
vn -0.029228 0.997938 -0.057153
vn -0.014390 0.999501 -0.028138
vn -0.014390 0.999501 -0.028138
vn -0.014390 0.999501 -0.028138
vn -0.014390 0.999501 -0.028138
vn 0.000045 1.000000 0.000046
vn 0.000045 1.000000 0.000046
vn -0.060363 0.996253 -0.061941
vn -0.060363 0.996253 -0.061941
vn -0.088891 0.989011 0.118132
vn -0.088891 0.989011 0.118132
vn -0.088891 0.989011 0.118132
vn -0.088891 0.989011 0.118132
vn 0.043570 0.997214 0.060552
vn 0.043570 0.997214 0.060552
vn 0.043570 0.997214 0.060552
vn 0.043570 0.997214 0.060552
vn 0.026577 0.999275 -0.027272
vn 0.026577 0.999275 -0.027272
vn 0.026577 0.999275 -0.027272
vn 0.026577 0.999275 -0.027272
vn 0.006319 0.999904 -0.012356
vn 0.006319 0.999904 -0.012356
vn 0.006319 0.999904 -0.012356
vn 0.006319 0.999904 -0.012356
vn 0.017084 0.999296 -0.033406
vn 0.017084 0.999296 -0.033406
vn 0.017084 0.999296 -0.033406
vn 0.017084 0.999296 -0.033406
vn -0.009824 0.999937 -0.005503
vn -0.009824 0.999937 -0.005503
vn -0.009824 0.999937 -0.005503
vn -0.009824 0.999937 -0.005503
vn -0.038424 0.997986 -0.050468
vn -0.038424 0.997986 -0.050468
vn -0.038424 0.997986 -0.050468
vn -0.038424 0.997986 -0.050468
vn -0.056217 0.996395 -0.063538
vn -0.056217 0.996395 -0.063538
vn -0.056217 0.996395 -0.063538
vn -0.056217 0.996395 -0.063538
vn -0.049972 0.997433 0.051279
vn -0.049972 0.997433 0.051279
vn -0.049972 0.997433 0.051279
vn -0.049972 0.997433 0.051279
vn -0.017084 0.999296 0.033406
vn -0.017084 0.999296 0.033406
vn -0.017084 0.999296 0.033406
vn -0.017084 0.999296 0.033406
vn 0.014390 0.999501 -0.028138
vn 0.014390 0.999501 -0.028138
vn 0.014390 0.999501 -0.028138
vn 0.014390 0.999501 -0.028138
vn 0.060363 0.996253 -0.061941
vn 0.060363 0.996253 -0.061941
vn 0.060363 0.996253 -0.061941
vn 0.060363 0.996253 -0.061941
vn 0.043435 0.998644 0.028705
vn 0.043435 0.998644 0.028705
vn 0.043435 0.998644 0.028705
vn 0.043435 0.998644 0.028705
vn -0.013816 0.999258 0.035943
vn 0.018015 0.999836 0.001902
vn 0.018015 0.999836 0.001902
vn -0.004239 0.999660 0.025706
vn -0.026185 0.999478 -0.018925
vn -0.064787 0.996459 -0.053596
vn -0.064787 0.996459 -0.053596
vn -0.035288 0.999010 -0.027100
vn -0.027069 0.998494 0.047718
vn -0.078430 0.993666 0.080480
vn -0.078430 0.993666 0.080480
vn -0.035414 0.997964 0.053049
vn -0.003246 0.998962 -0.045443
vn -0.000284 0.999789 -0.020523
vn -0.000284 0.999789 -0.020523
vn -0.003564 0.998835 -0.048123
vn 0.034981 0.994216 0.101539
vn 0.034981 0.994216 0.101539
vn 0.034981 0.994216 0.101539
vn 0.034981 0.994216 0.101539
vn 0.034981 0.994216 -0.101539
vn 0.034981 0.994216 -0.101539
vn 0.034981 0.994216 -0.101539
vn 0.034981 0.994216 -0.101539
vn 0.060452 0.996242 -0.062032
vn 0.060452 0.996242 -0.062032
vn 0.060452 0.996242 -0.062032
vn 0.060452 0.996242 -0.062032
vn 0.060452 0.996242 0.062032
vn 0.060452 0.996242 0.062032
vn -0.023881 0.998624 0.046697
vn -0.023881 0.998624 0.046697
vn 0.004336 0.999955 0.008479
vn 0.004336 0.999955 0.008479
vn 0.018244 0.999658 0.018720
vn 0.018244 0.999658 0.018720
vn -0.005600 0.997854 -0.065245
vn -0.005600 0.997854 -0.065245
vn 0.000000 0.000000 1.000000
vn 0.000000 0.000000 1.000000
vn 0.000000 0.000000 1.000000
vn 0.000000 0.000000 1.000000
vn 0.000000 0.000000 1.000000
vn 0.000000 0.000000 1.000000
vn 0.000000 0.000000 1.000000
vn 0.000000 0.000000 1.000000
vn 0.000000 0.000000 1.000000
vn -0.000000 0.000000 1.000000
vn -0.000000 0.000000 1.000000
vn -0.000000 0.000000 1.000000
vn 0.000000 0.000000 1.000000
vn -0.000000 0.000000 1.000000
vn -0.000000 0.000000 -1.000000
vn -0.000000 0.000000 -1.000000
vn -0.000000 0.000000 -1.000000
vn -0.000000 0.000000 -1.000000
vn -0.000000 0.000000 -1.000000
vn -0.000000 0.000000 -1.000000
vn -0.000000 0.000000 -1.000000
vn -0.000000 0.000000 -1.000000
vn 0.000000 0.000000 -1.000000
vn -0.000000 0.000000 -1.000000
vn 0.000000 0.000000 -1.000000
vn 0.000000 0.000000 -1.000000
vn 0.000000 0.000000 -1.000000
vn -0.000000 0.000000 -1.000000
vn 1.000000 0.000000 0.000000
vn 1.000000 0.000000 0.000000
vn 1.000000 0.000000 0.000000
vn -1.000000 0.000000 0.000000
vn -0.010760 -0.999857 -0.013066
vn 0.031049 -0.999128 -0.027906
vn 0.016908 -0.999717 -0.016704
vn -0.010778 -0.999857 0.013031
vn -1.000000 0.000000 0.000000
vn -1.000000 0.000000 0.000000
vn -1.000000 0.000000 0.000000
vn -1.000000 0.000000 0.000000
vn 1.000000 0.000000 0.000000
vn 1.000000 0.000000 0.000000
vn 1.000000 0.000000 0.000000
vn 1.000000 0.000000 0.000000
vn 0.000000 0.000000 -1.000000
vn -0.000000 0.000000 -1.000000
vn 0.000000 0.000000 -1.000000
vn 0.000000 0.000000 -1.000000
vn 0.006292 -0.999971 -0.004362
vn -0.000356 -0.999998 -0.002210
vn 0.000000 -0.999999 -0.001529
vn -0.001486 -0.999984 0.005522
vn 0.012939 -0.999916 0.000000
vn -0.006484 -0.999942 -0.008621
vn 0.006469 -0.999842 0.016562
vn -0.018450 -0.999798 -0.008005
vn 0.000000 -0.998554 0.053761
vn -0.025685 -0.999183 0.031189
vn 0.006470 -0.999974 -0.003325
vn -0.027217 -0.999390 0.021861
vn 0.018381 -0.997955 -0.061213
vn -0.021642 -0.999273 -0.031390
vn 0.006292 -0.999939 -0.009109
vn -0.003385 -0.999871 -0.015723
vn -0.000356 -0.999997 0.002341
vn 0.000000 -0.999999 0.001619
vn -0.000000 0.000000 1.000000
vn 0.000000 0.000000 1.000000
vn 0.000000 0.000000 1.000000
vn -0.000000 0.000000 1.000000
vn 0.000000 0.000000 -1.000000
vn -0.000000 0.000000 -1.000000
vn -0.000000 0.000000 -1.000000
vn 0.000000 0.000000 -1.000000
vn -0.005306 -0.999972 -0.005254
vn -0.001165 -0.999999 0.000701
vn 0.000000 -0.999996 0.002931
vn 0.001486 -0.999945 -0.010339
vn -0.014018 -0.999547 -0.026618
vn 0.007515 -0.999910 -0.011070
vn -0.001925 -0.999984 0.005385
vn 0.015842 -0.999474 0.028306
vn 0.011648 -0.999250 0.036924
vn 0.005693 -0.998667 0.051308
vn 0.024880 -0.999567 0.015732
vn 0.001486 -0.999995 0.002906
vn 0.010167 -0.999782 -0.018259
vn 0.000123 -0.999041 -0.043781
vn -0.000168 -0.999941 -0.010882
vn 0.000856 -0.999919 -0.012669
vn -0.001165 -0.999999 -0.000742
vn 0.000579 -0.999991 -0.004278
vn -0.000000 0.000000 1.000000
vn -0.000000 0.000000 1.000000
vn 0.000000 0.000000 1.000000
vn -0.000000 0.000000 -1.000000
vn -0.000000 0.000000 -1.000000
vn 0.001531 -0.999995 0.002931
vn 0.005444 -0.999957 -0.007493
vn 0.009357 -0.999956 -0.000000
vn -0.000920 -0.999798 0.020092
vn -0.029511 -0.998922 0.035836
vn -0.047835 -0.998855 0.000000
vn -0.030265 -0.998890 -0.036105
vn -0.003675 -0.999910 -0.012903
vn 0.002689 -0.999981 -0.005452
vn 0.000000 0.000000 1.000000
vn -0.000000 0.000000 -1.000000
vn -0.000000 0.000000 -1.000000
vn 0.000000 0.000000 -1.000000
vn -0.000000 0.000000 -1.000000
vn -0.006675 -0.999960 -0.006005
vn 0.001492 -0.999999 -0.000035
vn 0.000000 -0.999996 -0.002892
vn 0.001188 -0.999812 -0.019364
vn -0.017663 -0.999696 0.017227
vn -0.002404 -0.999973 0.006943
vn -0.000894 -0.998581 0.053251
vn -0.014908 -0.998665 0.049457
vn 0.004541 -0.999969 -0.006447
vn -0.011134 -0.999703 0.021686
vn 0.007873 -0.997892 -0.064418
vn 0.016393 -0.998594 -0.050416
vn -0.015401 -0.999776 -0.014494
vn 0.010500 -0.999596 -0.026405
vn -0.005652 -0.999948 0.008433
vn 0.004574 -0.999896 0.013643
vn 0.001492 -0.999999 0.000037
vn 0.000000 -0.999995 0.003062
vn 0.000000 0.000000 1.000000
vn -0.000000 0.000000 1.000000
vn 0.000000 0.000000 1.000000
vn 0.000000 0.000000 1.000000
vn 0.000000 0.000000 -1.000000
vn 0.000000 0.000000 -1.000000
vn -0.000000 0.000000 -1.000000
vn -0.000000 0.000000 -1.000000
vn -0.000000 0.000000 -1.000000
vn -0.000000 0.000000 -1.000000
vn 0.000000 0.000000 -1.000000
vn 0.000000 0.000000 1.000000
vn 0.000000 0.000000 1.000000
vn -0.000000 0.000000 1.000000
vn 0.000000 0.000000 1.000000
vn 0.000000 0.000000 1.000000
vn -0.000000 0.000000 1.000000
vn 0.000000 0.000000 1.000000
s 1
g pCube1
usemtl initialShadingGroup
f 1/276/1 201/277/2 202/278/3 3/279/4
s 2
f 17/283/5 49/282/6 50/287/7 26/288/8
s 3
f 5/315/9 192/316/10 193/317/11 7/318/12
s 4
f 28/209/13 200/210/14 201/211/15 1/212/16
s 5
f 2/1/17 29/2/18 30/3/19 4/4/20
s 6
f 28/32/21 1/33/22 3/34/23 27/35/24
s off
f 67/347/25 68/348/26 69/349/27 70/350/28
s 6
f 7/55/29 118/54/30 119/53/31 5/56/32
s 4
f 7/230/33 193/231/34 194/232/35 118/233/36
s 5
f 116/25/37 117/24/38 8/27/39 6/28/40
s off
f 94/14/41 95/15/42 13/6/43 77/10/44
s 6
f 11/49/45 123/46/46 80/45/47 10/50/48
s 4
f 11/237/49 195/236/50 196/241/51 123/242/52
s 5
f 13/6/53 16/5/54 124/9/55 77/10/56
s 1
f 42/304/57 169/300/58 4/303/59 18/305/60
s 5
f 4/4/20 30/3/19 25/7/61 18/8/62
s 12
f 51/376/63 115/377/64 14/378/65 20/379/66
s 6
f 27/35/24 3/34/23 17/36/67 26/37/68
s 13
f 60/370/69 91/369/70 9/371/71 21/372/72
s 5
f 52/29/73 116/25/37 6/28/40 23/31/74
s 3
f 72/319/75 192/316/10 5/315/9 24/320/76
s 6
f 5/56/32 119/53/31 53/57/77 24/59/78
s 2
f 26/258/8 50/259/7 51/260/79 20/261/80
s 6
f 14/39/81 27/35/24 26/37/68 20/40/82
f 15/38/83 28/32/21 27/35/24 14/39/81
s 4
f 15/213/84 199/214/85 200/210/14 28/209/13
s 5
f 30/3/19 29/2/18 16/5/54 13/6/53
f 25/7/61 30/3/19 13/6/53 19/11/86
s 14
f 41/307/87 42/304/88 18/305/89 25/308/90
f 40/440/91 41/441/87 25/442/90 19/443/92
s 15
f 33/313/93 32/314/94 44/312/95 45/311/96
f 32/420/94 31/421/97 43/422/98 44/423/95
s 16
f 47/424/99 48/425/100 31/421/101 32/420/102
f 46/60/103 47/61/99 32/62/102 33/63/104
s 17
f 34/309/105 35/306/106 41/307/107 40/310/108
f 35/306/106 36/301/109 42/304/110 41/307/107
s 18
f 44/423/111 43/422/112 36/426/113 35/427/114
f 45/311/115 44/312/111 35/306/114 34/309/116
s 19
f 39/380/117 38/388/118 47/389/119 46/384/120
f 38/388/118 37/392/121 48/393/122 47/389/119
s 20
f 50/287/123 49/282/124 37/286/125 38/292/126
f 51/64/127 50/65/123 38/66/126 39/67/128
s off
f 66/355/129 67/347/130 70/350/131 71/356/132
f 64/68/133 65/69/134 57/70/135 58/71/136
f 63/72/137 64/68/138 58/71/139 59/73/140
f 58/373/141 57/368/142 60/370/143 61/374/144
f 59/73/145 58/71/146 61/74/147 62/75/148
f 61/374/149 60/370/150 21/372/151 52/375/152
f 62/341/153 61/345/154 52/346/155 23/344/156
f 56/360/157 55/354/158 64/365/159 63/366/160
f 55/428/161 54/429/162 65/430/163 64/431/164
f 72/319/165 73/325/166 67/329/167 66/323/168
f 73/76/169 74/77/170 68/78/171 67/79/172
f 70/350/173 69/349/174 54/353/175 55/354/176
f 71/356/177 70/350/178 55/354/179 56/360/180
f 53/324/181 73/325/182 72/319/183 24/320/184
f 22/432/185 74/433/186 73/434/187 53/435/188
f 92/21/189 93/18/190 75/13/191 79/17/192
f 93/18/193 94/14/194 77/10/195 75/13/196
f 91/115/197 92/113/198 79/116/199 9/117/200
f 108/88/201 109/86/202 82/87/203 81/89/204
f 109/86/205 110/80/206 83/83/207 82/87/208
s 21
f 110/80/209 106/81/210 84/82/211 83/83/212
s off
f 106/81/213 107/84/214 85/85/215 84/82/216
f 96/98/217 97/92/218 87/95/219 86/99/220
f 97/92/221 98/93/222 88/94/223 87/95/224
f 98/262/225 99/263/226 89/264/227 88/265/228
f 99/101/229 100/103/230 90/104/231 89/105/232
f 86/114/233 87/112/234 92/113/235 91/115/236
f 87/112/237 88/106/238 93/109/239 92/113/240
f 88/106/241 89/107/242 94/108/243 93/109/244
f 89/107/245 90/110/246 95/111/247 94/108/248
f 81/89/249 82/87/250 97/90/251 96/91/252
f 82/96/253 83/97/254 98/93/255 97/92/256
f 83/97/257 84/100/258 99/101/259 98/93/260
f 84/100/261 85/102/262 100/103/263 99/101/264
s 22
f 112/416/265 102/417/266 101/418/267 111/419/268
s 23
f 113/118/269 103/119/270 102/120/271 112/121/272
s 24
f 114/122/273 104/123/274 103/119/275 113/118/276
s 25
f 115/436/277 105/437/278 104/438/279 114/439/280
s off
f 104/128/281 105/132/282 107/133/283 106/129/284
f 101/130/285 102/124/286 109/127/287 108/131/288
f 102/124/289 103/125/290 110/126/291 109/127/292
s 21
f 103/125/293 104/128/294 106/129/210 110/126/209
s 22
f 80/45/295 112/51/265 111/52/268 10/50/296
s 23
f 76/266/297 113/267/269 112/268/272 80/269/298
s 24
f 78/270/299 114/271/273 113/267/276 76/266/300
s 25
f 14/378/301 115/377/277 114/382/280 78/383/302
s 13
f 10/361/303 111/358/304 74/357/305 22/362/306
f 74/357/305 111/358/304 101/351/307 68/348/308
f 68/348/308 101/351/307 108/352/309 69/349/310
f 69/349/310 108/352/309 81/359/311 54/353/312
f 54/353/312 81/359/311 96/363/313 65/364/314
f 65/364/314 96/363/313 86/367/315 57/368/316
f 57/368/316 86/367/315 91/369/70 60/370/69
s 12
f 13/398/317 95/397/318 40/396/319 19/399/320
f 40/396/319 95/397/318 90/395/321 34/394/322
f 34/394/322 90/395/321 100/391/323 45/390/324
f 45/390/324 100/391/323 85/387/325 33/386/326
f 33/386/326 85/387/325 107/385/327 46/384/328
f 46/384/328 107/385/327 105/381/329 39/380/330
f 39/380/330 105/381/329 115/377/64 51/376/63
s 5
f 9/20/331 116/25/37 52/29/73 21/30/332
f 9/20/331 12/19/333 117/24/38 116/25/37
s 4
f 118/233/36 194/232/35 195/236/50 11/237/49
s 6
f 119/53/31 118/54/30 11/49/45 10/50/48
f 53/57/77 119/53/31 10/50/48 22/58/334
s 4
f 121/44/335 197/47/336 198/48/337 125/42/338
f 123/242/52 196/241/51 197/246/336 121/247/335
f 125/400/338 198/401/337 199/402/85 15/403/84
s 6
f 78/41/339 125/42/340 15/38/83 14/39/81
f 76/43/341 121/44/342 125/42/340 78/41/339
f 80/45/47 123/46/46 121/44/342 76/43/341
s 5
f 77/10/56 124/9/55 120/12/343 75/13/344
f 75/13/344 120/12/343 122/16/345 79/17/346
f 79/17/346 122/16/345 12/19/333 9/20/331
s 3
f 126/330/347 148/333/348 149/334/349 127/331/350
s 4
f 128/244/351 127/243/352 149/248/353 150/249/354
f 129/193/355 128/197/351 150/200/354 151/198/356
f 130/189/357 129/193/355 151/198/356 152/199/358
f 131/135/359 130/138/357 152/139/358 153/136/360
f 132/134/361 131/135/359 153/136/360 154/137/362
f 133/140/363 132/134/361 154/137/362 155/141/364
f 134/404/365 133/405/363 155/406/364 156/407/366
f 135/221/367 134/220/365 156/222/366 157/223/368
s 1
f 136/290/369 135/289/370 157/293/371 158/294/372
s 3
f 137/336/373 159/339/374 160/340/375 138/337/376
s 4
f 139/251/377 138/250/378 160/252/379 161/253/380
f 140/256/381 139/251/377 161/253/380 162/257/382
f 141/156/383 140/160/381 162/161/382 163/157/384
f 142/153/385 141/156/383 163/157/384 164/154/386
f 143/152/387 142/153/385 164/154/386 165/155/388
f 144/158/389 143/152/387 165/155/388 166/159/390
f 145/162/391 144/158/389 166/159/390 167/163/392
f 146/225/393 145/224/391 167/226/392 168/227/394
s 1
f 147/297/395 146/296/396 168/299/397 169/300/58
s 3
f 148/333/348 137/336/373 138/337/376 149/334/349
s 4
f 150/249/354 149/248/353 138/250/378 139/251/377
f 151/146/356 150/150/354 139/151/377 140/147/381
f 152/139/358 151/146/356 140/147/381 141/142/383
f 153/136/360 152/139/358 141/142/383 142/143/385
f 154/272/362 153/273/360 142/274/385 143/275/387
f 155/141/364 154/137/362 143/144/387 144/145/389
f 156/148/366 155/141/364 144/145/389 145/149/391
f 157/223/368 156/222/366 145/224/391 146/225/393
s 1
f 158/294/372 157/293/371 146/296/396 147/297/395
s 3
f 159/339/374 6/342/398 8/343/399 160/340/375
s 4
f 161/253/380 160/252/379 8/254/400 117/255/401
f 162/23/382 161/26/380 117/24/401 12/19/402
f 163/22/384 162/23/382 12/19/402 122/16/403
f 164/165/386 163/168/384 122/169/403 120/166/404
f 165/164/388 164/165/386 120/166/404 124/167/405
f 166/170/390 165/164/388 124/167/405 16/171/406
f 167/172/392 166/170/390 16/171/406 29/173/407
f 168/227/394 167/226/392 29/228/407 2/229/408
s 1
f 169/300/58 168/299/397 2/302/409 4/303/59
s 3
f 170/321/410 181/326/411 182/327/412 171/322/413
s 4
f 172/235/414 171/234/415 182/238/416 183/239/417
f 173/408/418 172/409/414 183/410/417 184/411/419
f 174/175/420 173/178/418 184/179/419 185/176/421
f 175/174/422 174/175/420 185/176/421 186/177/423
f 176/180/424 175/174/422 186/177/423 187/181/425
f 177/182/426 176/180/424 187/181/425 188/183/427
f 178/412/428 177/413/426 188/414/427 189/415/429
f 179/216/430 178/215/428 189/218/429 190/219/431
s 1
f 180/281/432 179/280/433 190/284/434 191/285/435
s 3
f 181/326/411 126/330/347 127/331/350 182/327/412
s 4
f 183/239/417 182/238/416 127/243/352 128/244/351
f 184/192/419 183/196/417 128/197/351 129/193/355
f 185/188/421 184/192/419 129/193/355 130/189/357
f 186/185/423 185/188/421 130/189/357 131/186/359
f 187/184/425 186/185/423 131/186/359 132/187/361
f 188/190/427 187/184/425 132/187/361 133/191/363
f 189/194/429 188/190/427 133/191/363 134/195/365
f 190/219/431 189/218/429 134/220/365 135/221/367
s 1
f 191/285/435 190/284/434 135/289/370 136/290/369
s 3
f 192/316/10 170/321/410 171/322/413 193/317/11
s 4
f 194/232/35 193/231/34 171/234/415 172/235/414
f 195/236/50 194/232/35 172/235/414 173/240/418
f 196/241/51 195/236/50 173/240/418 174/245/420
f 197/201/336 196/202/51 174/203/420 175/204/422
f 198/205/337 197/201/336 175/204/422 176/206/424
f 199/207/85 198/205/337 176/206/424 177/208/426
f 200/210/14 199/214/85 177/217/426 178/215/428
f 201/211/15 200/210/14 178/215/428 179/216/430
s 1
f 202/278/3 201/277/2 179/280/433 180/281/432
s 3
f 6/342/398 159/339/374 62/341/436 23/344/437
f 62/341/436 159/339/374 137/336/373 59/338/438
f 59/338/438 137/336/373 148/333/348 63/335/439
f 63/335/439 148/333/348 126/330/347 56/332/440
f 56/332/440 126/330/347 181/326/411 71/328/441
f 71/328/441 181/326/411 170/321/410 66/323/442
f 66/323/442 170/321/410 192/316/10 72/319/75
s 1
f 3/279/4 202/278/3 49/282/443 17/283/444
f 49/282/443 202/278/3 180/281/432 37/286/445
f 37/286/445 180/281/432 191/285/435 48/291/446
f 48/291/446 191/285/435 136/290/369 31/295/447
f 31/295/447 136/290/369 158/294/372 43/298/448
f 43/298/448 158/294/372 147/297/395 36/301/449
f 36/301/449 147/297/395 169/300/58 42/304/57
