# This file uses centimeters as units for non-parametric coordinates.

mtllib Stone_Bench.mtl
g default
v -4.710546 0.645527 6.976500
v -5.503089 0.645527 5.658122
v -4.752185 0.785782 6.986133
v -5.507303 0.773716 5.732503
v -5.305698 0.785782 7.345075
v -6.060236 0.766768 6.086617
v -5.332283 0.645527 7.364126
v -6.131077 0.645527 6.068369
v -5.381640 0.785782 5.887888
v -5.972025 0.785782 6.251842
v -6.044082 0.645527 6.296262
v -5.381640 0.645527 5.887888
v -4.853072 0.785782 6.824588
v -5.441333 0.785782 7.187232
v -5.468361 0.645527 7.203894
v -4.817655 0.645527 6.802753
v -5.315598 0.193614 7.391192
v -5.446525 0.193614 7.178810
v -4.792188 0.193614 6.787055
v -4.746802 0.193614 6.981722
v -5.985955 0.193614 6.260428
v -5.394972 0.193614 5.930839
v -6.063680 0.193614 6.083148
v -5.552547 0.193614 5.739560
v -5.799120 0.785782 5.908763
v -5.693480 0.800267 6.080127
v -5.129494 0.799448 6.994993
v -5.006348 0.785782 7.194753
v -4.991127 0.645527 7.219443
v -4.995142 0.193614 7.212930
v -5.142383 0.193614 6.974084
v -5.129494 0.645527 6.994993
v -5.693480 0.645527 6.080127
v -5.675843 0.193614 6.108737
v -5.825653 0.193614 5.865723
v -5.821897 0.645527 5.871816
v -5.145375 0.785782 6.373510
v -5.411487 0.799421 6.537560
v -5.697675 0.785782 6.713986
v -5.745682 0.645527 6.743581
v -5.411487 0.669134 6.537560
v -5.099648 0.645527 6.345321
v -5.485579 0.715655 5.694033
v -5.381640 0.715655 5.887888
v -5.124048 0.715655 6.360363
v -4.817655 0.715655 6.802753
v -4.701309 0.715655 6.991483
v -5.000944 0.715655 7.203519
v -5.324987 0.715655 7.375961
v -5.456082 0.715655 7.196324
v -5.761505 0.715655 6.753335
v -6.005319 0.715655 6.272366
v -6.118642 0.715655 6.088540
v -5.826666 0.715655 5.864079
v -4.701309 0.419570 6.991483
v -4.817655 0.419570 6.802753
v -5.129494 0.419570 6.994993
v -5.441333 0.419570 7.187232
v -5.324987 0.419570 7.375961
v -4.992297 0.419570 7.217546
v -5.381640 0.419570 5.887888
v -5.494964 0.419570 5.704062
v -5.826238 0.419570 5.864774
v -6.132249 0.419570 6.066467
v -5.967360 0.419570 6.248965
v -5.693480 0.419570 6.080127
v -4.759482 0.785782 6.897118
v -5.071321 0.796307 7.089357
v -5.383160 0.785782 7.281596
v -5.383160 0.715655 7.281596
v -5.395496 0.645527 7.289201
v -5.404859 0.419570 7.294973
v -5.409548 0.193614 7.297863
v -5.071321 0.193614 7.089357
v -4.730674 0.193614 6.879359
v -4.726275 0.419570 6.876647
v -4.735204 0.645527 6.882152
v -4.759482 0.715655 6.897118
v -5.438302 0.785782 5.795975
v -5.750141 0.798537 5.988214
v -6.061981 0.785782 6.180453
v -6.061981 0.715655 6.180453
v -6.089427 0.645527 6.197373
v -6.085966 0.419570 6.195239
v -6.092268 0.193614 6.199124
v -5.750141 0.193614 5.988214
v -5.438302 0.193614 5.795975
v -5.402251 0.419570 5.773750
v -5.438302 0.645527 5.795975
v -5.430406 0.715655 5.791107
v -5.006262 0.785782 6.603388
v -5.270490 0.805837 6.766276
v -5.568615 0.785782 6.950061
v -5.602715 0.715655 6.971082
v -5.598422 0.645527 6.968436
v -5.270490 0.635232 6.766276
v -4.958651 0.645527 6.574037
v -4.958651 0.715655 6.574037
v -5.255878 0.785782 6.125996
v -5.552484 0.791680 6.308844
v -5.831806 0.785782 6.481037
v -5.904650 0.715655 6.525943
v -5.897085 0.645527 6.521279
v -5.552484 0.637101 6.308844
v -5.240644 0.645527 6.116604
v -5.224536 0.715655 6.106674
vt 0.636580 0.456587
vt 0.636580 0.424054
vt 0.660762 0.429215
vt 0.660762 0.461753
vt 0.558667 0.461753
vt 0.558667 0.422156
vt 0.636580 0.396677
vt 0.660762 0.396677
vt 0.684942 0.429215
vt 0.684942 0.459908
vt 0.636580 0.540357
vt 0.660762 0.534866
vt 0.558667 0.539702
vt 0.480755 0.458388
vt 0.480755 0.423091
vt 0.558667 0.396677
vt 0.636580 0.317812
vt 0.660762 0.317812
vt 0.684942 0.404206
vt 0.684942 0.531843
vt 0.480755 0.538111
vt 0.480755 0.391263
vt 0.636580 0.238948
vt 0.660762 0.244135
vt 0.684942 0.327933
vt 0.636580 0.160083
vt 0.660762 0.156659
vt 0.684942 0.248668
vt 0.636580 0.081219
vt 0.660762 0.081219
vt 0.684942 0.163321
vt 0.636580 0.049526
vt 0.660762 0.047847
vt 0.684942 0.081219
vt 0.558667 0.081219
vt 0.558667 0.041863
vt 0.636580 0.001992
vt 0.660762 0.014375
vt 0.684942 0.049526
vt 0.636580 0.147506
vt 0.558667 0.147506
vt 0.480755 0.096029
vt 0.480755 0.049526
vt 0.558667 0.017833
vt 0.680782 0.027640
vt 0.636580 0.222032
vt 0.558667 0.205723
vt 0.480755 0.157371
vt 0.480755 0.030073
vt 0.848465 0.379539
vt 0.872646 0.387778
vt 0.872646 0.419471
vt 0.848465 0.413637
vt 0.848465 0.301950
vt 0.872646 0.300342
vt 0.896826 0.394855
vt 0.896826 0.419471
vt 0.872646 0.451164
vt 0.848465 0.458120
vt 0.770552 0.414373
vt 0.770552 0.395847
vt 0.848465 0.225297
vt 0.872646 0.221934
vt 0.896826 0.315826
vt 0.890270 0.451827
vt 0.872646 0.528561
vt 0.848465 0.525894
vt 0.770552 0.458775
vt 0.848465 0.147764
vt 0.872646 0.146852
vt 0.896826 0.235502
vt 0.770552 0.528322
vt 0.692639 0.413033
vt 0.692639 0.453023
vt 0.848465 0.066575
vt 0.872646 0.069185
vt 0.896826 0.154100
vt 0.692639 0.527994
vt 0.848465 0.037160
vt 0.872646 0.039782
vt 0.896826 0.072320
vt 0.872646 0.007244
vt 0.848465 0.011325
vt 0.896826 0.039782
vt 0.770552 0.035170
vt 0.770552 0.072320
vt 0.896826 0.017894
vt 0.770552 0.007244
vt 0.848465 0.138607
vt 0.770552 0.138607
vt 0.692639 0.034173
vt 0.692639 0.075224
vt 0.692639 0.001992
vt 0.848465 0.204894
vt 0.770552 0.204894
vt 0.692639 0.145816
vt 0.473106 0.125760
vt 0.470590 0.156453
vt 0.363064 0.090167
vt 0.385468 0.053825
vt 0.438319 0.181463
vt 0.343005 0.122705
vt 0.255538 0.023880
vt 0.282248 0.001992
vt 0.385497 0.257736
vt 0.294388 0.201569
vt 0.235479 0.056419
vt 0.337529 0.337001
vt 0.245770 0.280434
vt 0.191590 0.138198
vt 0.299426 0.422347
vt 0.197153 0.359298
vt 0.147089 0.219600
vt 0.256062 0.504449
vt 0.148535 0.438163
vt 0.100838 0.299924
vt 0.236524 0.536143
vt 0.128998 0.469856
vt 0.052489 0.378953
vt 0.212732 0.558028
vt 0.112109 0.497251
vt 0.021471 0.403569
vt 0.220222 0.571294
vt 0.102611 0.512659
vt 0.022073 0.435925
vt 0.001934 0.435262
vt 0.478443 0.666361
vt 0.435834 0.692628
vt 0.363423 0.575169
vt 0.398719 0.580730
vt 0.539910 0.776858
vt 0.507729 0.809253
vt 0.396086 0.717131
vt 0.331595 0.596379
vt 0.466678 0.822003
vt 0.211993 0.575169
vt 0.273335 0.672017
vt 0.231777 0.697636
vt 0.165490 0.590110
vt 0.325640 0.778948
vt 0.304501 0.815606
vt 0.189540 0.723673
vt 0.146038 0.629503
vt 0.264511 0.805748
vt 0.968754 0.859689
vt 0.861228 0.925976
vt 0.812611 0.847111
vt 0.920137 0.780825
vt 0.744382 0.998008
vt 0.699535 0.916819
vt 0.763993 0.768247
vt 0.871520 0.701960
vt 0.648758 0.839286
vt 0.715376 0.689382
vt 0.822902 0.623096
vt 0.596553 0.762633
vt 0.666758 0.610518
vt 0.774285 0.544231
vt 0.545866 0.685044
vt 0.113507 0.807412
vt 0.003578 0.807412
vt 0.001934 0.783231
vt 0.119545 0.783231
vt 0.116309 0.885325
vt 0.002081 0.885325
vt 0.096454 0.963238
vt 0.002283 0.963238
vt 0.022447 0.730994
vt 0.140082 0.730994
vt 0.136697 0.755176
vt 0.024963 0.755176
vt 0.139679 0.653081
vt 0.024963 0.653081
vt 0.134834 0.779356
vt 0.031614 0.779356
vt 0.138698 0.575169
vt 0.028200 0.575169
vt 0.212115 0.935787
vt 0.212115 0.828261
vt 0.290028 0.819480
vt 0.290028 0.940232
vt 0.204896 0.919999
vt 0.204896 0.960896
vt 0.126983 0.963069
vt 0.126983 0.926411
vt 0.126983 0.819480
vt 0.204896 0.825562
vn 0.900556 0.180987 -0.395276
vn 0.900556 0.180987 -0.395276
vn 0.900556 0.180987 -0.395276
vn 0.900556 0.180987 -0.395276
vn 0.044995 0.998290 0.037320
vn 0.044995 0.998290 0.037320
vn 0.044995 0.998290 0.037320
vn 0.044995 0.998290 0.037320
vn -0.808945 0.095735 0.580038
vn -0.808944 0.095735 0.580038
vn -0.808945 0.095735 0.580038
vn -0.808945 0.095735 0.580038
vn 0.000000 -1.000000 0.000000
vn 0.000000 -1.000000 0.000000
vn 0.000000 -1.000000 0.000000
vn 0.000000 -1.000000 0.000000
vn -0.491028 0.214228 -0.844392
vn -0.491028 0.214228 -0.844392
vn -0.491028 0.214228 -0.844392
vn -0.491028 0.214228 -0.844392
vn 0.617042 0.007836 0.786891
vn 0.617042 0.007836 0.786891
vn 0.617042 0.007836 0.786891
vn 0.617042 0.007836 0.786891
vn 0.027425 0.999278 -0.026310
vn 0.027425 0.999278 -0.026310
vn 0.027425 0.999278 -0.026310
vn 0.027425 0.999278 -0.026310
vn -0.771578 0.484263 0.412502
vn -0.771578 0.484263 0.412502
vn -0.771578 0.484263 0.412502
vn -0.771578 0.484263 0.412502
vn 0.000000 -1.000000 0.000000
vn 0.000000 -1.000000 0.000000
vn 0.000000 -1.000000 0.000000
vn 0.000000 -1.000000 0.000000
vn 0.871082 -0.065941 -0.486691
vn 0.871082 -0.065941 -0.486691
vn 0.871082 -0.065941 -0.486691
vn 0.871082 -0.065941 -0.486691
vn 0.050616 0.998539 -0.018917
vn 0.050616 0.998539 -0.018917
vn 0.050616 0.998539 -0.018917
vn 0.050616 0.998539 -0.018917
vn -0.855357 0.066751 0.513721
vn -0.855357 0.066751 0.513721
vn -0.855357 0.066751 0.513721
vn -0.855357 0.066751 0.513721
vn 0.022009 -0.999718 0.008932
vn 0.022009 -0.999718 0.008932
vn 0.022009 -0.999718 0.008932
vn 0.022009 -0.999718 0.008932
vn 0.851246 0.000000 -0.524766
vn 0.851246 0.000000 -0.524766
vn 0.851246 0.000000 -0.524766
vn 0.851246 0.000000 -0.524766
vn -0.736442 0.029701 0.675848
vn -0.736442 0.029701 0.675848
vn -0.736442 0.029701 0.675848
vn -0.736442 0.029701 0.675848
vn -0.524768 0.000000 -0.851245
vn -0.524768 0.000000 -0.851245
vn -0.524768 0.000000 -0.851245
vn -0.524768 0.000000 -0.851245
vn 0.972426 0.034248 -0.230685
vn 0.972426 0.034248 -0.230685
vn 0.972426 0.034248 -0.230685
vn 0.972426 0.034248 -0.230685
vn 0.633978 0.033691 0.772617
vn 0.633978 0.033691 0.772617
vn 0.633978 0.033691 0.772617
vn 0.633978 0.033691 0.772617
vn 0.524766 0.000000 0.851246
vn 0.524766 0.000000 0.851246
vn 0.524766 0.000000 0.851246
vn 0.524766 0.000000 0.851246
vn -0.667993 -0.197017 0.717614
vn -0.667993 -0.197017 0.717614
vn -0.667993 -0.197017 0.717614
vn -0.667993 -0.197017 0.717614
vn -0.497539 -0.078525 -0.863880
vn -0.497539 -0.078525 -0.863880
vn -0.497539 -0.078525 -0.863880
vn -0.497539 -0.078525 -0.863880
vn 0.932389 0.091576 -0.349663
vn 0.932389 0.091576 -0.349663
vn 0.932389 0.091576 -0.349663
vn 0.932389 0.091576 -0.349663
vn -0.033878 0.999229 0.019831
vn -0.033878 0.999229 0.019831
vn -0.033878 0.999229 0.019831
vn -0.033878 0.999229 0.019831
vn -0.034520 0.998840 0.033575
vn -0.034520 0.998840 0.033575
vn -0.034520 0.998840 0.033575
vn -0.034520 0.998840 0.033575
vn 0.012009 0.998569 0.052107
vn 0.012009 0.998569 0.052107
vn 0.012009 0.998569 0.052107
vn 0.012009 0.998569 0.052107
vn 0.430086 0.034031 0.902146
vn 0.430086 0.034031 0.902146
vn 0.430086 0.034031 0.902146
vn 0.430086 0.034031 0.902146
vn 0.410080 0.025609 0.911690
vn 0.410080 0.025609 0.911690
vn 0.410080 0.025609 0.911690
vn 0.410080 0.025609 0.911690
vn 0.000000 -1.000000 0.000000
vn 0.000000 -1.000000 0.000000
vn 0.000000 -1.000000 0.000000
vn 0.000000 -1.000000 0.000000
vn -0.524767 -0.000000 -0.851246
vn -0.524767 -0.000000 -0.851246
vn -0.524767 -0.000000 -0.851246
vn -0.524767 -0.000000 -0.851246
vn -0.001299 -0.999736 0.022932
vn -0.001299 -0.999736 0.022932
vn -0.001299 -0.999736 0.022932
vn -0.001299 -0.999736 0.022932
vn 0.524766 0.000000 0.851246
vn 0.524766 0.000000 0.851246
vn 0.524766 0.000000 0.851246
vn 0.524766 0.000000 0.851246
vn 0.000000 -1.000000 0.000000
vn 0.000000 -1.000000 0.000000
vn 0.000000 -1.000000 0.000000
vn 0.000000 -1.000000 0.000000
vn -0.543279 0.023238 -0.839230
vn -0.543279 0.023238 -0.839230
vn -0.543280 0.023238 -0.839230
vn -0.543279 0.023238 -0.839230
vn -0.570574 0.103416 -0.814709
vn -0.570574 0.103416 -0.814709
vn -0.570574 0.103416 -0.814709
vn -0.570574 0.103416 -0.814709
vn 0.018621 0.999487 -0.026080
vn 0.018621 0.999486 -0.026080
vn 0.018621 0.999487 -0.026080
vn 0.018621 0.999487 -0.026080
vn -0.032805 0.999458 0.002792
vn -0.032805 0.999458 0.002792
vn -0.032805 0.999458 0.002792
vn -0.032805 0.999458 0.002792
vn -0.820937 -0.192171 0.537710
vn -0.820937 -0.192171 0.537710
vn -0.820937 -0.192171 0.537710
vn -0.820937 -0.192171 0.537710
vn 0.047169 -0.998073 0.040306
vn 0.047169 -0.998073 0.040306
vn 0.047169 -0.998073 0.040306
vn 0.047169 -0.998073 0.040306
vn 0.013616 -0.998015 0.061494
vn 0.013616 -0.998015 0.061494
vn 0.013616 -0.998015 0.061494
vn 0.013616 -0.998015 0.061494
vn 0.892086 0.069013 -0.446565
vn 0.892086 0.069013 -0.446565
vn 0.892086 0.069013 -0.446565
vn 0.892086 0.069013 -0.446565
vn 0.871082 0.065937 -0.486692
vn 0.871082 0.065937 -0.486692
vn 0.871082 0.065937 -0.486692
vn 0.871082 0.065937 -0.486692
vn 0.844875 0.399610 -0.355666
vn 0.844875 0.399610 -0.355666
vn 0.844875 0.399610 -0.355666
vn 0.844875 0.399610 -0.355666
vn 0.687218 0.570803 -0.449350
vn 0.687218 0.570803 -0.449350
vn 0.687218 0.570803 -0.449350
vn 0.687218 0.570803 -0.449350
vn 0.894660 0.312348 -0.319410
vn 0.894660 0.312348 -0.319410
vn 0.894660 0.312348 -0.319410
vn 0.894660 0.312348 -0.319410
vn 0.575616 0.307245 0.757804
vn 0.575616 0.307245 0.757804
vn 0.575616 0.307245 0.757804
vn 0.575616 0.307245 0.757804
vn 0.450368 0.201330 0.869848
vn 0.450368 0.201330 0.869848
vn 0.450368 0.201330 0.869848
vn 0.450368 0.201330 0.869848
vn -0.736177 0.240551 0.632597
vn -0.736177 0.240551 0.632597
vn -0.736177 0.240551 0.632597
vn -0.736177 0.240551 0.632597
vn -0.796327 0.378617 0.471713
vn -0.796327 0.378617 0.471713
vn -0.796327 0.378617 0.471713
vn -0.796327 0.378617 0.471713
vn -0.563571 0.753099 0.339455
vn -0.563571 0.753099 0.339455
vn -0.563571 0.753099 0.339455
vn -0.563571 0.753099 0.339455
vn -0.717572 0.264617 0.644258
vn -0.717572 0.264617 0.644258
vn -0.717572 0.264617 0.644258
vn -0.717572 0.264617 0.644258
vn -0.492703 0.578558 -0.650012
vn -0.492703 0.578558 -0.650012
vn -0.492703 0.578558 -0.650012
vn -0.492703 0.578558 -0.650012
vn -0.405269 0.510402 -0.758450
vn -0.405269 0.510402 -0.758450
vn -0.405269 0.510402 -0.758450
vn -0.405269 0.510402 -0.758450
vn 0.993217 -0.109022 -0.040416
vn 0.993217 -0.109022 -0.040416
vn 0.993217 -0.109022 -0.040416
vn 0.993218 -0.109022 -0.040416
vn -0.496300 0.056363 -0.866319
vn -0.496300 0.056363 -0.866319
vn -0.496300 0.056363 -0.866319
vn -0.496300 0.056363 -0.866319
vn -0.540134 0.076007 -0.838140
vn -0.540134 0.076007 -0.838140
vn -0.540134 0.076007 -0.838140
vn -0.540134 0.076007 -0.838140
vn -0.707955 0.020943 0.705947
vn -0.707955 0.020943 0.705947
vn -0.707955 0.020943 0.705947
vn -0.707955 0.020943 0.705947
vn 0.458007 0.027504 0.888523
vn 0.458007 0.027504 0.888523
vn 0.458007 0.027504 0.888523
vn 0.458007 0.027504 0.888523
vn 0.643892 -0.093034 0.759439
vn 0.643892 -0.093034 0.759439
vn 0.643892 -0.093034 0.759439
vn 0.643892 -0.093034 0.759439
vn 0.958994 -0.140308 -0.246260
vn 0.958994 -0.140308 -0.246260
vn 0.958994 -0.140308 -0.246260
vn 0.958994 -0.140308 -0.246260
vn -0.428730 -0.018774 -0.903238
vn -0.428730 -0.018774 -0.903238
vn -0.428729 -0.018774 -0.903238
vn -0.428730 -0.018774 -0.903238
vn -0.605624 -0.123346 -0.786133
vn -0.605624 -0.123346 -0.786133
vn -0.605624 -0.123346 -0.786133
vn -0.605624 -0.123346 -0.786133
vn -0.454642 0.055240 0.888960
vn -0.454642 0.055240 0.888960
vn -0.454642 0.055240 0.888960
vn -0.454642 0.055240 0.888960
vn 0.479742 0.076491 0.874069
vn 0.479742 0.076491 0.874069
vn 0.479742 0.076491 0.874069
vn 0.479742 0.076491 0.874069
vn 0.524614 0.138028 0.840077
vn 0.524614 0.138028 0.840077
vn 0.524614 0.138028 0.840077
vn 0.524614 0.138028 0.840077
vn 0.033762 0.999359 -0.011896
vn 0.033762 0.999359 -0.011896
vn 0.033762 0.999359 -0.011896
vn 0.033762 0.999359 -0.011896
vn -0.020660 0.999355 0.029366
vn -0.020660 0.999355 0.029366
vn -0.020660 0.999355 0.029366
vn -0.020660 0.999355 0.029366
vn -0.801715 0.122232 0.585074
vn -0.801715 0.122232 0.585074
vn -0.801715 0.122232 0.585074
vn -0.801715 0.122232 0.585074
vn -0.744889 0.199608 0.636629
vn -0.744889 0.199608 0.636629
vn -0.744889 0.199608 0.636629
vn -0.744889 0.199608 0.636629
vn -0.869212 -0.045844 0.492309
vn -0.869212 -0.045844 0.492309
vn -0.869212 -0.045844 0.492309
vn -0.869212 -0.045844 0.492309
vn -0.951213 0.017029 0.308064
vn -0.951213 0.017029 0.308064
vn -0.951213 0.017029 0.308064
vn -0.951213 0.017029 0.308064
vn 0.000000 -1.000000 -0.000000
vn 0.000000 -1.000000 -0.000000
vn 0.000000 -1.000000 -0.000000
vn 0.000000 -1.000000 -0.000000
vn 0.000000 -1.000000 0.000000
vn 0.000000 -1.000000 0.000000
vn 0.000000 -1.000000 0.000000
vn 0.000000 -1.000000 0.000000
vn 0.734890 0.053688 -0.676058
vn 0.734890 0.053688 -0.676058
vn 0.734890 0.053688 -0.676058
vn 0.734890 0.053688 -0.676058
vn 0.661246 0.022199 -0.749840
vn 0.661246 0.022199 -0.749840
vn 0.661246 0.022199 -0.749840
vn 0.661246 0.022199 -0.749840
vn 0.761994 0.197702 -0.616667
vn 0.761994 0.197702 -0.616667
vn 0.761994 0.197702 -0.616667
vn 0.761994 0.197702 -0.616667
vn 0.710275 0.279912 -0.645878
vn 0.710275 0.279912 -0.645878
vn 0.710275 0.279912 -0.645878
vn 0.710275 0.279912 -0.645878
vn -0.042708 0.989701 -0.136628
vn -0.042708 0.989701 -0.136628
vn -0.042708 0.989701 -0.136628
vn -0.042708 0.989701 -0.136628
vn -0.144807 0.979491 -0.140101
vn -0.144807 0.979491 -0.140101
vn -0.144807 0.979491 -0.140101
vn -0.144807 0.979491 -0.140101
vn -0.878302 0.426530 0.216007
vn -0.878302 0.426530 0.216007
vn -0.878302 0.426530 0.216007
vn -0.878302 0.426530 0.216007
vn -0.886264 0.242870 0.394400
vn -0.886264 0.242870 0.394400
vn -0.886264 0.242870 0.394400
vn -0.886264 0.242870 0.394400
vn -0.946420 -0.007678 0.322847
vn -0.946420 -0.007678 0.322847
vn -0.946420 -0.007678 0.322847
vn -0.946420 -0.007678 0.322847
vn -0.988541 -0.132956 0.071474
vn -0.988541 -0.132956 0.071474
vn -0.988541 -0.132956 0.071474
vn -0.988541 -0.132956 0.071474
vn 0.000000 -1.000000 0.000000
vn 0.000000 -1.000000 0.000000
vn 0.000000 -1.000000 0.000000
vn 0.000000 -1.000000 0.000000
vn 0.000000 -1.000000 0.000000
vn 0.000000 -1.000000 0.000000
vn 0.000000 -1.000000 0.000000
vn 0.000000 -1.000000 0.000000
vn 0.508514 -0.211958 -0.834558
vn 0.508514 -0.211958 -0.834558
vn 0.508514 -0.211958 -0.834558
vn 0.508514 -0.211958 -0.834558
vn 0.795743 0.046097 -0.603878
vn 0.795743 0.046097 -0.603878
vn 0.795743 0.046097 -0.603878
vn 0.795743 0.046097 -0.603878
vn 0.888975 -0.060562 -0.453934
vn 0.888975 -0.060562 -0.453934
vn 0.888975 -0.060562 -0.453934
vn 0.888975 -0.060562 -0.453934
vn 0.722846 0.365326 -0.586541
vn 0.722846 0.365326 -0.586541
vn 0.722846 0.365326 -0.586541
vn 0.722846 0.365326 -0.586541
vn 0.039826 0.998473 -0.038295
vn 0.039826 0.998473 -0.038295
vn 0.039826 0.998473 -0.038295
vn 0.039826 0.998473 -0.038295
vn -0.048658 0.998711 0.014485
vn -0.048658 0.998710 0.014485
vn -0.048658 0.998711 0.014485
vn -0.048658 0.998711 0.014485
vn -0.652941 0.634153 0.414146
vn -0.652941 0.634153 0.414146
vn -0.652941 0.634153 0.414146
vn -0.652941 0.634153 0.414146
vn -0.811111 -0.165916 0.560867
vn -0.811111 -0.165916 0.560867
vn -0.811111 -0.165916 0.560867
vn -0.811111 -0.165916 0.560867
vn -0.018622 -0.997856 -0.062749
vn -0.018622 -0.997856 -0.062749
vn -0.018622 -0.997856 -0.062749
vn -0.018622 -0.997856 -0.062749
vn -0.048469 -0.997852 -0.044075
vn -0.048469 -0.997852 -0.044075
vn -0.048469 -0.997852 -0.044075
vn -0.048469 -0.997852 -0.044075
vn 0.805483 0.199960 -0.557865
vn 0.805483 0.199960 -0.557865
vn 0.805483 0.199960 -0.557865
vn 0.805483 0.199960 -0.557865
vn 0.714159 0.499592 -0.490289
vn 0.714159 0.499592 -0.490289
vn 0.714159 0.499592 -0.490289
vn 0.714159 0.499592 -0.490289
vn 0.033140 0.999451 -0.000552
vn 0.033140 0.999451 -0.000552
vn 0.033140 0.999451 -0.000552
vn 0.033140 0.999451 -0.000552
vn -0.018105 0.999390 0.029861
vn -0.018105 0.999390 0.029861
vn -0.018105 0.999390 0.029861
vn -0.018105 0.999390 0.029861
vn -0.669932 0.662911 0.334276
vn -0.669932 0.662911 0.334276
vn -0.669932 0.662911 0.334276
vn -0.669932 0.662911 0.334276
vn -0.859430 0.252154 0.444745
vn -0.859430 0.252154 0.444745
vn -0.859430 0.252154 0.444745
vn -0.859430 0.252154 0.444745
vn -0.016937 -0.999826 -0.007817
vn -0.016937 -0.999826 -0.007817
vn -0.016937 -0.999826 -0.007817
vn -0.016937 -0.999826 -0.007817
vn 0.001561 -0.999811 -0.019379
vn 0.001561 -0.999811 -0.019379
vn 0.001561 -0.999811 -0.019379
vn 0.001561 -0.999811 -0.019379
vn 0.824787 -0.133625 -0.549427
vn 0.824787 -0.133625 -0.549427
vn 0.824787 -0.133625 -0.549427
vn 0.824787 -0.133625 -0.549427
vn 0.822377 0.253917 -0.509139
vn 0.822377 0.253917 -0.509139
vn 0.822377 0.253917 -0.509139
vn 0.822377 0.253917 -0.509139
s off
g polySurface401 polySurface39
usemtl lambert14SG
f 1/1/1 77/2/2 78/3/3 47/4/4
f 3/97/5 67/98/6 68/99/7 28/100/8
f 49/82/9 70/80/10 71/79/11 7/83/12
f 30/127/13 74/128/14 75/129/15 20/130/16
f 2/160/17 36/161/18 54/162/19 43/163/20
f 29/11/21 1/1/22 47/4/23 48/12/24
f 9/114/25 79/117/26 80/118/27 26/115/28
f 11/50/29 52/51/30 82/52/31 83/53/32
f 22/136/33 34/137/34 86/138/35 87/139/36
f 44/30/37 12/29/38 89/32/39 90/33/40
f 13/101/41 91/105/42 92/106/43 27/102/44
f 15/75/45 50/76/46 94/70/47 95/69/48
f 16/145/49 32/146/50 96/147/51 97/148/52
f 46/8/53 16/7/54 97/17/55 98/18/56
f 7/83/57 71/79/58 72/85/59 59/88/60
f 32/89/61 16/94/62 56/95/63 57/90/64
f 77/2/65 1/1/66 55/5/67 76/6/68
f 1/1/69 29/11/70 60/13/71 55/5/72
f 12/29/73 33/40/74 66/41/75 61/35/76
f 11/50/77 83/53/78 84/60/79 65/61/80
f 36/161/81 2/160/82 62/164/83 63/165/84
f 89/32/85 12/29/86 61/35/87 88/36/88
f 26/115/89 80/118/90 81/122/91 10/119/92
f 27/102/93 92/106/94 93/110/95 14/107/96
f 28/100/97 68/99/98 69/103/99 5/104/100
f 7/168/101 29/169/102 48/170/103 49/171/104
f 60/172/105 29/169/106 7/168/107 59/173/108
f 17/131/109 73/132/110 74/128/111 30/127/112
f 15/75/113 32/89/114 57/90/115 58/86/116
f 96/147/117 32/146/118 15/149/119 95/150/120
f 66/41/121 33/40/122 11/46/123 65/47/124
f 86/138/125 34/137/126 21/140/127 85/141/128
f 8/59/129 36/67/130 63/72/131 64/68/132
f 54/66/133 36/67/134 8/59/135 53/58/136
f 37/108/137 99/111/138 100/112/139 38/109/140
f 39/113/141 38/109/142 100/112/143 101/116/144
f 40/62/145 51/63/146 102/55/147 103/54/148
f 104/154/149 41/151/150 40/153/151 103/156/152
f 42/152/153 41/151/154 104/154/155 105/155/156
f 45/24/157 42/23/158 105/26/159 106/27/160
f 9/34/161 44/30/162 90/33/163 79/39/164
f 37/28/165 45/24/166 106/27/167 99/31/168
f 13/19/169 46/8/170 98/18/171 91/25/172
f 47/4/173 78/3/174 67/9/175 3/10/176
f 48/12/177 47/4/178 3/10/179 28/20/180
f 49/171/181 48/170/182 28/174/183 5/175/184
f 5/87/185 69/84/186 70/80/187 49/82/188
f 94/70/189 50/76/190 14/81/191 93/77/192
f 102/55/193 51/63/194 39/71/195 101/64/196
f 82/52/197 52/51/198 10/56/199 81/57/200
f 25/121/201 54/124/202 53/126/203 6/125/204
f 43/123/205 54/124/206 25/121/207 4/120/208
f 76/6/209 55/5/210 20/14/211 75/15/212
f 57/178/213 56/179/214 19/180/215 31/181/216
f 58/86/217 57/90/218 31/96/219 18/92/220
f 59/88/221 72/85/222 73/91/223 17/93/224
f 30/176/225 60/172/226 59/173/227 17/177/228
f 55/5/229 60/13/230 30/21/231 20/14/232
f 88/36/233 61/35/234 22/42/235 87/43/236
f 63/165/237 62/164/238 24/166/239 35/167/240
f 64/68/241 63/72/242 35/78/243 23/74/244
f 65/182/245 84/183/246 85/184/247 21/185/248
f 34/186/249 66/187/250 65/182/251 21/185/252
f 61/35/253 66/41/254 34/48/255 22/42/256
f 67/98/257 13/101/258 27/102/259 68/99/260
f 69/103/261 68/99/262 27/102/263 14/107/264
f 70/80/265 69/84/266 14/81/267 50/76/268
f 71/79/269 70/80/270 50/76/271 15/75/272
f 72/85/273 71/79/274 15/75/275 58/86/276
f 73/91/277 72/85/278 58/86/279 18/92/280
f 74/128/281 73/132/282 18/135/283 31/133/284
f 75/129/285 74/128/286 31/133/287 19/134/288
f 56/16/289 76/6/290 75/15/291 19/22/292
f 16/7/293 77/2/294 76/6/295 56/16/296
f 78/3/297 77/2/298 16/7/299 46/8/300
f 67/9/301 78/3/302 46/8/303 13/19/304
f 79/117/305 4/120/306 25/121/307 80/118/308
f 81/122/309 80/118/310 25/121/311 6/125/312
f 53/58/313 82/52/314 81/57/315 6/65/316
f 83/53/317 82/52/318 53/58/319 8/59/320
f 84/60/321 83/53/322 8/59/323 64/68/324
f 85/73/325 84/60/326 64/68/327 23/74/328
f 35/142/329 86/138/330 85/141/331 23/144/332
f 87/139/333 86/138/334 35/142/335 24/143/336
f 62/44/337 88/36/338 87/43/339 24/49/340
f 2/37/341 89/32/342 88/36/343 62/44/344
f 90/33/345 89/32/346 2/37/347 43/38/348
f 79/39/349 90/33/350 43/38/351 4/45/352
f 91/105/353 37/108/354 38/109/355 92/106/356
f 93/110/357 92/106/358 38/109/359 39/113/360
f 51/63/361 94/70/362 93/77/363 39/71/364
f 95/69/365 94/70/366 51/63/367 40/62/368
f 41/151/369 96/147/370 95/150/371 40/153/372
f 97/148/373 96/147/374 41/151/375 42/152/376
f 98/18/377 97/17/378 42/23/379 45/24/380
f 91/25/381 98/18/382 45/24/383 37/28/384
f 99/111/385 9/114/386 26/115/387 100/112/388
f 101/116/389 100/112/390 26/115/391 10/119/392
f 52/51/393 102/55/394 101/64/395 10/56/396
f 103/54/397 102/55/398 52/51/399 11/50/400
f 33/157/401 104/154/402 103/156/403 11/159/404
f 105/155/405 104/154/406 33/157/407 12/158/408
f 106/27/409 105/26/410 12/29/411 44/30/412
f 99/31/413 106/27/414 44/30/415 9/34/416
