# This file uses centimeters as units for non-parametric coordinates.

mtllib E-01.mtl
g default
v 13.287581 2.555750 -6.614054
v 14.911688 2.555750 -6.614054
v 14.911688 2.787216 -6.614054
v 13.287581 2.787216 -6.614054
v 11.685820 2.555750 -6.614054
v 11.685820 2.787216 -6.614054
v 13.287581 2.555750 -6.676960
v 14.911688 2.555750 -6.676960
v 16.535793 2.555750 -6.614054
v 16.535793 2.787216 -6.614054
v 14.911688 5.512980 -6.614054
v 11.387637 2.555750 -6.614054
v 11.387637 2.787216 -6.614054
v 11.685820 2.555750 -6.676960
v 13.287581 2.787216 -6.676960
v 11.685820 2.787216 -6.676960
v 13.287581 2.555750 -6.972678
v 14.911688 2.555750 -6.972678
v 16.535793 2.555750 -6.676960
v 16.535793 5.512980 -6.614054
v 16.535793 2.787216 -6.676960
v 13.287581 5.512980 -6.606318
v 11.279856 2.555750 -6.614054
v 11.279856 2.787216 -6.614054
v 11.387637 2.555750 -6.676960
v 11.387637 2.787216 -6.676960
v 11.685820 2.555750 -6.972678
v 13.287581 5.512980 -6.669436
v 13.287581 2.787216 -6.972678
v 11.685820 2.787216 -6.972678
v 13.287581 2.555750 -12.476517
v 14.911688 2.555750 -12.476517
v 16.535793 2.555750 -6.972678
v 14.911688 5.814865 -6.614054
v 16.535793 5.814865 -6.614054
v 16.535793 5.512980 -6.676960
v 16.535793 2.787216 -6.972678
v 11.279856 2.787216 -6.676960
v 11.279856 2.555750 -6.676960
v 11.387637 2.555750 -6.972678
v 11.387637 2.787216 -6.972678
v 11.685820 2.555750 -12.476517
v 11.685820 5.512980 -6.669436
v 11.685820 5.512980 -6.606318
v 13.287581 5.512980 -6.965415
v 13.287581 2.787216 -12.476517
v 11.685820 2.787216 -12.476517
v 13.287581 2.555750 -14.154644
v 14.911688 2.555750 -14.154644
v 16.535793 2.555750 -12.476517
v 16.535793 8.468091 -6.614054
v 14.911688 9.794677 -6.614054
v 16.535793 5.814865 -6.676960
v 16.535793 5.512980 -6.972678
v 16.535793 2.787216 -12.476517
v 13.287581 5.814865 -6.614054
v 11.279856 2.787216 -6.972678
v 11.279856 2.555750 -6.972678
v 11.387637 2.555750 -12.476517
v 11.387637 2.787216 -12.476517
v 11.685820 2.555750 -14.154644
v 11.387637 5.512980 -6.669436
v 11.387637 5.512980 -6.606318
v 11.685820 5.512980 -6.965415
v 13.287581 3.549937 -11.738235
v 13.287581 5.096497 -11.738235
v 13.287581 5.096497 -7.442750
v 13.287581 5.512980 -12.476517
v 13.287581 3.549937 -7.442750
v 11.685820 5.512980 -12.476517
v 13.287581 2.555750 -15.832771
v 14.911688 2.555750 -15.832771
v 16.535793 2.555750 -14.154644
v 16.535793 8.468091 -6.676960
v 14.911688 9.794677 -6.497605
v 13.287581 8.468091 -6.614054
v 16.535793 5.814865 -6.972678
v 16.535793 5.512980 -12.476517
v 16.535793 2.787216 -14.154644
v 11.279856 2.555750 -12.476517
v 11.279856 2.787216 -12.476517
v 11.387637 2.555750 -14.154644
v 11.387637 5.512980 -12.476517
v 11.685820 2.555750 -15.832771
v 11.279856 5.512980 -6.669436
v 11.279856 5.512980 -6.606318
v 11.387637 2.779878 -6.669436
v 11.685820 2.779878 -6.669436
v 11.685820 5.814865 -6.607882
v 11.685820 2.779878 -6.965415
v 13.287581 2.787216 -15.832771
v 14.911688 2.787216 -15.832771
v 16.535793 2.555750 -15.832771
v 16.535793 8.468091 -6.972678
v 16.587158 8.468091 -6.563693
v 16.585793 8.468091 -6.497605
v 13.287581 8.468091 -6.676960
v 13.287581 5.814865 -6.676960
v 16.535793 5.814865 -12.476517
v 16.535793 5.512980 -14.154644
v 16.535793 2.787216 -15.832771
v 11.279856 2.555750 -14.154644
v 11.279856 2.787216 -14.154644
v 11.279856 5.512980 -12.476517
v 11.387637 2.555750 -15.832771
v 11.387637 5.512980 -6.965415
v 11.685820 2.787216 -15.832771
v 11.279856 5.814865 -6.669436
v 11.279856 5.814865 -6.606318
v 11.279856 5.512980 -6.965415
v 11.387637 5.814865 -6.606735
v 11.387637 2.779878 -6.965415
v 11.685820 5.814865 -6.670958
v 13.287581 5.512980 -15.832771
v 14.911688 5.512980 -15.832771
v 16.535793 8.468091 -12.476517
v 16.588852 8.468091 -6.863350
v 16.587158 8.637774 -6.563693
v 16.585793 8.637774 -6.497605
v 13.237582 8.468091 -6.497605
v 14.911688 10.049199 -6.497605
v 13.237582 8.468091 -6.562327
v 13.287581 8.468091 -6.972678
v 13.287581 5.814865 -6.972678
v 16.535793 5.814865 -14.154644
v 16.535793 5.512980 -15.832771
v 11.279856 2.555750 -15.832771
v 11.279856 2.787216 -15.832771
v 11.279856 5.512980 -14.154644
v 11.279856 4.823217 -14.154644
v 11.279856 4.823217 -13.662113
v 11.279856 3.823217 -13.662113
v 11.279856 3.823217 -14.154644
v 11.387637 2.787216 -15.832771
v 11.685820 5.512980 -15.832771
v 11.387637 5.814865 -6.669840
v 11.279856 5.814865 -6.965415
v 11.685820 5.814865 -6.966883
v 13.287581 5.814865 -15.832771
v 14.911688 5.814865 -15.832771
v 16.535793 8.468091 -14.154644
v 16.635792 8.468091 -12.476517
v 16.588852 8.637774 -6.863350
v 16.535793 8.637774 -6.676960
v 16.535793 8.637774 -6.614054
v 13.237582 8.637774 -6.497605
v 13.237582 8.637774 -6.562327
v 13.237582 8.468091 -6.860293
v 13.287581 7.775497 -7.468264
v 13.287581 6.775497 -7.468264
v 13.287581 6.775497 -8.468264
v 13.287581 6.775497 -9.106813
v 13.287581 6.775497 -10.106813
v 13.287581 6.775497 -10.743128
v 13.287581 6.775497 -11.743128
v 13.287581 5.814865 -12.476517
v 16.535793 5.814865 -15.832771
v 11.279856 3.823217 -14.662113
v 11.279856 4.823217 -14.662113
v 11.279856 5.512980 -15.832771
v 11.279856 5.814865 -12.476517
v 11.279856 5.814865 -14.154644
v 11.416151 4.823217 -14.662113
v 11.416151 4.823217 -13.662113
v 11.416151 3.823217 -13.662113
v 11.416151 3.823217 -14.662113
v 11.387637 5.512980 -15.832771
v 11.685820 5.814865 -15.832771
v 11.387637 5.814865 -6.965804
v 11.685820 5.814865 -12.476517
v 13.287581 8.468091 -15.832771
v 14.911688 8.468091 -15.832771
v 16.535793 8.468091 -15.832771
v 16.635792 8.468091 -14.154644
v 16.635792 8.637774 -12.476517
v 16.535793 8.637774 -6.972678
v 14.911688 10.049199 -6.614054
v 14.911688 10.049199 -6.676960
v 13.287581 8.637774 -6.614054
v 13.287581 8.637774 -6.676960
v 13.237582 8.637774 -6.860293
v 13.287581 8.468091 -12.476517
v 13.237582 8.468091 -12.426517
v 13.287581 7.775497 -9.106813
v 13.287581 7.775497 -8.468264
v 13.448647 7.775497 -7.468264
v 13.448647 6.775497 -7.468264
v 13.448647 6.775497 -8.468264
v 13.448647 6.775497 -9.106813
v 13.448647 6.775497 -10.106813
v 13.287581 7.775497 -11.743128
v 13.287581 7.775497 -10.743128
v 13.287581 7.775497 -10.106813
v 13.448647 6.775497 -10.743128
v 13.448647 6.775497 -11.743128
v 11.279856 5.814865 -15.832771
v 11.279856 8.468091 -12.476517
v 11.279856 9.794677 -14.154644
v 11.279856 7.775497 -14.154644
v 11.279856 7.775497 -13.662113
v 11.279856 6.775497 -13.662113
v 11.279856 6.775497 -14.154644
v 11.387637 5.814865 -12.476517
v 11.387637 5.814865 -15.832771
v 11.685820 8.468091 -15.832771
v 11.685820 8.468091 -12.476517
v 13.287581 8.468091 -15.932770
v 14.911688 8.468091 -15.932770
v 16.585793 8.468091 -15.882771
v 16.635792 8.637774 -14.154644
v 16.535793 8.637774 -12.476517
v 14.911688 10.049199 -6.972678
v 13.287581 8.637774 -6.972678
v 13.237582 8.637774 -12.426517
v 11.556754 8.468091 -12.426517
v 13.448647 7.775497 -9.106813
v 13.448647 7.775497 -8.468264
v 13.448647 7.775497 -10.106813
v 13.448647 7.775497 -11.743128
v 13.448647 7.775497 -10.743128
v 11.279856 6.775497 -14.662113
v 11.279856 7.775497 -14.662113
v 11.279856 8.468091 -15.832771
v 11.387637 8.468091 -12.476517
v 11.130750 9.794677 -14.154644
v 11.416151 7.775497 -14.662113
v 11.416151 7.775497 -13.662113
v 11.416151 6.775497 -13.662113
v 11.416151 6.775497 -14.662113
v 11.387637 8.468091 -15.832771
v 11.566864 8.468091 -15.892881
v 13.287581 8.637774 -15.932770
v 14.911688 8.637774 -15.932770
v 16.585793 8.637774 -15.882771
v 16.535793 8.637774 -14.154644
v 14.911688 10.049199 -12.476517
v 13.287581 8.637774 -12.476517
v 11.556754 8.637774 -12.426517
v 11.243853 8.468091 -12.426517
v 11.130751 8.468091 -12.426517
v 11.246536 8.468091 -15.885454
v 11.566864 8.637774 -15.892881
v 13.287581 8.637774 -15.832771
v 14.911688 8.637774 -15.832771
v 16.535793 8.637774 -15.832771
v 14.911688 10.049199 -14.154644
v 11.685820 8.637774 -12.476517
v 11.243853 8.637774 -12.426517
v 11.130751 8.468091 -15.882771
v 11.130751 8.637774 -12.426517
v 11.130750 10.049199 -14.154644
v 11.246536 8.637774 -15.885454
v 11.685820 8.637774 -15.832771
v 13.287581 10.049199 -14.154644
v 11.685820 10.049199 -14.154644
v 11.387637 8.637774 -12.476517
v 11.130751 8.637774 -15.882771
v 11.279856 8.637774 -12.476517
v 11.387637 8.637774 -15.832771
v 11.387637 10.049199 -14.154644
v 11.279856 8.637774 -15.832771
v 11.279856 10.049199 -14.154644
v 13.380496 5.096497 -7.442750
v 13.380496 3.549937 -7.442750
v 13.380496 3.549937 -11.738235
v 13.380496 5.096497 -11.738235
vt 0.532281 0.765023
vt 0.532281 0.762434
vt 0.541806 0.762434
vt 0.541806 0.765023
vt 0.532281 0.750265
vt 0.541806 0.750265
vt 0.653975 0.762434
vt 0.653975 0.765023
vt 0.532281 0.523774
vt 0.541806 0.523774
vt 0.653975 0.750265
vt 0.666398 0.762434
vt 0.666398 0.765023
vt 0.532281 0.454716
vt 0.541806 0.454716
vt 0.653975 0.523774
vt 0.666398 0.750265
vt 0.775583 0.762434
vt 0.775583 0.765023
vt 0.532281 0.385659
vt 0.541806 0.385659
vt 0.653975 0.454716
vt 0.666398 0.523774
vt 0.775583 0.750265
vt 0.653975 0.385659
vt 0.666398 0.454716
vt 0.775583 0.523774
vt 0.666398 0.385659
vt 0.775583 0.454716
vt 0.775583 0.385659
vt 0.114161 0.644138
vt 0.001992 0.644448
vt 0.001992 0.641859
vt 0.114161 0.641541
vt 0.114161 0.656318
vt 0.001992 0.656617
vt 0.097022 0.675961
vt 0.033379 0.675961
vt 0.033379 0.852727
vt 0.001992 0.883109
vt 0.097022 0.852727
vt 0.114161 0.883109
vt 0.493103 0.004892
vt 0.483578 0.004892
vt 0.483578 0.002303
vt 0.493103 0.002303
vt 0.493103 0.017061
vt 0.483578 0.017061
vt 0.483578 0.243552
vt 0.493103 0.243552
vt 0.483578 0.312610
vt 0.493103 0.312610
vt 0.605273 0.243552
vt 0.605273 0.312610
vt 0.576888 0.312610
vt 0.576888 0.292342
vt 0.535736 0.292342
vt 0.535736 0.312610
vt 0.483578 0.381667
vt 0.493103 0.381667
vt 0.617696 0.243552
vt 0.617696 0.312610
vt 0.535736 0.333493
vt 0.576888 0.333493
vt 0.605273 0.381667
vt 0.605273 0.016762
vt 0.617696 0.016762
vt 0.726880 0.243552
vt 0.781471 0.312610
vt 0.698379 0.312610
vt 0.698379 0.292342
vt 0.657227 0.292342
vt 0.657227 0.312610
vt 0.617696 0.381667
vt 0.605273 0.004582
vt 0.617696 0.004582
vt 0.657227 0.333493
vt 0.698379 0.333493
vt 0.726880 0.381667
vt 0.605273 0.001985
vt 0.617696 0.001985
vt 0.790050 0.881486
vt 0.777870 0.881486
vt 0.777870 0.769015
vt 0.790050 0.769015
vt 0.499213 0.698721
vt 0.390028 0.698721
vt 0.390028 0.696132
vt 0.499213 0.696132
vt 0.499213 0.710890
vt 0.390028 0.710890
vt 0.470711 0.731284
vt 0.429560 0.731284
vt 0.429560 0.772436
vt 0.429560 0.798713
vt 0.429560 0.839864
vt 0.429560 0.866050
vt 0.429560 0.907201
vt 0.390028 0.937381
vt 0.470711 0.798713
vt 0.470711 0.772436
vt 0.470711 0.907201
vt 0.470711 0.866050
vt 0.470711 0.839864
vt 0.499213 0.937381
vt 0.809539 0.881486
vt 0.797359 0.881486
vt 0.797359 0.769015
vt 0.809539 0.769015
vt 0.469935 0.388199
vt 0.469935 0.385479
vt 0.476918 0.385479
vt 0.476918 0.388199
vt 0.469935 0.373148
vt 0.476918 0.373148
vt 0.469935 0.142157
vt 0.476918 0.142157
vt 0.469935 0.073100
vt 0.476918 0.073100
vt 0.469935 0.001985
vt 0.476918 0.001985
vt 0.303720 0.396911
vt 0.296738 0.396911
vt 0.296738 0.394248
vt 0.303720 0.394248
vt 0.303720 0.409173
vt 0.296738 0.409173
vt 0.296738 0.638232
vt 0.303720 0.638232
vt 0.778186 0.910790
vt 0.778186 0.951941
vt 0.737034 0.951941
vt 0.737034 0.910790
vt 0.692609 0.915236
vt 0.692609 0.956388
vt 0.651457 0.956388
vt 0.651457 0.915236
vt 0.591407 0.949772
vt 0.632559 0.949772
vt 0.632559 0.990923
vt 0.591407 0.990923
vt 0.534218 0.949772
vt 0.534218 0.990923
vt 0.493066 0.990923
vt 0.493066 0.949772
vt 0.439955 0.941373
vt 0.439955 0.982524
vt 0.398803 0.982524
vt 0.398803 0.941373
vt 0.668749 0.840130
vt 0.614158 0.769015
vt 0.621141 0.769015
vt 0.679223 0.840130
vt 0.614158 0.911245
vt 0.621141 0.911245
vt 0.532302 0.769015
vt 0.595945 0.769015
vt 0.595945 0.945780
vt 0.532302 0.945780
vt 0.864339 0.762434
vt 0.931173 0.762434
vt 0.931173 0.765023
vt 0.864339 0.765023
vt 0.864339 0.750265
vt 0.931173 0.750265
vt 0.998008 0.762434
vt 0.998008 0.765023
vt 0.798424 0.762434
vt 0.798424 0.765023
vt 0.864339 0.523774
vt 0.931173 0.523774
vt 0.998008 0.750265
vt 0.798424 0.750265
vt 0.786153 0.762434
vt 0.786153 0.765023
vt 0.864339 0.454716
vt 0.931173 0.454716
vt 0.998008 0.523774
vt 0.798424 0.523774
vt 0.786153 0.750265
vt 0.781718 0.762434
vt 0.781718 0.765023
vt 0.864339 0.385659
vt 0.931173 0.385659
vt 0.998008 0.454716
vt 0.798424 0.454716
vt 0.786153 0.523774
vt 0.781718 0.750265
vt 0.998008 0.385659
vt 0.798424 0.385659
vt 0.786153 0.454716
vt 0.781718 0.523774
vt 0.786153 0.385659
vt 0.781718 0.454716
vt 0.781718 0.385659
vt 0.317083 0.696132
vt 0.382998 0.696132
vt 0.382998 0.698721
vt 0.317083 0.698721
vt 0.382998 0.710890
vt 0.317083 0.710890
vt 0.304812 0.696132
vt 0.304812 0.698721
vt 0.382998 0.937381
vt 0.317083 0.937381
vt 0.304812 0.710890
vt 0.300377 0.696132
vt 0.300377 0.698721
vt 0.304812 0.937381
vt 0.300377 0.710890
vt 0.300377 0.937381
vt 0.137779 0.880511
vt 0.203694 0.880511
vt 0.203694 0.883109
vt 0.137779 0.883109
vt 0.137779 0.868331
vt 0.203694 0.868331
vt 0.125508 0.880511
vt 0.125508 0.883109
vt 0.137779 0.641541
vt 0.203694 0.641541
vt 0.121073 0.880511
vt 0.121073 0.883109
vt 0.125508 0.641541
vt 0.125508 0.868331
vt 0.121073 0.868331
vt 0.121073 0.641541
vt 0.224418 0.385464
vt 0.224418 0.382875
vt 0.226532 0.387537
vt 0.226475 0.390256
vt 0.224418 0.370706
vt 0.226601 0.375205
vt 0.157583 0.390256
vt 0.157583 0.385464
vt 0.224418 0.144215
vt 0.228533 0.144215
vt 0.090749 0.385464
vt 0.088691 0.390256
vt 0.224418 0.075157
vt 0.228533 0.075157
vt 0.088691 0.387593
vt 0.090749 0.382875
vt 0.224418 0.006100
vt 0.226475 0.004042
vt 0.088691 0.375331
vt 0.090749 0.370706
vt 0.157583 0.006100
vt 0.157583 0.001985
vt 0.090749 0.144215
vt 0.088691 0.146272
vt 0.090749 0.006100
vt 0.090749 0.001985
vt 0.024834 0.144215
vt 0.019523 0.146272
vt 0.024834 0.006100
vt 0.019939 0.003626
vt 0.012563 0.144215
vt 0.006646 0.146272
vt 0.012563 0.006100
vt 0.006757 0.003932
vt 0.008128 0.144215
vt 0.001992 0.146272
vt 0.008128 0.006100
vt 0.001992 0.004042
vt 0.001992 0.075157
vt 0.008128 0.075157
vt 0.380488 0.953643
vt 0.380488 0.941373
vt 0.392668 0.941373
vt 0.392668 0.953643
vt 0.293346 0.645130
vt 0.227431 0.644883
vt 0.227431 0.642287
vt 0.293346 0.642541
vt 0.293346 0.657299
vt 0.227431 0.657061
vt 0.215160 0.644837
vt 0.215160 0.642240
vt 0.293346 0.883791
vt 0.227431 0.883791
vt 0.215160 0.657016
vt 0.210725 0.644820
vt 0.210725 0.642223
vt 0.215160 0.883791
vt 0.210725 0.657000
vt 0.210725 0.883791
vt 0.460601 0.004704
vt 0.458487 0.009366
vt 0.458487 0.006777
vt 0.460544 0.001985
vt 0.460670 0.017036
vt 0.458487 0.021535
vt 0.391653 0.006777
vt 0.391653 0.009366
vt 0.391653 0.001985
vt 0.458487 0.248026
vt 0.462602 0.248026
vt 0.391653 0.021535
vt 0.324818 0.006777
vt 0.324818 0.009366
vt 0.322761 0.001985
vt 0.391653 0.248026
vt 0.458487 0.317084
vt 0.462602 0.317084
vt 0.324818 0.021535
vt 0.322761 0.004648
vt 0.391653 0.317084
vt 0.324818 0.248026
vt 0.458487 0.386141
vt 0.460544 0.388199
vt 0.322761 0.016910
vt 0.322761 0.245969
vt 0.391653 0.386141
vt 0.391653 0.390256
vt 0.324818 0.317084
vt 0.258903 0.248026
vt 0.253592 0.245969
vt 0.324818 0.386141
vt 0.324818 0.390256
vt 0.258903 0.317084
vt 0.246632 0.248026
vt 0.240716 0.245969
vt 0.258903 0.386141
vt 0.254008 0.388615
vt 0.246632 0.317084
vt 0.242197 0.248026
vt 0.236061 0.245969
vt 0.246632 0.386141
vt 0.240826 0.388309
vt 0.242197 0.317084
vt 0.236061 0.317084
vt 0.242197 0.386141
vt 0.236061 0.388199
vt 0.870607 0.926327
vt 0.870607 0.906058
vt 0.870607 0.885175
vt 0.876216 0.885175
vt 0.876216 0.926327
vt 0.847119 0.926327
vt 0.847119 0.905444
vt 0.847119 0.885175
vt 0.852728 0.885175
vt 0.852728 0.926327
vt 0.821592 0.926629
vt 0.821592 0.885477
vt 0.828220 0.885477
vt 0.828220 0.926629
vt 0.808829 0.926629
vt 0.808829 0.885477
vt 0.815457 0.885477
vt 0.815457 0.926629
vt 0.796065 0.926629
vt 0.796065 0.885477
vt 0.802693 0.885477
vt 0.802693 0.926629
vt 0.698744 0.951941
vt 0.698744 0.910790
vt 0.705372 0.910790
vt 0.705372 0.951941
vt 0.578644 0.990923
vt 0.578644 0.949772
vt 0.585272 0.949772
vt 0.585272 0.990923
vt 0.553117 0.990924
vt 0.553117 0.949772
vt 0.559745 0.949772
vt 0.559745 0.990924
vt 0.481322 0.982524
vt 0.481322 0.962256
vt 0.481322 0.941373
vt 0.486931 0.941373
vt 0.486931 0.982524
vt 0.457834 0.982524
vt 0.457834 0.961641
vt 0.457834 0.941373
vt 0.463443 0.941373
vt 0.463443 0.982524
vt 0.520608 0.872898
vt 0.520608 0.696132
vt 0.524432 0.696132
vt 0.524432 0.872898
vt 0.602464 0.945780
vt 0.602464 0.769015
vt 0.606288 0.769015
vt 0.606288 0.945780
vt 0.392477 0.394248
vt 0.459311 0.394248
vt 0.459311 0.403773
vt 0.392477 0.403773
vt 0.526146 0.394248
vt 0.526146 0.403773
vt 0.459311 0.515942
vt 0.392477 0.515942
vt 0.326562 0.394248
vt 0.326562 0.403773
vt 0.526146 0.515942
vt 0.459311 0.528365
vt 0.392477 0.528365
vt 0.314291 0.394248
vt 0.314291 0.403773
vt 0.526146 0.528365
vt 0.459311 0.692141
vt 0.392477 0.637549
vt 0.326562 0.515942
vt 0.326562 0.528365
vt 0.309856 0.394248
vt 0.309856 0.403773
vt 0.526146 0.637549
vt 0.314291 0.515942
vt 0.314291 0.528365
vt 0.309856 0.515942
vt 0.309856 0.528365
vt 0.853045 0.769015
vt 0.918959 0.769015
vt 0.918959 0.881184
vt 0.853045 0.881184
vt 0.840774 0.769015
vt 0.840774 0.881184
vt 0.836338 0.769015
vt 0.836338 0.881184
vt 0.770651 0.881486
vt 0.758380 0.881486
vt 0.758380 0.769015
vt 0.770651 0.769015
vt 0.156934 0.628024
vt 0.223768 0.628024
vt 0.223768 0.637550
vt 0.156934 0.637550
vt 0.156934 0.515855
vt 0.223768 0.515855
vt 0.290602 0.628024
vt 0.290602 0.637550
vt 0.091019 0.628024
vt 0.091019 0.637550
vt 0.091019 0.515855
vt 0.156934 0.503432
vt 0.223768 0.503432
vt 0.290602 0.515855
vt 0.078748 0.628024
vt 0.078748 0.637550
vt 0.078748 0.515855
vt 0.091019 0.503432
vt 0.156934 0.394248
vt 0.223768 0.394248
vt 0.290602 0.503432
vt 0.074313 0.628024
vt 0.074313 0.637550
vt 0.074313 0.515855
vt 0.078748 0.503432
vt 0.091019 0.394248
vt 0.290602 0.394248
vt 0.074313 0.503432
vt 0.078748 0.394248
vt 0.074313 0.394248
vt 0.816849 0.769015
vt 0.829120 0.769015
vt 0.829120 0.881486
vt 0.816849 0.881486
vt 0.751334 0.837907
vt 0.740860 0.837907
vt 0.686269 0.769015
vt 0.693252 0.769015
vt 0.686269 0.906799
vt 0.693252 0.906799
vt 0.858863 0.926327
vt 0.858863 0.885175
vt 0.864472 0.885175
vt 0.864472 0.926327
vt 0.834356 0.926327
vt 0.834356 0.885175
vt 0.840984 0.885175
vt 0.840984 0.926327
vt 0.784321 0.926629
vt 0.784321 0.885477
vt 0.789930 0.885477
vt 0.789930 0.926629
vt 0.932093 0.885175
vt 0.998008 0.885175
vt 0.998008 0.994360
vt 0.932093 0.994360
vt 0.919822 0.885175
vt 0.919822 0.994360
vt 0.915387 0.885175
vt 0.915387 0.994360
vt 0.724271 0.951941
vt 0.724271 0.910790
vt 0.730899 0.910790
vt 0.730899 0.951941
vt 0.711508 0.951941
vt 0.711508 0.910790
vt 0.718136 0.910790
vt 0.718136 0.951941
vt 0.638694 0.956388
vt 0.638694 0.915236
vt 0.645322 0.915236
vt 0.645322 0.956388
vt 0.565880 0.990923
vt 0.565880 0.949772
vt 0.572508 0.949772
vt 0.572508 0.990923
vt 0.540353 0.990923
vt 0.540353 0.949772
vt 0.546981 0.949772
vt 0.546981 0.990923
vt 0.469578 0.982524
vt 0.469578 0.941373
vt 0.475187 0.941373
vt 0.475187 0.982524
vt 0.513948 0.765024
vt 0.513948 0.831858
vt 0.506966 0.831858
vt 0.506966 0.765024
vt 0.513948 0.902668
vt 0.506966 0.902668
vt 0.513948 0.696132
vt 0.506966 0.696132
vt 0.513948 0.915851
vt 0.506966 0.915851
vt 0.513948 0.920615
vt 0.506966 0.920615
vt 0.902269 0.954344
vt 0.902269 0.885175
vt 0.909252 0.885175
vt 0.909252 0.954344
vt 0.902269 0.967220
vt 0.909252 0.967220
vt 0.902269 0.971875
vt 0.909252 0.971875
vt 0.446090 0.982524
vt 0.446090 0.941373
vt 0.451699 0.941373
vt 0.451699 0.982524
vt 0.892310 0.948819
vt 0.892310 0.885175
vt 0.896134 0.885175
vt 0.896134 0.948819
vt 0.882351 0.948819
vt 0.882351 0.885175
vt 0.886175 0.885175
vt 0.886175 0.948819
vn 0.000000 0.000000 1.000000
vn 0.000000 0.000000 1.000000
vn 0.000000 0.000000 1.000000
vn 0.000000 0.000000 1.000000
vn 0.000000 0.000000 1.000000
vn 0.000000 0.000000 1.000000
vn 0.000000 0.000000 1.000000
vn 0.000000 0.000000 1.000000
vn 0.000000 -1.000000 0.000000
vn 0.000000 -1.000000 0.000000
vn 0.000000 -1.000000 0.000000
vn 0.000000 -1.000000 0.000000
vn 0.000000 0.000000 1.000000
vn 0.000000 0.000000 1.000000
vn 0.000000 0.000000 1.000000
vn 0.000000 0.000000 1.000000
vn 0.002382 -0.001419 0.999996
vn 0.002382 -0.001419 0.999996
vn 0.002382 -0.001419 0.999996
vn 0.002382 -0.001419 0.999996
vn 0.000000 0.000000 1.000000
vn 0.000000 0.000000 1.000000
vn 0.000000 0.000000 1.000000
vn 0.000000 0.000000 1.000000
vn 0.000000 -1.000000 0.000000
vn 0.000000 -1.000000 0.000000
vn 0.000000 -1.000000 0.000000
vn 0.000000 -1.000000 0.000000
vn 0.000000 1.000000 0.000000
vn 0.000000 1.000000 0.000000
vn 0.000000 1.000000 0.000000
vn 0.000000 1.000000 0.000000
vn 0.000000 -1.000000 0.000000
vn 0.000000 -1.000000 0.000000
vn 0.000000 -1.000000 0.000000
vn 0.000000 -1.000000 0.000000
vn 0.000000 -1.000000 0.000000
vn 0.000000 -1.000000 0.000000
vn 0.000000 -1.000000 0.000000
vn 0.000000 -1.000000 0.000000
vn 0.000000 0.000000 1.000000
vn 0.000000 0.000000 1.000000
vn 0.000000 0.000000 1.000000
vn 0.000000 0.000000 1.000000
vn 1.000000 0.000000 0.000000
vn 1.000000 0.000000 0.000000
vn 1.000000 0.000000 0.000000
vn 1.000000 0.000000 0.000000
vn 0.000000 0.000000 1.000000
vn 0.000000 0.000000 1.000000
vn 0.000000 0.000000 1.000000
vn 0.000000 0.000000 1.000000
vn 0.000000 -1.000000 0.000000
vn 0.000000 -1.000000 0.000000
vn 0.000000 -1.000000 0.000000
vn 0.000000 -1.000000 0.000000
vn 0.000000 1.000000 0.000000
vn 0.000000 1.000000 0.000000
vn 0.000000 1.000000 0.000000
vn 0.000000 1.000000 0.000000
vn 0.000000 -1.000000 0.000000
vn 0.000000 -1.000000 0.000000
vn 0.000000 -1.000000 0.000000
vn 0.000000 -1.000000 0.000000
vn -1.000000 0.000000 0.000000
vn -1.000000 0.000000 0.000000
vn -1.000000 0.000000 0.000000
vn -1.000000 0.000000 0.000000
vn 0.000000 1.000000 0.000000
vn 0.000000 1.000000 0.000000
vn 0.000000 1.000000 0.000000
vn 0.000000 1.000000 0.000000
vn 0.000000 -1.000000 0.000000
vn 0.000000 -1.000000 0.000000
vn 0.000000 -1.000000 0.000000
vn 0.000000 -1.000000 0.000000
vn 0.000000 -1.000000 0.000000
vn 0.000000 -1.000000 0.000000
vn 0.000000 -1.000000 0.000000
vn 0.000000 -1.000000 0.000000
vn 0.000000 0.000000 1.000000
vn 0.000000 0.000000 1.000000
vn 0.000000 0.000000 1.000000
vn 0.000000 0.000000 1.000000
vn 1.000000 0.000000 0.000000
vn 1.000000 0.000000 0.000000
vn 1.000000 0.000000 0.000000
vn 1.000000 0.000000 0.000000
vn 1.000000 0.000000 0.000000
vn 1.000000 0.000000 0.000000
vn 1.000000 0.000000 0.000000
vn 1.000000 0.000000 0.000000
vn 0.002382 0.012812 0.999915
vn 0.002382 0.012812 0.999915
vn 0.002382 0.012812 0.999915
vn 0.002382 0.012812 0.999915
vn -1.000000 0.000000 0.000000
vn -1.000000 0.000000 0.000000
vn -1.000000 0.000000 0.000000
vn -1.000000 0.000000 0.000000
vn 0.000000 -1.000000 0.000000
vn 0.000000 -1.000000 0.000000
vn 0.000000 -1.000000 0.000000
vn 0.000000 -1.000000 0.000000
vn 0.000000 1.000000 0.000000
vn 0.000000 1.000000 0.000000
vn 0.000000 1.000000 0.000000
vn 0.000000 1.000000 0.000000
vn 0.000000 -1.000000 0.000000
vn 0.000000 -1.000000 0.000000
vn 0.000000 -1.000000 0.000000
vn 0.000000 -1.000000 0.000000
vn 0.000000 1.000000 0.000000
vn 0.000000 1.000000 0.000000
vn 0.000000 1.000000 0.000000
vn 0.000000 1.000000 0.000000
vn 0.000000 -1.000000 0.000000
vn 0.000000 -1.000000 0.000000
vn 0.000000 -1.000000 0.000000
vn 0.000000 -1.000000 0.000000
vn 0.000000 -1.000000 0.000000
vn 0.000000 -1.000000 0.000000
vn 0.000000 -1.000000 0.000000
vn 0.000000 -1.000000 0.000000
vn -1.000000 0.000000 0.000000
vn -1.000000 0.000000 0.000000
vn -1.000000 0.000000 0.000000
vn -1.000000 0.000000 0.000000
vn 0.000000 1.000000 0.000000
vn 0.000000 1.000000 0.000000
vn 0.000000 1.000000 0.000000
vn 0.000000 1.000000 0.000000
vn 0.000000 -1.000000 0.000000
vn 0.000000 -1.000000 0.000000
vn 0.000000 -1.000000 0.000000
vn 0.000000 -1.000000 0.000000
vn 0.000000 -1.000000 0.000000
vn 0.000000 -1.000000 0.000000
vn 0.000000 -1.000000 0.000000
vn 0.000000 -1.000000 0.000000
vn 0.000000 0.000000 1.000000
vn 0.000000 0.000000 1.000000
vn 0.000000 0.000000 1.000000
vn 0.000000 0.000000 1.000000
vn 1.000000 0.000000 0.000000
vn 1.000000 0.000000 0.000000
vn 1.000000 0.000000 0.000000
vn 1.000000 0.000000 0.000000
vn 1.000000 0.000000 0.000000
vn 1.000000 0.000000 0.000000
vn 1.000000 0.000000 0.000000
vn 1.000000 0.000000 0.000000
vn 1.000000 0.000000 0.000000
vn 1.000000 0.000000 0.000000
vn 1.000000 0.000000 0.000000
vn 1.000000 0.000000 0.000000
vn -1.000000 0.000000 0.000000
vn -1.000000 0.000000 0.000000
vn -1.000000 0.000000 0.000000
vn -1.000000 0.000000 0.000000
vn 0.000000 -1.000000 0.000000
vn 0.000000 -1.000000 0.000000
vn 0.000000 -1.000000 0.000000
vn 0.000000 -1.000000 0.000000
vn 0.000000 1.000000 0.000000
vn 0.000000 1.000000 0.000000
vn 0.000000 1.000000 0.000000
vn 0.000000 1.000000 0.000000
vn 0.000000 -1.000000 0.000000
vn 0.000000 -1.000000 0.000000
vn 0.000000 -1.000000 0.000000
vn 0.000000 -1.000000 0.000000
vn 0.000000 1.000000 0.000000
vn 0.000000 1.000000 0.000000
vn 0.000000 1.000000 0.000000
vn 0.000000 1.000000 0.000000
vn 0.000000 -1.000000 0.000000
vn 0.000000 -1.000000 0.000000
vn 0.000000 -1.000000 0.000000
vn 0.000000 -1.000000 0.000000
vn 0.000000 -1.000000 0.000000
vn 0.000000 -1.000000 0.000000
vn 0.000000 -1.000000 0.000000
vn 0.000000 -1.000000 0.000000
vn 0.000000 -1.000000 0.000000
vn 0.000000 -1.000000 0.000000
vn 0.000000 -1.000000 0.000000
vn 0.000000 -1.000000 0.000000
vn 0.001926 0.015402 0.999880
vn 0.001926 0.015402 0.999880
vn 0.001926 0.015402 0.999880
vn 0.001926 0.015402 0.999880
vn -1.000000 0.000000 0.000000
vn -1.000000 0.000000 0.000000
vn -1.000000 0.000000 0.000000
vn -1.000000 0.000000 0.000000
vn -1.000000 0.000000 0.000000
vn -1.000000 0.000000 0.000000
vn -1.000000 0.000000 0.000000
vn -1.000000 0.000000 0.000000
vn -1.000000 0.000000 0.000000
vn -1.000000 0.000000 0.000000
vn -1.000000 0.000000 0.000000
vn -1.000000 0.000000 0.000000
vn 0.000000 0.000000 1.000000
vn 0.000000 0.000000 1.000000
vn 0.000000 0.000000 1.000000
vn 0.000000 0.000000 1.000000
vn 0.000000 -1.000000 0.000000
vn 0.000000 -1.000000 0.000000
vn 0.000000 -1.000000 0.000000
vn 0.000000 -1.000000 0.000000
vn 0.000000 -1.000000 0.000000
vn 0.000000 -1.000000 0.000000
vn 0.000000 -1.000000 0.000000
vn 0.000000 -1.000000 0.000000
vn 1.000000 0.000000 0.000000
vn 1.000000 0.000000 0.000000
vn 1.000000 0.000000 0.000000
vn 1.000000 0.000000 0.000000
vn -0.621198 -0.772223 0.133360
vn -0.621198 -0.772223 0.133360
vn -0.621198 -0.772223 0.133360
vn -0.621198 -0.772223 0.133360
vn 0.000000 0.000000 1.000000
vn 0.000000 0.000000 1.000000
vn 0.000000 0.000000 1.000000
vn 0.000000 0.000000 1.000000
vn 1.000000 0.000000 0.000000
vn 1.000000 0.000000 0.000000
vn 1.000000 0.000000 0.000000
vn 1.000000 0.000000 0.000000
vn 1.000000 0.000000 0.000000
vn 1.000000 0.000000 0.000000
vn 1.000000 0.000000 0.000000
vn 1.000000 0.000000 0.000000
vn 1.000000 0.000000 0.000000
vn 1.000000 0.000000 0.000000
vn 1.000000 0.000000 0.000000
vn 1.000000 0.000000 0.000000
vn -1.000000 0.000000 0.000000
vn -1.000000 0.000000 0.000000
vn -1.000000 0.000000 0.000000
vn -1.000000 0.000000 0.000000
vn 0.000000 -1.000000 0.000000
vn 0.000000 -1.000000 0.000000
vn 0.000000 -1.000000 0.000000
vn 0.000000 -1.000000 0.000000
vn 0.000000 1.000000 0.000000
vn 0.000000 1.000000 0.000000
vn 0.000000 1.000000 0.000000
vn 0.000000 1.000000 0.000000
vn 0.000000 -1.000000 0.000000
vn 0.000000 -1.000000 0.000000
vn 0.000000 -1.000000 0.000000
vn 0.000000 -1.000000 0.000000
vn 0.000000 0.000000 1.000000
vn 0.000000 0.000000 1.000000
vn 0.000000 0.000000 1.000000
vn 0.000000 0.000000 1.000000
vn 0.000000 -1.000000 0.000000
vn 0.000000 -1.000000 0.000000
vn 0.000000 -1.000000 0.000000
vn 0.000000 -1.000000 0.000000
vn 0.000000 -1.000000 0.000000
vn 0.000000 -1.000000 0.000000
vn 0.000000 -1.000000 0.000000
vn 0.000000 -1.000000 0.000000
vn 0.000000 0.000000 1.000000
vn 0.000000 0.000000 1.000000
vn 0.000000 0.000000 1.000000
vn 0.000000 0.000000 1.000000
vn 0.001923 0.003281 0.999993
vn 0.001923 0.003281 0.999993
vn 0.001923 0.003281 0.999993
vn 0.001923 0.003281 0.999993
vn 1.000000 0.000000 0.000000
vn 1.000000 0.000000 0.000000
vn 1.000000 0.000000 0.000000
vn 1.000000 0.000000 0.000000
vn 0.000000 -1.000000 0.000000
vn 0.000000 -1.000000 0.000000
vn 0.000000 -1.000000 0.000000
vn 0.000000 -1.000000 0.000000
vn 0.000000 0.000000 -1.000000
vn 0.000000 0.000000 -1.000000
vn 0.000000 0.000000 -1.000000
vn 0.000000 0.000000 -1.000000
vn 0.000000 -1.000000 0.000000
vn 0.000000 -1.000000 0.000000
vn 0.000000 -1.000000 0.000000
vn 0.000000 -1.000000 0.000000
vn 1.000000 0.000000 0.000000
vn 1.000000 0.000000 0.000000
vn 1.000000 0.000000 0.000000
vn 1.000000 0.000000 0.000000
vn 0.000000 -1.000000 0.000000
vn 0.000000 -1.000000 0.000000
vn 0.000000 -1.000000 0.000000
vn 0.000000 -1.000000 0.000000
vn 0.621198 -0.772223 0.133359
vn 0.621198 -0.772223 0.133359
vn 0.621198 -0.772223 0.133359
vn 0.621198 -0.772223 0.133359
vn -1.000000 0.000000 0.000000
vn -1.000000 0.000000 0.000000
vn -1.000000 0.000000 0.000000
vn -1.000000 0.000000 0.000000
vn 1.000000 0.000000 0.000000
vn 1.000000 0.000000 0.000000
vn 1.000000 0.000000 0.000000
vn 1.000000 0.000000 0.000000
vn 1.000000 0.000000 0.000000
vn 1.000000 0.000000 0.000000
vn 1.000000 0.000000 0.000000
vn 1.000000 0.000000 0.000000
vn 1.000000 0.000000 0.000000
vn 1.000000 0.000000 0.000000
vn 1.000000 0.000000 0.000000
vn 1.000000 0.000000 0.000000
vn -1.000000 0.000000 0.000000
vn -1.000000 0.000000 0.000000
vn -1.000000 0.000000 0.000000
vn -1.000000 0.000000 0.000000
vn 0.000000 -1.000000 0.000000
vn 0.000000 -1.000000 0.000000
vn 0.000000 -1.000000 0.000000
vn 0.000000 -1.000000 0.000000
vn 0.000000 0.000000 1.000000
vn 0.000000 0.000000 1.000000
vn 0.000000 0.000000 1.000000
vn 0.000000 0.000000 1.000000
vn 0.000000 -1.000000 0.000000
vn 0.000000 -1.000000 0.000000
vn 0.000000 -1.000000 0.000000
vn 0.000000 -1.000000 0.000000
vn 0.000000 -1.000000 0.000000
vn 0.000000 -1.000000 0.000000
vn 0.000000 -1.000000 0.000000
vn 0.000000 -1.000000 0.000000
vn 0.000000 0.000000 -1.000000
vn 0.000000 0.000000 -1.000000
vn 0.000000 0.000000 -1.000000
vn 0.000000 0.000000 -1.000000
vn -1.000000 0.000000 0.000000
vn -1.000000 0.000000 0.000000
vn -1.000000 0.000000 0.000000
vn -1.000000 0.000000 0.000000
vn 0.000000 -1.000000 0.000000
vn 0.000000 -1.000000 0.000000
vn 0.000000 -1.000000 0.000000
vn 0.000000 -1.000000 0.000000
vn 0.001934 0.000690 0.999998
vn 0.001934 0.000690 0.999998
vn 0.001934 0.000690 0.999998
vn 0.001934 0.000690 0.999998
vn -1.000000 0.000000 0.000000
vn -1.000000 0.000000 0.000000
vn -1.000000 0.000000 0.000000
vn -1.000000 0.000000 0.000000
vn 0.000000 -1.000000 0.000000
vn 0.000000 -1.000000 0.000000
vn 0.000000 -1.000000 0.000000
vn 0.000000 -1.000000 0.000000
vn 0.000000 0.000000 -1.000000
vn 0.000000 0.000000 -1.000000
vn 0.000000 0.000000 -1.000000
vn 0.000000 0.000000 -1.000000
vn 0.000000 1.000000 0.000000
vn 0.000000 1.000000 0.000000
vn 0.000000 1.000000 0.000000
vn 0.000000 1.000000 0.000000
vn 0.000000 0.000000 -1.000000
vn 0.000000 0.000000 -1.000000
vn 0.000000 0.000000 -1.000000
vn 0.000000 0.000000 -1.000000
vn 0.000000 0.000000 -1.000000
vn 0.000000 0.000000 -1.000000
vn 0.000000 0.000000 -1.000000
vn 0.000000 0.000000 -1.000000
vn 1.000000 0.000000 0.000000
vn 1.000000 0.000000 0.000000
vn 1.000000 0.000000 0.000000
vn 1.000000 0.000000 0.000000
vn 0.000000 -1.000000 0.000000
vn 0.000000 -1.000000 0.000000
vn 0.000000 -1.000000 0.000000
vn 0.000000 -1.000000 0.000000
vn 0.999787 0.000000 0.020660
vn 0.999787 0.000000 0.020660
vn 0.999787 0.000000 0.020660
vn 0.999787 0.000000 0.020660
vn 0.000000 0.000000 1.000000
vn 0.000000 0.000000 1.000000
vn 0.000000 0.000000 1.000000
vn 0.000000 0.000000 1.000000
vn 0.000000 -1.000000 0.000000
vn 0.000000 -1.000000 0.000000
vn 0.000000 -1.000000 0.000000
vn 0.000000 -1.000000 0.000000
vn -1.000000 0.000000 0.000000
vn -1.000000 0.000000 0.000000
vn -1.000000 0.000000 0.000000
vn -1.000000 0.000000 0.000000
vn 1.000000 0.000000 0.000000
vn 1.000000 0.000000 0.000000
vn 1.000000 0.000000 0.000000
vn 1.000000 0.000000 0.000000
vn 1.000000 0.000000 0.000000
vn 1.000000 0.000000 0.000000
vn 1.000000 0.000000 0.000000
vn 1.000000 0.000000 0.000000
vn -1.000000 0.000000 0.000000
vn -1.000000 0.000000 0.000000
vn -1.000000 0.000000 0.000000
vn -1.000000 0.000000 0.000000
vn -1.000000 0.000000 0.000000
vn -1.000000 0.000000 0.000000
vn -1.000000 0.000000 0.000000
vn -1.000000 0.000000 0.000000
vn -1.000000 0.000000 0.000000
vn -1.000000 0.000000 0.000000
vn -1.000000 0.000000 0.000000
vn -1.000000 0.000000 0.000000
vn 0.000000 -1.000000 0.000000
vn 0.000000 -1.000000 0.000000
vn 0.000000 -1.000000 0.000000
vn 0.000000 -1.000000 0.000000
vn 0.000000 -1.000000 0.000000
vn 0.000000 -1.000000 0.000000
vn 0.000000 -1.000000 0.000000
vn 0.000000 -1.000000 0.000000
vn 0.000000 0.000000 -1.000000
vn 0.000000 0.000000 -1.000000
vn 0.000000 0.000000 -1.000000
vn 0.000000 0.000000 -1.000000
vn 0.000000 0.000000 -1.000000
vn 0.000000 0.000000 -1.000000
vn 0.000000 0.000000 -1.000000
vn 0.000000 0.000000 -1.000000
vn 0.000000 1.000000 0.000000
vn 0.000000 1.000000 0.000000
vn 0.000000 1.000000 0.000000
vn 0.000000 1.000000 0.000000
vn -1.000000 0.000000 0.000000
vn -1.000000 0.000000 0.000000
vn -1.000000 0.000000 0.000000
vn -1.000000 0.000000 0.000000
vn 0.000000 1.000000 0.000000
vn 0.000000 1.000000 0.000000
vn 0.000000 1.000000 0.000000
vn 0.000000 1.000000 0.000000
vn 0.000000 1.000000 0.000000
vn 0.000000 1.000000 0.000000
vn 0.000000 1.000000 0.000000
vn 0.000000 1.000000 0.000000
vn 0.000000 0.000000 -1.000000
vn 0.000000 0.000000 -1.000000
vn 0.000000 0.000000 -1.000000
vn 0.000000 0.000000 -1.000000
vn 0.000000 0.000000 -1.000000
vn 0.000000 0.000000 -1.000000
vn 0.000000 0.000000 -1.000000
vn 0.000000 0.000000 -1.000000
vn 1.000000 0.000000 0.000000
vn 1.000000 0.000000 0.000000
vn 1.000000 0.000000 0.000000
vn 1.000000 0.000000 0.000000
vn 0.000000 -1.000000 0.000000
vn 0.000000 -1.000000 0.000000
vn 0.000000 -1.000000 0.000000
vn 0.000000 -1.000000 0.000000
vn 0.999984 0.000000 0.005652
vn 0.999984 0.000000 0.005652
vn 0.999984 0.000000 0.005652
vn 0.999984 0.000000 0.005652
vn 0.000000 1.000000 -0.000003
vn 0.000000 1.000000 -0.000003
vn 0.000000 1.000000 -0.000003
vn 0.000000 1.000000 -0.000003
vn -0.000001 0.000000 1.000000
vn -0.000001 0.000000 1.000000
vn -0.000001 0.000000 1.000000
vn -0.000001 0.000000 1.000000
vn 0.643990 0.752438 -0.138257
vn 0.643990 0.752438 -0.138257
vn 0.643990 0.752438 -0.138257
vn 0.643990 0.752438 -0.138257
vn -1.000000 0.000000 0.000000
vn -1.000000 0.000000 0.000000
vn -1.000000 0.000000 0.000000
vn -1.000000 0.000000 0.000000
vn 0.000000 -1.000000 0.000000
vn 0.000000 -1.000000 0.000000
vn 0.000000 -1.000000 0.000000
vn 0.000000 -1.000000 0.000000
vn -1.000000 0.000000 0.000000
vn -1.000000 0.000000 0.000000
vn -1.000000 0.000000 0.000000
vn -1.000000 0.000000 0.000000
vn -1.000000 0.000000 0.000000
vn -1.000000 0.000000 0.000000
vn -1.000000 0.000000 0.000000
vn -1.000000 0.000000 0.000000
vn -1.000000 0.000000 0.000000
vn -1.000000 0.000000 0.000000
vn 1.000000 0.000000 0.000000
vn 1.000000 0.000000 0.000000
vn 1.000000 0.000000 0.000000
vn 1.000000 0.000000 0.000000
vn 0.000000 0.000000 -1.000000
vn 0.000000 0.000000 -1.000000
vn 0.000000 0.000000 -1.000000
vn 0.000000 0.000000 -1.000000
vn -1.000000 0.000000 0.000000
vn -1.000000 0.000000 0.000000
vn -1.000000 0.000000 0.000000
vn -1.000000 0.000000 0.000000
vn -1.000000 0.000000 0.000000
vn -1.000000 0.000000 0.000000
vn -1.000000 0.000000 0.000000
vn -1.000000 0.000000 0.000000
vn -1.000000 0.000000 0.000000
vn -1.000000 0.000000 0.000000
vn -1.000000 0.000000 0.000000
vn -1.000000 0.000000 0.000000
vn 0.000000 -1.000000 0.000000
vn 0.000000 -1.000000 0.000000
vn 0.000000 -1.000000 0.000000
vn 0.000000 -1.000000 0.000000
vn 0.000000 -1.000000 0.000000
vn 0.000000 0.000000 -1.000000
vn 0.000000 0.000000 -1.000000
vn 0.000000 0.000000 -1.000000
vn 0.000000 0.000000 -1.000000
vn 0.000000 1.000000 0.000000
vn 0.000000 1.000000 0.000000
vn 0.000000 1.000000 0.000000
vn 0.000000 1.000000 0.000000
vn 0.000000 1.000000 0.000000
vn -1.000000 0.000000 0.000000
vn -1.000000 0.000000 0.000000
vn -1.000000 0.000000 0.000000
vn -1.000000 0.000000 0.000000
vn 0.000000 0.000000 -1.000000
vn 0.000000 0.000000 -1.000000
vn 0.000000 0.000000 -1.000000
vn 0.000000 0.000000 -1.000000
vn 0.000000 0.000000 -1.000000
vn 0.000000 0.000000 -1.000000
vn 0.000000 0.000000 -1.000000
vn 0.000000 0.000000 -1.000000
vn 0.000000 1.000000 0.000000
vn 0.000000 1.000000 0.000000
vn 0.000000 1.000000 0.000000
vn 0.000000 1.000000 0.000000
vn 0.000000 1.000000 0.000000
vn 0.000000 1.000000 0.000000
vn 0.000000 1.000000 0.000000
vn 0.000000 1.000000 0.000000
vn 0.000000 1.000000 0.000000
vn 0.000000 1.000000 0.000000
vn 0.000000 1.000000 0.000000
vn 0.000000 1.000000 0.000000
vn 0.000000 0.000000 -1.000000
vn 0.000000 0.000000 -1.000000
vn 0.000000 0.000000 -1.000000
vn 0.000000 0.000000 -1.000000
vn 0.000000 0.000000 -1.000000
vn 0.000000 0.000000 -1.000000
vn 0.000000 0.000000 -1.000000
vn 0.000000 0.000000 -1.000000
vn 1.000000 0.000000 0.000000
vn 1.000000 0.000000 0.000000
vn 1.000000 0.000000 0.000000
vn 1.000000 0.000000 0.000000
vn 0.000000 -1.000000 0.000000
vn 0.000000 -1.000000 0.000000
vn 0.000000 -1.000000 0.000000
vn 0.000000 -1.000000 0.000000
vn 0.999965 0.000000 0.008362
vn 0.999965 0.000000 0.008362
vn 0.999965 0.000000 0.008362
vn 0.999965 0.000000 0.008362
vn 0.000000 1.000000 0.000000
vn 0.000000 1.000000 0.000000
vn 0.000000 1.000000 0.000000
vn 0.000000 1.000000 0.000000
vn 0.655959 0.754797 0.000000
vn 0.655959 0.754797 0.000000
vn 0.655959 0.754797 0.000000
vn 0.655959 0.754797 0.000000
vn -0.643990 0.752438 -0.138253
vn -0.643990 0.752438 -0.138253
vn -0.643990 0.752438 -0.138253
vn -0.643990 0.752438 -0.138253
vn 0.000000 1.000000 0.000000
vn 0.000000 1.000000 0.000000
vn 0.000000 1.000000 0.000000
vn 0.000000 1.000000 0.000000
vn -1.000000 0.000000 0.000000
vn -1.000000 0.000000 0.000000
vn -1.000000 0.000000 0.000000
vn -1.000000 0.000000 0.000000
vn 0.000000 -1.000000 0.000000
vn 0.000000 -1.000000 0.000000
vn 0.000000 -1.000000 0.000000
vn 0.000000 -1.000000 0.000000
vn -1.000000 0.000000 0.000000
vn -1.000000 0.000000 0.000000
vn -1.000000 0.000000 0.000000
vn -1.000000 0.000000 0.000000
vn -1.000000 0.000000 0.000000
vn -1.000000 0.000000 0.000000
vn 0.000000 0.000000 -1.000000
vn 0.000000 0.000000 -1.000000
vn 0.000000 0.000000 -1.000000
vn 0.000000 0.000000 -1.000000
vn 0.000000 1.000000 0.000000
vn 0.000000 1.000000 0.000000
vn 0.000000 1.000000 0.000000
vn 0.000000 1.000000 0.000000
vn 0.000000 1.000000 0.000000
vn 0.000000 1.000000 0.000000
vn 0.000000 1.000000 0.000000
vn 0.000000 1.000000 0.000000
vn -1.000000 0.000000 0.000000
vn -1.000000 0.000000 0.000000
vn -1.000000 0.000000 0.000000
vn -1.000000 0.000000 0.000000
vn -1.000000 0.000000 0.000000
vn -1.000000 0.000000 0.000000
vn -1.000000 0.000000 0.000000
vn 0.000000 1.000000 0.000000
vn 0.000000 1.000000 0.000000
vn 0.000000 1.000000 0.000000
vn 0.000000 1.000000 0.000000
vn -1.000000 0.000000 0.000000
vn -1.000000 0.000000 0.000000
vn -1.000000 0.000000 0.000000
vn -1.000000 0.000000 0.000000
vn -1.000000 0.000000 0.000000
vn 0.000000 0.000000 -1.000000
vn 0.000000 0.000000 -1.000000
vn 0.000000 0.000000 -1.000000
vn 0.000000 0.000000 -1.000000
vn 0.000000 0.000000 1.000000
vn 0.000000 0.000000 1.000000
vn 0.000000 0.000000 1.000000
vn 0.000000 0.000000 1.000000
vn -1.000000 0.000000 0.000000
vn -1.000000 0.000000 0.000000
vn -1.000000 0.000000 0.000000
vn -1.000000 0.000000 0.000000
vn -1.000000 0.000000 0.000000
vn -1.000000 0.000000 0.000000
vn -1.000000 0.000000 0.000000
vn -1.000000 0.000000 0.000000
vn -1.000000 0.000000 0.000000
vn -1.000000 0.000000 0.000000
vn -1.000000 0.000000 0.000000
vn -1.000000 0.000000 0.000000
vn -1.000000 0.000000 0.000000
vn -1.000000 0.000000 0.000000
vn -1.000000 0.000000 0.000000
vn -1.000000 0.000000 0.000000
vn 0.000000 1.000000 0.000000
vn 0.000000 1.000000 0.000000
vn 0.000000 1.000000 0.000000
vn 0.000000 1.000000 0.000000
vn 0.000000 0.000000 -1.000000
vn 0.000000 0.000000 -1.000000
vn 0.000000 0.000000 -1.000000
vn 0.000000 0.000000 -1.000000
vn 0.000000 0.000000 -1.000000
vn 0.000000 0.000000 -1.000000
vn 0.000000 0.000000 -1.000000
vn 0.000000 0.000000 -1.000000
vn 0.000000 1.000000 0.000000
vn 0.000000 1.000000 0.000000
vn 0.000000 1.000000 0.000000
vn 0.000000 1.000000 0.000000
vn 0.000000 0.000000 1.000000
vn 0.000000 0.000000 1.000000
vn 0.000000 0.000000 1.000000
vn 0.000000 0.000000 1.000000
vn 0.000000 0.000000 -1.000000
vn 0.000000 0.000000 -1.000000
vn 0.000000 0.000000 -1.000000
vn 0.000000 0.000000 -1.000000
vn 0.000000 -1.000000 0.000000
vn 0.000000 -1.000000 0.000000
vn 0.000000 -1.000000 0.000000
vn 0.000000 -1.000000 0.000000
vn 0.000000 -1.000000 0.000000
vn 0.000000 -1.000000 0.000000
vn 0.000000 -1.000000 0.000000
vn 0.000000 -1.000000 0.000000
vn 1.000000 0.000000 0.000000
vn 1.000000 0.000000 0.000000
vn 1.000000 0.000000 0.000000
vn 1.000000 0.000000 0.000000
vn 0.000000 1.000000 0.000000
vn 0.000000 1.000000 0.000000
vn 0.000000 1.000000 0.000000
vn 0.000000 1.000000 0.000000
vn 0.655956 0.754799 0.000000
vn 0.655956 0.754799 0.000000
vn 0.655956 0.754799 0.000000
vn 0.655956 0.754799 0.000000
vn -0.655958 0.754797 0.000000
vn -0.655958 0.754797 0.000000
vn -0.655958 0.754797 0.000000
vn -0.655958 0.754797 0.000000
vn 0.000000 1.000000 0.000000
vn 0.000000 1.000000 0.000000
vn 0.000000 1.000000 0.000000
vn 0.000000 1.000000 0.000000
vn -1.000000 0.000000 0.000000
vn -1.000000 0.000000 0.000000
vn -1.000000 0.000000 0.000000
vn -1.000000 0.000000 0.000000
vn 0.000000 -1.000000 -0.000001
vn 0.000000 -1.000000 -0.000001
vn 0.000000 -1.000000 -0.000001
vn 0.000000 -1.000000 -0.000001
vn 0.000000 0.000000 -1.000000
vn 0.000000 0.000000 -1.000000
vn 0.000000 0.000000 -1.000000
vn 0.000000 0.000000 -1.000000
vn 0.000000 0.000000 1.000000
vn 0.000000 0.000000 1.000000
vn 0.000000 0.000000 1.000000
vn 0.000000 0.000000 1.000000
vn 0.000000 -1.000000 0.000000
vn 0.000000 -1.000000 0.000000
vn 0.000000 -1.000000 0.000000
vn 0.000000 -1.000000 0.000000
vn -1.000000 0.000000 0.000000
vn -1.000000 0.000000 0.000000
vn -1.000000 0.000000 0.000000
vn -1.000000 0.000000 0.000000
vn 0.000000 0.000000 1.000000
vn 0.000000 0.000000 1.000000
vn 0.000000 0.000000 1.000000
vn 0.000000 0.000000 1.000000
vn -1.000000 0.000000 0.000000
vn -1.000000 0.000000 0.000000
vn -1.000000 0.000000 0.000000
vn -1.000000 0.000000 0.000000
vn 0.000000 -1.000000 0.000000
vn 0.000000 -1.000000 0.000000
vn 0.000000 -1.000000 0.000000
vn 0.000000 -1.000000 0.000000
vn 0.000000 0.000000 -1.000000
vn 0.000000 0.000000 -1.000000
vn 0.000000 0.000000 -1.000000
vn 0.000000 0.000000 -1.000000
vn 0.000000 -1.000000 0.000000
vn 0.000000 -1.000000 0.000000
vn 0.000000 -1.000000 0.000000
vn 0.000000 -1.000000 0.000000
vn 0.000000 0.000000 1.000000
vn 0.000000 0.000000 1.000000
vn 0.000000 0.000000 1.000000
vn 0.000000 0.000000 1.000000
vn -1.000000 0.000000 0.000000
vn -1.000000 0.000000 0.000000
vn -1.000000 0.000000 0.000000
vn -1.000000 0.000000 0.000000
vn 0.000000 0.000000 -1.000000
vn 0.000000 0.000000 -1.000000
vn 0.000000 0.000000 -1.000000
vn 0.000000 0.000000 -1.000000
vn -1.000000 0.000000 0.000000
vn -1.000000 0.000000 0.000000
vn -1.000000 0.000000 0.000000
vn -1.000000 0.000000 0.000000
vn -1.000000 0.000000 0.000000
vn -1.000000 0.000000 0.000000
vn -1.000000 0.000000 0.000000
vn -1.000000 0.000000 0.000000
vn 0.000000 0.000000 1.000000
vn 0.000000 0.000000 1.000000
vn 0.000000 0.000000 1.000000
vn 0.000000 0.000000 1.000000
vn -0.102484 -0.784763 -0.611264
vn -0.102484 -0.784763 -0.611264
vn -0.102484 -0.784763 -0.611264
vn -0.102484 -0.784763 -0.611264
vn 0.000000 -1.000000 0.000000
vn 0.000000 -1.000000 0.000000
vn 0.000000 -1.000000 0.000000
vn 0.000000 -1.000000 0.000000
vn 0.000000 -1.000000 0.000000
vn 0.000000 0.000000 -1.000000
vn 0.000000 0.000000 -1.000000
vn 0.000000 0.000000 -1.000000
vn 0.000000 0.000000 -1.000000
vn 0.000000 1.000000 0.000000
vn 0.000000 1.000000 0.000000
vn 0.000000 1.000000 0.000000
vn 0.000000 1.000000 0.000000
vn 0.000000 1.000000 0.000000
vn 0.000000 0.000000 -1.000000
vn 0.000000 0.000000 -1.000000
vn 0.000000 0.000000 -1.000000
vn 0.000000 0.000000 -1.000000
vn 0.000000 -1.000000 0.000000
vn 0.000000 -1.000000 0.000000
vn 0.000000 -1.000000 0.000000
vn 0.000000 -1.000000 0.000000
vn 0.000000 0.000000 1.000000
vn 0.000000 0.000000 1.000000
vn 0.000000 0.000000 1.000000
vn 0.000000 0.000000 1.000000
vn 0.000000 -1.000000 0.000000
vn 0.000000 -1.000000 0.000000
vn 0.000000 -1.000000 0.000000
vn 0.000000 -1.000000 0.000000
vn 0.000000 0.000000 -1.000000
vn 0.000000 0.000000 -1.000000
vn 0.000000 0.000000 -1.000000
vn 0.000000 0.000000 -1.000000
vn 0.999582 0.000000 -0.028921
vn 0.999582 0.000000 -0.028921
vn 0.999582 0.000000 -0.028921
vn 0.999582 0.000000 -0.028921
vn 0.000000 1.000000 0.000000
vn 0.000000 1.000000 0.000000
vn 0.000000 1.000000 0.000000
vn 0.000000 1.000000 0.000000
vn 0.655956 0.754799 0.000000
vn 0.655956 0.754799 0.000000
vn 0.655956 0.754799 0.000000
vn 0.655956 0.754799 0.000000
vn -0.655956 0.754800 0.000000
vn -0.655956 0.754800 0.000000
vn -0.655956 0.754800 0.000000
vn -0.655956 0.754800 0.000000
vn 0.000000 1.000000 0.000000
vn 0.000000 1.000000 0.000000
vn 0.000000 1.000000 0.000000
vn 0.000000 1.000000 0.000000
vn 0.000000 0.000000 1.000000
vn 0.000000 0.000000 1.000000
vn 0.000000 0.000000 1.000000
vn 0.000000 0.000000 1.000000
vn 0.000000 -1.000000 0.000016
vn 0.000000 -1.000000 0.000016
vn 0.000000 -1.000000 0.000016
vn 0.000000 -1.000000 0.000016
vn 0.000000 0.000000 -1.000000
vn 0.000000 0.000000 -1.000000
vn 0.000000 0.000000 -1.000000
vn 0.000000 0.000000 -1.000000
vn 0.000000 0.000000 1.000000
vn 0.000000 0.000000 1.000000
vn 0.000000 0.000000 1.000000
vn 0.000000 0.000000 1.000000
vn -0.102484 -0.784763 0.611265
vn -0.102484 -0.784763 0.611265
vn -0.102484 -0.784763 0.611265
vn -0.102484 -0.784763 0.611265
vn 0.000000 -1.000000 0.000000
vn 0.000000 -1.000000 0.000000
vn 0.000000 -1.000000 0.000000
vn 0.000000 -1.000000 0.000000
vn -1.000000 0.000000 0.000000
vn -1.000000 0.000000 0.000000
vn -1.000000 0.000000 0.000000
vn -1.000000 0.000000 0.000000
vn 0.000000 -1.000000 -0.000013
vn 0.000000 -1.000000 -0.000013
vn 0.000000 -1.000000 -0.000013
vn 0.000000 -1.000000 -0.000013
vn -0.023175 0.000000 -0.999732
vn -0.023175 0.000000 -0.999732
vn -0.023175 0.000000 -0.999732
vn -0.023175 0.000000 -0.999732
vn 0.029853 0.000000 -0.999554
vn 0.029853 0.000000 -0.999554
vn 0.029853 0.000000 -0.999554
vn 0.029853 0.000000 -0.999554
vn 0.000000 1.000000 0.000000
vn 0.000000 1.000000 0.000000
vn 0.000000 1.000000 0.000000
vn 0.000000 1.000000 0.000000
vn 0.000000 1.000000 0.000000
vn 0.000000 1.000000 0.000000
vn 0.000000 1.000000 0.000000
vn 0.000000 1.000000 0.000000
vn 0.655957 0.754799 0.000000
vn 0.655957 0.754799 0.000000
vn 0.655957 0.754799 0.000000
vn 0.655957 0.754799 0.000000
vn -0.655956 0.754799 0.000000
vn -0.655956 0.754799 0.000000
vn -0.655956 0.754799 0.000000
vn -0.655956 0.754799 0.000000
vn 0.000000 1.000000 -0.000002
vn 0.000000 1.000000 -0.000002
vn 0.000000 1.000000 -0.000002
vn 0.000000 1.000000 -0.000002
vn 0.000000 0.000000 1.000000
vn 0.000000 0.000000 1.000000
vn 0.000000 0.000000 1.000000
vn 0.000000 0.000000 1.000000
vn 0.000000 -1.000000 0.000010
vn 0.000000 -1.000000 0.000010
vn 0.000000 -1.000000 0.000010
vn 0.000000 -1.000000 0.000010
vn 0.000000 0.000000 1.000000
vn 0.000000 0.000000 1.000000
vn 0.000000 0.000000 1.000000
vn 0.000000 0.000000 1.000000
vn -1.000000 0.000000 0.000001
vn -1.000000 0.000000 0.000001
vn -1.000000 0.000000 0.000001
vn -1.000000 0.000000 0.000001
vn -0.023180 0.000000 -0.999731
vn -0.023180 0.000000 -0.999731
vn -0.023180 0.000000 -0.999731
vn -0.023180 0.000000 -0.999731
vn 0.000000 1.000000 0.000000
vn 0.000000 1.000000 0.000000
vn 0.000000 1.000000 0.000000
vn 0.000000 1.000000 0.000000
vn 0.000000 1.000000 0.000000
vn 0.000000 1.000000 0.000000
vn 0.000000 1.000000 0.000000
vn 0.000000 1.000000 0.000000
vn 0.000000 0.765301 -0.643673
vn 0.000000 0.765301 -0.643673
vn 0.000000 0.765301 -0.643673
vn 0.000000 0.765301 -0.643673
vn 0.655956 0.754799 0.000000
vn 0.655956 0.754799 0.000000
vn 0.655956 0.754799 0.000000
vn -0.655956 0.754799 0.000000
vn -0.655956 0.754799 0.000000
vn -0.655956 0.754799 0.000000
vn 0.000000 0.765301 0.643673
vn 0.000000 0.765301 0.643673
vn 0.000000 0.765301 0.643673
vn 0.000000 0.765301 0.643673
vn 0.000000 1.000000 -0.000016
vn 0.000000 1.000000 -0.000016
vn 0.000000 1.000000 -0.000016
vn 0.000000 1.000000 -0.000016
vn -0.023172 0.000000 -0.999732
vn -0.023172 0.000000 -0.999732
vn -0.023172 0.000000 -0.999732
vn -0.023172 0.000000 -0.999732
vn -1.000000 0.000000 -0.000001
vn -1.000000 0.000000 -0.000001
vn -1.000000 0.000000 -0.000001
vn -1.000000 0.000000 -0.000001
vn 0.000000 1.000000 0.000000
vn 0.000000 1.000000 0.000000
vn 0.000000 1.000000 0.000000
vn 0.000000 1.000000 0.000000
vn 0.106380 0.765592 0.634470
vn 0.106380 0.765592 0.634470
vn 0.106380 0.765593 0.634470
vn 0.106380 0.765593 0.634469
vn 0.000000 1.000000 0.000000
vn 0.000000 1.000000 0.000000
vn 0.000000 1.000000 0.000000
vn 0.000000 1.000000 0.000000
vn 0.000000 0.765301 -0.643673
vn 0.000000 0.765301 -0.643673
vn 0.000000 0.765301 -0.643673
vn 0.000000 0.765301 -0.643673
vn 0.000000 0.765301 -0.643673
vn 0.000000 0.765301 -0.643673
vn 0.000000 0.765301 -0.643673
vn 0.000000 0.765301 0.643673
vn 0.000000 0.765301 0.643673
vn 0.000000 0.765301 0.643673
vn 0.000000 0.765300 0.643674
vn 0.000000 0.765300 0.643674
vn 0.000000 0.765300 0.643674
vn 0.000000 0.765300 0.643674
vn 0.000000 1.000000 0.000000
vn 0.000000 1.000000 0.000000
vn 0.000000 1.000000 0.000000
vn 0.000000 1.000000 0.000000
vn 0.106380 0.765593 -0.634470
vn 0.106380 0.765592 -0.634470
vn 0.106380 0.765592 -0.634470
vn 0.106380 0.765593 -0.634469
vn 0.000000 0.765303 0.643671
vn 0.000000 0.765303 0.643671
vn 0.000000 0.765303 0.643671
vn 0.000000 0.765303 0.643671
vn 0.000000 0.765300 -0.643674
vn 0.000000 0.765300 -0.643674
vn 0.000000 0.765300 -0.643674
vn 0.000000 0.765300 -0.643674
vn 0.000000 0.765303 -0.643671
vn 0.000000 0.765303 -0.643671
vn 0.000000 0.765303 -0.643671
vn 0.000000 0.765303 -0.643671
vn 0.000000 0.000000 -1.000000
vn 0.000000 0.000000 -1.000000
vn 0.000000 0.000000 -1.000000
vn 0.000000 0.000000 -1.000000
vn 0.000000 1.000000 0.000000
vn 0.000000 1.000000 0.000000
vn 0.000000 1.000000 0.000000
vn 0.000000 1.000000 0.000000
vn -1.000000 0.000000 0.000000
vn -1.000000 0.000000 0.000000
vn -1.000000 0.000000 0.000000
vn -1.000000 0.000000 0.000000
vn 0.000000 -1.000000 0.000000
vn 0.000000 -1.000000 0.000000
vn 0.000000 -1.000000 0.000000
vn 0.000000 -1.000000 0.000000
vn 0.000000 0.000000 1.000000
vn 0.000000 0.000000 1.000000
vn 0.000000 0.000000 1.000000
vn 0.000000 0.000000 1.000000
s off
g polySurface62 polySurface39
usemtl lambert9SG
f 1/387/1 2/388/2 3/389/3 4/390/4
f 5/395/5 1/387/6 4/390/7 6/396/8
f 7/160/9 8/161/10 2/162/11 1/163/12
f 3/389/13 2/388/14 9/391/15 10/392/16
f 4/390/17 3/389/18 11/393/19 22/394/20
f 12/400/21 5/395/22 6/396/23 13/401/24
f 14/168/25 7/160/26 1/163/27 5/169/28
f 6/196/29 4/197/30 15/198/31 16/199/32
f 17/164/33 18/165/34 8/161/35 7/160/36
f 2/162/37 8/161/38 19/166/39 9/167/40
f 11/393/41 3/389/42 10/392/43 20/397/44
f 9/1/45 19/2/46 21/3/47 10/4/48
f 23/407/49 12/400/50 13/401/51 24/408/52
f 25/174/53 14/168/54 5/169/55 12/175/56
f 13/202/57 6/196/58 16/199/59 26/203/60
f 27/173/61 17/164/62 7/160/63 14/168/64
f 28/31/65 15/32/66 4/33/67 22/34/68
f 16/199/69 15/198/70 29/200/71 30/201/72
f 31/170/73 32/171/74 18/165/75 17/164/76
f 8/161/77 18/165/78 33/172/79 19/166/80
f 34/398/81 11/393/82 20/397/83 35/402/84
f 10/4/85 21/3/86 36/7/87 20/8/88
f 19/2/89 33/5/90 37/6/91 21/3/92
f 22/394/93 11/393/94 34/398/95 56/399/96
f 38/43/97 39/44/98 23/45/99 24/46/100
f 39/181/101 25/174/102 12/175/103 23/182/104
f 24/207/105 13/202/106 26/203/107 38/208/108
f 40/180/109 27/173/110 14/168/111 25/174/112
f 26/203/113 16/199/114 30/201/115 41/206/116
f 42/179/117 31/170/118 17/164/119 27/173/120
f 43/212/121 28/213/122 22/214/123 44/215/124
f 45/35/125 29/36/126 15/32/127 28/31/128
f 30/201/129 29/200/130 46/204/131 47/205/132
f 48/176/133 49/177/134 32/171/135 31/170/136
f 18/165/137 32/171/138 50/178/139 33/172/140
f 51/409/141 52/403/142 34/398/143 35/402/144
f 20/8/145 36/7/146 53/12/147 35/13/148
f 21/3/149 37/6/150 54/11/151 36/7/152
f 33/5/153 50/9/154 55/10/155 37/6/156
f 57/47/157 58/48/158 39/44/159 38/43/160
f 58/188/161 40/180/162 25/174/163 39/181/164
f 38/208/165 26/203/166 41/206/167 57/210/168
f 59/187/169 42/179/170 27/173/171 40/180/172
f 41/206/173 30/201/174 47/205/175 60/209/176
f 42/179/177 61/186/178 48/176/179 31/170/180
f 62/218/181 43/212/182 44/215/183 63/219/184
f 64/216/185 45/217/186 28/213/187 43/212/188
f 44/405/189 22/394/190 56/399/191 89/406/192
f 46/40/193 65/39/194 66/41/195 67/37/196 45/35/197 68/42/198
f 67/37/199 69/38/200 65/39/201 46/40/202 29/36/203 45/35/204
f 47/414/205 46/415/206 68/416/207 70/417/208
f 71/183/209 72/184/210 49/177/211 48/176/212
f 32/171/213 49/177/214 73/185/215 50/178/216
f 35/13/217 53/12/218 74/18/219 51/19/220
f 75/234/221 52/235/222 51/228/223 96/231/224
f 56/399/225 34/398/226 52/403/227 76/404/228
f 36/7/229 54/11/230 77/17/231 53/12/232
f 37/6/233 55/10/234 78/16/235 54/11/236
f 55/10/237 50/9/238 73/14/239 79/15/240
f 80/49/241 58/48/242 57/47/243 81/50/244
f 80/192/245 59/187/246 40/180/247 58/188/248
f 57/210/249 41/206/250 60/209/251 81/211/252
f 59/187/253 82/191/254 61/186/255 42/179/256
f 60/418/257 47/414/258 70/417/259 83/419/260
f 61/186/261 84/190/262 71/183/263 48/176/264
f 85/222/265 62/218/266 63/219/267 86/223/268
f 43/422/269 62/423/270 87/424/271 88/425/272
f 63/410/273 44/405/274 89/406/275 111/411/276
f 64/82/277 43/83/278 88/84/279 90/85/280
f 70/220/281 68/221/282 45/217/283 64/216/284
f 91/426/285 92/427/286 72/428/287 71/429/288
f 73/185/289 49/177/290 72/184/291 93/189/292
f 53/12/293 77/17/294 94/24/295 74/18/296
f 51/228/297 74/229/298 95/230/299 96/231/300
f 76/238/301 52/235/302 75/234/303 120/239/304
f 97/86/305 98/87/306 56/88/307 76/89/308
f 54/11/309 78/16/310 99/23/311 77/17/312
f 55/10/313 79/15/314 100/22/315 78/16/316
f 79/15/317 73/14/318 93/20/319 101/21/320
f 102/51/321 80/49/322 81/50/323 103/52/324
f 102/194/325 82/191/326 59/187/327 80/192/328
f 81/420/329 60/418/330 83/419/331 104/421/332
f 105/193/333 84/190/334 61/186/335 82/191/336
f 83/224/337 70/220/338 64/216/339 106/225/340
f 107/434/341 91/426/342 71/429/343 84/435/344
f 108/76/345 85/75/346 86/80/347 109/81/348
f 110/226/349 106/225/350 62/218/351 85/222/352
f 86/412/353 63/410/354 111/411/355 109/413/356
f 62/106/357 106/107/358 112/108/359 87/109/360
f 112/268/361 90/269/362 88/270/363 87/271/364
f 106/456/365 64/457/366 90/458/367 112/459/368
f 98/272/369 113/273/370 89/274/371 56/275/372
f 92/427/373 91/426/374 114/430/375 115/431/376
f 72/428/377 92/427/378 101/432/379 93/433/380
f 77/17/381 99/23/382 116/27/383 94/24/384
f 74/229/385 94/232/386 117/233/387 95/230/388
f 96/110/389 95/111/390 118/112/391 119/113/392
f 121/460/393 75/461/394 96/462/395 119/463/396
f 122/242/397 97/243/398 76/238/399 120/239/400
f 123/90/401 124/91/402 98/87/403 97/86/404
f 78/16/405 100/22/406 125/26/407 99/23/408
f 100/22/409 79/15/410 101/21/411 126/25/412
f 127/59/413 102/51/414 103/52/415 128/60/416
f 103/52/417 81/50/418 104/53/419 129/54/420 130/55/421 131/56/422 132/57/423 133/58/424
f 105/193/425 82/191/426 102/194/427 127/195/428
f 104/227/429 83/224/430 106/225/431 110/226/432
f 134/440/433 107/434/434 84/435/435 105/441/436
f 91/426/437 107/434/438 135/436/439 114/430/440
f 111/279/441 136/278/442 108/283/443 109/284/444
f 137/67/445 110/66/446 85/75/447 108/76/448
f 89/274/449 113/273/450 136/278/451 111/279/452
f 124/276/453 138/277/454 113/273/455 98/272/456
f 101/432/457 92/427/458 115/431/459 126/439/460
f 115/431/461 114/430/462 139/437/463 140/438/464
f 99/23/465 125/26/466 141/29/467 116/27/468
f 94/232/469 116/236/470 142/237/471 117/233/472
f 95/111/473 117/114/474 143/115/475 118/112/476
f 118/288/477 144/289/478 145/290/479 119/291/480
f 120/464/481 75/461/482 121/460/483 146/465/484
f 121/296/485 119/291/486 145/290/487 177/294/488
f 147/122/489 122/123/490 120/124/491 146/125/492
f 148/246/493 123/247/494 97/243/495 122/242/496
f 149/92/497 150/93/498 151/94/499 152/95/500 153/96/501 154/97/502 155/98/503 156/99/504 124/91/505 123/90/506
f 125/26/507 100/22/508 126/25/509 157/28/510
f 128/447/511 134/440/512 105/441/513 127/448/514
f 128/60/515 103/52/516 133/58/517 158/63/518 159/64/519 130/55/520 129/54/521 160/65/522
f 129/54/523 104/53/524 161/61/525 162/62/526
f 131/335/527 130/336/528 159/337/529 163/338/530 164/339/531
f 132/466/532 131/467/533 164/468/534 165/469/535
f 158/340/536 133/341/537 132/342/538 165/343/539 166/344/540
f 161/61/541 104/53/542 110/66/543 137/67/544
f 135/436/545 107/434/546 134/440/547 167/442/548
f 114/430/549 135/436/550 168/443/551 139/437/552
f 136/278/553 169/282/554 137/286/555 108/283/556
f 113/273/557 138/277/558 169/282/559 136/278/560
f 156/280/561 170/281/562 138/277/563 124/276/564
f 126/439/565 115/431/566 140/438/567 157/446/568
f 140/438/569 139/437/570 171/444/571 172/445/572
f 141/29/573 125/26/574 157/28/575 173/30/576
f 116/236/577 141/240/578 174/241/579 142/237/580
f 117/114/581 142/116/582 175/117/583 143/115/584
f 143/292/585 176/293/586 144/289/587 118/288/588
f 177/294/589 145/290/590 144/289/591 178/295/592
f 179/300/593 146/302/594 121/296/595 177/294/596
f 179/300/597 180/301/598 147/307/599 146/302/600
f 181/126/601 148/127/602 122/123/603 147/122/604
f 182/250/605 123/247/606 148/246/607 183/251/608
f 184/100/609 152/95/610 151/94/611 185/101/612 149/92/613 123/90/614
f 150/470/615 149/471/616 186/472/617 187/473/618
f 151/345/619 150/346/620 187/347/621 188/348/622
f 153/349/623 152/350/624 189/351/625 190/352/626
f 191/102/627 192/103/628 154/97/629 153/96/630 193/104/631 184/100/632 123/90/633
f 155/353/634 154/354/635 194/355/636 195/356/637
f 156/99/638 155/98/639 191/102/640 123/90/641 182/105/642
f 167/442/643 134/440/644 128/447/645 160/449/646
f 159/474/647 158/475/648 166/476/649 163/477/650
f 160/65/651 129/54/652 162/62/653 196/74/654
f 162/62/655 161/61/656 197/68/657 198/69/658 199/70/659 200/71/660 201/72/661 202/73/662
f 165/130/663 164/131/664 163/132/665 166/133/666
f 169/282/667 203/285/668 161/287/669 137/286/670
f 168/443/671 135/436/672 167/442/673 204/450/674
f 139/437/675 168/443/676 205/451/677 171/444/678
f 138/277/679 170/281/680 203/285/681 169/282/682
f 170/478/683 156/479/684 182/480/685 206/481/686
f 157/446/687 140/438/688 172/445/689 173/452/690
f 172/248/691 171/252/692 207/253/693 208/249/694
f 141/240/695 173/244/696 209/245/697 174/241/698
f 142/116/699 174/118/700 210/119/701 175/117/702
f 211/297/703 176/293/704 143/292/705 175/298/706
f 178/295/707 144/289/708 176/293/709 212/299/710
f 179/300/711 177/294/712 178/295/713 180/301/714
f 180/301/715 213/306/716 181/312/717 147/307/718
f 183/128/719 148/127/720 181/126/721 214/129/722
f 206/254/723 182/250/724 183/251/725 215/255/726
f 152/486/727 184/487/728 216/488/729 189/489/730
f 185/490/731 151/491/732 188/492/733 217/493/734
f 149/357/735 185/358/736 217/359/737 186/360/738
f 187/134/739 186/135/740 217/136/741 188/137/742
f 193/494/743 153/495/744 190/496/745 218/497/746
f 189/138/747 216/139/748 218/140/749 190/141/750
f 192/361/751 191/362/752 219/363/753 220/364/754
f 154/498/755 192/499/756 220/500/757 194/501/758
f 184/365/759 193/366/760 218/367/761 216/368/762
f 191/502/763 155/503/764 195/504/765 219/505/766
f 194/142/767 220/143/768 219/144/769 195/145/770
f 204/450/771 167/442/772 160/449/773 196/453/774
f 196/74/775 162/62/776 202/73/777 221/77/778 222/78/779 199/70/780 198/69/781 223/79/782
f 161/484/783 203/482/784 224/483/785 197/485/786
f 225/266/787 198/267/788 197/262/789 240/263/790
f 200/369/791 199/370/792 222/371/793 226/372/794 227/373/795
f 201/506/796 200/507/797 227/508/798 228/509/799
f 221/374/800 202/375/801 201/376/802 228/377/803 229/378/804
f 205/451/805 168/443/806 204/450/807 230/454/808
f 171/252/809 205/256/810 231/257/811 207/253/812
f 203/482/813 170/478/814 206/481/815 224/483/816
f 173/244/817 172/248/818 208/249/819 209/245/820
f 208/510/821 207/511/822 232/512/823 233/513/824
f 210/119/825 174/118/826 209/120/827 234/121/828
f 235/304/829 211/297/830 175/298/831 210/305/832
f 212/299/833 176/293/834 211/297/835 236/303/836
f 180/301/837 178/295/838 212/299/839 213/306/840
f 213/306/841 237/309/842 214/313/843 181/312/844
f 215/522/845 183/523/846 214/524/847 238/525/848
f 224/258/849 206/254/850 215/255/851 239/259/852
f 230/454/853 204/450/854 196/453/855 223/455/856
f 222/530/857 221/531/858 229/532/859 226/533/860
f 223/264/861 198/267/862 225/266/863 249/265/864
f 197/262/865 224/258/866 239/259/867 240/263/868
f 228/146/869 227/147/870 226/148/871 229/149/872
f 231/257/873 205/256/874 230/260/875 241/261/876
f 207/511/877 231/514/878 242/515/879 232/512/880
f 209/516/881 208/510/882 233/513/883 234/517/884
f 243/319/885 244/314/886 233/315/887 232/320/888
f 245/310/889 235/304/890 210/305/891 234/311/892
f 246/308/893 236/303/894 211/297/895 235/304/896
f 213/306/897 212/299/898 236/303/899 237/309/900
f 237/309/901 247/317/902 238/318/903 214/313/904
f 239/526/905 215/522/906 238/525/907 248/527/908
f 241/261/909 230/260/910 223/264/911 249/265/912
f 240/528/913 239/526/914 248/527/915 250/529/916
f 225/150/917 240/151/918 250/152/919 251/153/920
f 242/515/921 231/514/922 241/518/923 252/519/924
f 253/324/925 243/319/926 232/320/927 242/325/928
f 244/314/929 245/310/930 234/311/931 233/315/932
f 243/319/933 254/316/934 246/308/935 244/314/936
f 245/310/937 246/308/938 235/304/939
f 246/308/940 237/309/941 236/303/942
f 247/317/943 237/309/944 254/316/945 255/321/946
f 238/318/947 247/317/948 256/322/949 248/323/950
f 252/519/951 241/518/952 249/520/953 257/521/954
f 249/154/955 225/150/956 251/153/957 257/155/958
f 248/323/959 256/322/960 258/327/961 250/328/962
f 251/332/963 250/328/964 258/327/965 262/331/966
f 259/329/967 253/324/968 242/325/969 252/330/970
f 255/321/971 254/316/972 243/319/973 253/324/974
f 244/314/975 246/308/976 245/310/977
f 254/316/978 237/309/979 246/308/980
f 256/322/981 247/317/982 255/321/983 260/326/984
f 261/333/985 259/329/986 252/330/987 257/334/988
f 261/333/989 257/334/990 251/332/991 262/331/992
f 258/327/993 256/322/994 260/326/995 262/331/996
f 260/326/997 255/321/998 253/324/999 259/329/1000
f 262/331/1001 260/326/1002 259/329/1003 261/333/1004
f 69/534/1005 67/535/1006 263/536/1007 264/537/1008
f 65/379/1009 69/380/1010 264/381/1011 265/382/1012
f 264/156/1013 263/157/1014 266/158/1015 265/159/1016
f 67/383/1017 66/384/1018 266/385/1019 263/386/1020
f 66/538/1021 65/539/1022 265/540/1023 266/541/1024
g default
v 11.714941 2.795221 -12.484157
v 11.714941 2.795221 -12.391281
v 11.714941 5.032955 -12.484157
v 11.714941 5.032955 -12.391281
v 13.069857 5.032955 -12.484157
v 13.069857 5.032955 -12.391281
v 13.069857 2.795221 -12.484157
v 13.069857 2.795221 -12.391281
v 12.967837 2.883663 -12.391281
v 11.816959 2.883663 -12.391281
v 12.967837 4.944513 -12.391281
v 11.816959 4.944513 -12.391281
v 12.967837 2.883663 -12.470842
v 11.816959 2.883663 -12.470842
v 12.967837 4.944513 -12.470842
v 11.816959 4.944513 -12.470842
v 11.974170 3.875886 -12.450480
v 11.974170 3.834219 -12.450480
v 11.928807 3.813386 -12.450480
v 11.883445 3.834219 -12.450480
v 11.883445 3.875886 -12.450480
v 11.928807 3.896719 -12.450480
v 11.974170 3.875886 -12.472439
v 11.974170 3.834219 -12.472439
v 11.928807 3.813386 -12.472439
v 11.883445 3.834219 -12.472439
v 11.883445 3.875886 -12.472439
v 11.928807 3.896719 -12.472439
v 11.928807 3.855053 -12.450480
v 11.928807 3.855053 -12.472439
v 11.945755 3.863835 -12.405293
v 11.945755 3.849124 -12.405293
v 11.929739 3.841768 -12.405293
v 11.913723 3.849124 -12.405293
v 11.913723 3.863835 -12.405293
v 11.929739 3.871190 -12.405293
v 11.957479 3.869219 -12.415340
v 11.957479 3.843739 -12.415340
v 11.929739 3.830999 -12.415340
v 11.901999 3.843739 -12.415340
v 11.901999 3.869219 -12.415340
v 11.929739 3.881959 -12.415340
v 11.961770 3.871190 -12.429067
v 11.961770 3.841768 -12.429067
v 11.929739 3.827057 -12.429067
v 11.897708 3.841768 -12.429067
v 11.897708 3.871190 -12.429067
v 11.929739 3.885901 -12.429067
v 11.957479 3.869219 -12.442793
v 11.957479 3.843739 -12.442793
v 11.929739 3.830999 -12.442793
v 11.901999 3.843739 -12.442793
v 11.901999 3.869219 -12.442793
v 11.929739 3.881959 -12.442793
v 11.945755 3.863835 -12.452841
v 11.945755 3.849124 -12.452841
v 11.929739 3.841768 -12.452841
v 11.913723 3.849124 -12.452841
v 11.913723 3.863835 -12.452841
v 11.929739 3.871190 -12.452841
v 11.929739 3.856479 -12.401614
v 11.929739 3.856479 -12.456519
vt 0.001835 0.001992
vt 0.023276 0.001992
vt 0.023276 0.518578
vt 0.001835 0.518578
vt 0.050389 0.518578
vt 0.028948 0.518578
vt 0.028948 0.001992
vt 0.050389 0.001992
vt 0.648130 0.522256
vt 0.648130 0.998008
vt 0.629763 0.998008
vt 0.629763 0.522256
vt 0.605744 0.998008
vt 0.605744 0.522256
vt 0.624110 0.522256
vt 0.624110 0.998008
vt 0.363428 0.531874
vt 0.363428 0.522256
vt 0.368497 0.522256
vt 0.368497 0.531874
vt 0.357775 0.522256
vt 0.357775 0.531874
vt 0.352706 0.531874
vt 0.352706 0.522256
vt 0.392931 0.530913
vt 0.387049 0.530913
vt 0.386594 0.527744
vt 0.393386 0.527744
vt 0.391688 0.533232
vt 0.388292 0.533232
vt 0.387049 0.524575
vt 0.392931 0.524575
vt 0.388292 0.522256
vt 0.391688 0.522256
vt 0.374605 0.524575
vt 0.380487 0.524575
vt 0.380942 0.527744
vt 0.374149 0.527744
vt 0.375848 0.522256
vt 0.379244 0.522256
vt 0.380487 0.530913
vt 0.374605 0.530913
vt 0.379244 0.533232
vt 0.375848 0.533232
vt 0.600091 0.835041
vt 0.578651 0.835041
vt 0.578651 0.522256
vt 0.600091 0.522256
vt 0.551558 0.522256
vt 0.572998 0.522256
vt 0.572998 0.835041
vt 0.551558 0.835041
vt 0.527538 0.787939
vt 0.527538 0.522256
vt 0.545905 0.522256
vt 0.545905 0.787939
vt 0.521886 0.522256
vt 0.521886 0.787939
vt 0.503519 0.787939
vt 0.503519 0.522256
vt 0.497867 0.522256
vt 0.497867 0.532728
vt 0.492798 0.532728
vt 0.492798 0.522256
vt 0.497867 0.543200
vt 0.492798 0.543200
vt 0.482076 0.543200
vt 0.482076 0.532728
vt 0.487145 0.532728
vt 0.487145 0.543200
vt 0.482076 0.522256
vt 0.487145 0.522256
vt 0.424324 0.523246
vt 0.424324 0.529650
vt 0.421155 0.529650
vt 0.421155 0.522256
vt 0.426644 0.525953
vt 0.426644 0.529650
vt 0.424324 0.536054
vt 0.421155 0.537045
vt 0.417987 0.529650
vt 0.417987 0.523246
vt 0.426644 0.533348
vt 0.417987 0.536054
vt 0.415667 0.529650
vt 0.415667 0.525953
vt 0.415667 0.533348
vt 0.401358 0.536054
vt 0.401358 0.529650
vt 0.404527 0.529650
vt 0.404527 0.537045
vt 0.399038 0.533348
vt 0.399038 0.529650
vt 0.401358 0.523246
vt 0.404527 0.522256
vt 0.407695 0.529650
vt 0.407695 0.536054
vt 0.399038 0.525953
vt 0.407695 0.523246
vt 0.410015 0.529650
vt 0.410015 0.533348
vt 0.410015 0.525953
vt 0.653782 0.522256
vt 0.919465 0.522256
vt 0.919465 0.998008
vt 0.653782 0.998008
vt 0.370463 0.518578
vt 0.057677 0.518578
vt 0.057677 0.001992
vt 0.370463 0.001992
vt 0.377289 0.001992
vt 0.690074 0.001992
vt 0.666523 0.022409
vt 0.400840 0.022409
vt 0.690074 0.518578
vt 0.666523 0.498161
vt 0.377289 0.518578
vt 0.400840 0.498161
vt 0.461995 0.522256
vt 0.471614 0.522256
vt 0.466805 0.532728
vt 0.476424 0.532728
vt 0.457186 0.532728
vt 0.471614 0.543200
vt 0.461995 0.543200
vt 0.437105 0.522256
vt 0.446724 0.522256
vt 0.441915 0.532728
vt 0.451534 0.532728
vt 0.432296 0.532728
vt 0.446724 0.543200
vt 0.437105 0.543200
vt 0.341960 0.522256
vt 0.345356 0.522256
vt 0.343657 0.525953
vt 0.347054 0.525953
vt 0.340262 0.525953
vt 0.345356 0.529650
vt 0.341960 0.529650
vt 0.329515 0.522256
vt 0.332911 0.522256
vt 0.331213 0.525953
vt 0.334609 0.525953
vt 0.327817 0.525953
vt 0.332911 0.529650
vt 0.329515 0.529650
vn -1.000000 0.000000 0.000000
vn -1.000000 0.000000 0.000000
vn -1.000000 0.000000 0.000000
vn -1.000000 0.000000 0.000000
vn 0.000000 1.000000 0.000000
vn 0.000000 1.000000 0.000000
vn 0.000000 1.000000 0.000000
vn 0.000000 1.000000 0.000000
vn 1.000000 0.000000 0.000000
vn 1.000000 0.000000 0.000000
vn 1.000000 0.000000 0.000000
vn 1.000000 0.000000 0.000000
vn 0.000000 -1.000000 0.000000
vn 0.000000 -1.000000 0.000000
vn 0.000000 -1.000000 0.000000
vn 0.000000 -1.000000 0.000000
vn 0.000000 0.000000 1.000000
vn 0.000000 0.000000 1.000000
vn 0.000000 0.000000 1.000000
vn 0.000000 0.000000 1.000000
vn 0.000000 0.000000 -1.000000
vn 0.000000 0.000000 -1.000000
vn 0.000000 0.000000 -1.000000
vn 0.000000 0.000000 -1.000000
vn 0.000000 0.000000 1.000000
vn 0.000000 0.000000 1.000000
vn 0.000000 0.000000 1.000000
vn 0.000000 0.000000 1.000000
vn 0.000007 0.000000 1.000000
vn 0.000007 0.000000 1.000000
vn 0.000007 0.000000 1.000000
vn 0.000007 0.000000 1.000000
vn 0.000000 0.000000 1.000000
vn 0.000000 0.000000 1.000000
vn 0.000000 0.000000 1.000000
vn 0.000000 0.000000 1.000000
vn -0.000006 0.000000 1.000000
vn -0.000006 0.000000 1.000000
vn -0.000006 0.000000 1.000000
vn -0.000006 0.000000 1.000000
vn 0.000000 1.000000 0.000000
vn 0.000000 1.000000 0.000000
vn 0.000000 1.000000 0.000000
vn 0.000000 1.000000 0.000000
vn -1.000000 0.000000 0.000000
vn -1.000000 0.000000 0.000000
vn -1.000000 0.000000 0.000000
vn -1.000000 0.000000 0.000000
vn 0.000000 -1.000000 0.000000
vn 0.000000 -1.000000 0.000000
vn 0.000000 -1.000000 0.000000
vn 0.000000 -1.000000 0.000000
vn 1.000000 0.000000 0.000000
vn 1.000000 0.000000 0.000000
vn 1.000000 0.000000 0.000000
vn 1.000000 0.000000 0.000000
vn 1.000000 0.000000 0.000000
vn 1.000000 0.000000 0.000000
vn 1.000000 0.000000 0.000000
vn 1.000000 0.000000 0.000000
vn 0.417344 -0.908749 0.000000
vn 0.417344 -0.908749 0.000000
vn 0.417344 -0.908749 0.000000
vn 0.417344 -0.908749 0.000000
vn -0.417333 -0.908754 0.000000
vn -0.417333 -0.908754 0.000000
vn -0.417333 -0.908754 0.000000
vn -0.417333 -0.908754 0.000000
vn -1.000000 0.000000 0.000000
vn -1.000000 0.000000 0.000000
vn -1.000000 0.000000 0.000000
vn -1.000000 0.000000 0.000000
vn -0.417333 0.908754 0.000000
vn -0.417333 0.908754 0.000000
vn -0.417333 0.908754 0.000000
vn -0.417333 0.908754 0.000000
vn 0.417344 0.908749 0.000000
vn 0.417344 0.908749 0.000000
vn 0.417344 0.908749 0.000000
vn 0.417344 0.908749 0.000000
vn 0.000000 0.000000 1.000000
vn 0.000000 0.000000 1.000000
vn 0.000000 0.000000 1.000000
vn -0.000063 0.000000 1.000000
vn -0.000063 0.000000 1.000000
vn -0.000063 0.000000 1.000000
vn 0.000032 0.000000 1.000000
vn 0.000032 0.000000 1.000000
vn 0.000032 0.000000 1.000000
vn 0.000000 0.000000 1.000000
vn 0.000000 0.000000 1.000000
vn 0.000000 0.000000 1.000000
vn 0.000063 0.000000 1.000000
vn 0.000063 0.000000 1.000000
vn 0.000063 0.000000 1.000000
vn -0.000032 0.000000 1.000000
vn -0.000032 0.000000 1.000000
vn -0.000032 0.000000 1.000000
vn 0.000000 0.000000 -1.000000
vn 0.000000 0.000000 -1.000000
vn 0.000000 0.000000 -1.000000
vn 0.000000 0.000000 -1.000000
vn 0.000000 0.000000 -1.000000
vn 0.000000 0.000000 -1.000000
vn 0.000000 0.000000 -1.000000
vn 0.000000 0.000000 -1.000000
vn 0.000000 0.000000 -1.000000
vn 0.000000 0.000000 -1.000000
vn 0.000000 0.000000 -1.000000
vn 0.000000 0.000000 -1.000000
vn 0.000000 0.000000 -1.000000
vn 0.000000 0.000000 -1.000000
vn 0.000000 0.000000 -1.000000
vn 0.000000 0.000000 -1.000000
vn 0.000000 0.000000 -1.000000
vn 0.000000 0.000000 -1.000000
vn 0.650675 0.000000 0.759357
vn 0.650675 0.000000 0.759357
vn 0.650675 0.000000 0.759357
vn 0.650675 0.000000 0.759357
vn 0.298984 -0.651010 0.697707
vn 0.298984 -0.651009 0.697707
vn 0.298984 -0.651009 0.697707
vn 0.298984 -0.651009 0.697707
vn -0.298966 -0.650996 0.697727
vn -0.298966 -0.650996 0.697727
vn -0.298966 -0.650996 0.697727
vn -0.298966 -0.650996 0.697727
vn -0.650675 0.000000 0.759357
vn -0.650675 0.000000 0.759357
vn -0.650675 0.000000 0.759357
vn -0.650675 0.000000 0.759357
vn -0.298989 0.650997 0.697717
vn -0.298989 0.650997 0.697717
vn -0.298989 0.650997 0.697717
vn -0.298989 0.650997 0.697717
vn 0.298962 0.651009 0.697717
vn 0.298962 0.651009 0.697717
vn 0.298962 0.651009 0.697717
vn 0.298962 0.651009 0.697717
vn 0.954457 0.000000 0.298348
vn 0.954457 0.000000 0.298348
vn 0.954457 0.000000 0.298348
vn 0.954457 0.000000 0.298348
vn 0.403832 -0.879296 0.252502
vn 0.403832 -0.879296 0.252502
vn 0.403832 -0.879296 0.252502
vn 0.403832 -0.879296 0.252502
vn -0.403829 -0.879299 0.252499
vn -0.403829 -0.879299 0.252499
vn -0.403829 -0.879299 0.252499
vn -0.403829 -0.879299 0.252499
vn -0.954457 0.000000 0.298348
vn -0.954457 0.000000 0.298348
vn -0.954457 0.000000 0.298348
vn -0.954457 0.000000 0.298348
vn -0.403832 0.879296 0.252506
vn -0.403832 0.879296 0.252506
vn -0.403832 0.879296 0.252506
vn -0.403832 0.879296 0.252506
vn 0.403829 0.879299 0.252499
vn 0.403829 0.879299 0.252499
vn 0.403829 0.879299 0.252499
vn 0.403829 0.879299 0.252499
vn 0.954460 0.000000 -0.298338
vn 0.954460 0.000000 -0.298338
vn 0.954461 0.000000 -0.298338
vn 0.954461 0.000000 -0.298338
vn 0.403832 -0.879296 -0.252502
vn 0.403832 -0.879296 -0.252502
vn 0.403832 -0.879296 -0.252502
vn 0.403832 -0.879296 -0.252502
vn -0.403836 -0.879296 -0.252498
vn -0.403836 -0.879296 -0.252498
vn -0.403836 -0.879296 -0.252498
vn -0.403836 -0.879296 -0.252498
vn -0.954460 0.000000 -0.298338
vn -0.954460 0.000000 -0.298338
vn -0.954461 0.000000 -0.298338
vn -0.954461 0.000000 -0.298338
vn -0.403832 0.879296 -0.252506
vn -0.403832 0.879296 -0.252506
vn -0.403832 0.879296 -0.252506
vn -0.403832 0.879296 -0.252506
vn 0.403836 0.879296 -0.252498
vn 0.403836 0.879296 -0.252498
vn 0.403836 0.879296 -0.252498
vn 0.403836 0.879296 -0.252498
vn 0.650744 0.000000 -0.759297
vn 0.650744 0.000000 -0.759297
vn 0.650744 0.000000 -0.759297
vn 0.650744 0.000000 -0.759297
vn 0.298984 -0.651009 -0.697707
vn 0.298984 -0.651009 -0.697707
vn 0.298984 -0.651009 -0.697707
vn 0.298984 -0.651009 -0.697707
vn -0.298968 -0.651001 -0.697722
vn -0.298968 -0.651001 -0.697722
vn -0.298968 -0.651001 -0.697722
vn -0.298968 -0.651001 -0.697722
vn -0.650744 0.000000 -0.759297
vn -0.650744 0.000000 -0.759297
vn -0.650744 0.000000 -0.759297
vn -0.650744 0.000000 -0.759297
vn -0.298989 0.650997 -0.697717
vn -0.298989 0.650997 -0.697717
vn -0.298989 0.650997 -0.697717
vn -0.298989 0.650997 -0.697717
vn 0.298964 0.651014 -0.697712
vn 0.298964 0.651014 -0.697712
vn 0.298964 0.651014 -0.697712
vn 0.298964 0.651014 -0.697712
vn 0.223752 0.000000 0.974646
vn 0.223752 0.000000 0.974646
vn 0.223752 0.000000 0.974646
vn 0.110620 -0.241090 0.964178
vn 0.110620 -0.241090 0.964178
vn 0.110620 -0.241090 0.964178
vn -0.110681 -0.241089 0.964171
vn -0.110681 -0.241089 0.964171
vn -0.110681 -0.241089 0.964171
vn -0.223752 0.000000 0.974646
vn -0.223752 0.000000 0.974646
vn -0.223752 0.000000 0.974646
vn -0.110620 0.241090 0.964178
vn -0.110620 0.241090 0.964178
vn -0.110620 0.241090 0.964178
vn 0.110681 0.241089 0.964171
vn 0.110681 0.241089 0.964171
vn 0.110681 0.241089 0.964171
vn 0.223752 0.000000 -0.974646
vn 0.223752 0.000000 -0.974646
vn 0.223752 0.000000 -0.974646
vn 0.110681 -0.241089 -0.964171
vn 0.110681 -0.241089 -0.964171
vn 0.110681 -0.241089 -0.964171
vn -0.110741 -0.241087 -0.964165
vn -0.110741 -0.241087 -0.964165
vn -0.110741 -0.241087 -0.964165
vn -0.223752 0.000000 -0.974646
vn -0.223752 0.000000 -0.974646
vn -0.223752 0.000000 -0.974646
vn -0.110681 0.241089 -0.964171
vn -0.110681 0.241089 -0.964171
vn -0.110681 0.241089 -0.964171
vn 0.110741 0.241087 -0.964165
vn 0.110741 0.241087 -0.964165
vn 0.110741 0.241087 -0.964165
s off
g polySurface60
usemtl blinn11SG
f 267/542/1025 268/543/1026 270/544/1027 269/545/1028
f 269/586/1029 270/587/1030 272/588/1031 271/589/1032
f 271/546/1033 272/547/1034 274/548/1035 273/549/1036
f 273/590/1037 274/591/1038 268/592/1039 267/593/1040
f 280/644/1041 279/645/1042 281/646/1043 282/647/1044
f 273/648/1045 267/649/1046 269/650/1047 271/651/1048
f 268/652/1049 274/653/1050 275/654/1051 276/655/1052
f 274/653/1053 272/656/1054 277/657/1055 275/654/1056
f 272/656/1057 270/658/1058 278/659/1059 277/657/1060
f 270/658/1061 268/652/1062 276/655/1063 278/659/1064
f 276/594/1065 275/595/1066 279/596/1067 280/597/1068
f 275/550/1069 277/551/1070 281/552/1071 279/553/1072
f 277/598/1073 278/599/1074 282/600/1075 281/601/1076
f 278/554/1077 276/555/1078 280/556/1079 282/557/1080
f 283/558/1081 284/559/1082 290/560/1083 289/561/1084
f 284/602/1085 285/603/1086 291/604/1087 290/605/1088
f 285/603/1089 286/606/1090 292/607/1091 291/604/1092
f 286/562/1093 287/563/1094 293/564/1095 292/565/1096
f 287/608/1097 288/609/1098 294/610/1099 293/611/1100
f 288/609/1101 283/612/1102 289/613/1103 294/610/1104
f 284/660/1105 283/661/1106 295/662/1107
f 285/664/1108 284/660/1109 295/662/1110
f 286/666/1111 285/664/1112 295/662/1113
f 287/665/1114 286/666/1115 295/662/1116
f 288/663/1117 287/665/1118 295/662/1119
f 283/661/1120 288/663/1121 295/662/1122
f 289/667/1123 290/668/1124 296/669/1125
f 290/668/1126 291/670/1127 296/669/1128
f 291/670/1129 292/672/1130 296/669/1131
f 292/672/1132 293/673/1133 296/669/1134
f 293/673/1135 294/671/1136 296/669/1137
f 294/671/1138 289/667/1139 296/669/1140
f 297/570/1141 298/571/1142 304/567/1143 303/566/1144
f 298/618/1145 299/619/1146 305/615/1147 304/614/1148
f 299/619/1149 300/624/1150 306/620/1151 305/615/1152
f 300/580/1153 301/581/1154 307/577/1155 306/576/1156
f 301/633/1157 302/634/1158 308/630/1159 307/629/1160
f 302/634/1161 297/639/1162 303/635/1163 308/630/1164
f 303/566/1165 304/567/1166 310/568/1167 309/569/1168
f 304/614/1169 305/615/1170 311/616/1171 310/617/1172
f 305/615/1173 306/620/1174 312/621/1175 311/616/1176
f 306/576/1177 307/577/1178 313/578/1179 312/579/1180
f 307/629/1181 308/630/1182 314/631/1183 313/632/1184
f 308/630/1185 303/635/1186 309/636/1187 314/631/1188
f 309/569/1189 310/568/1190 316/572/1191 315/573/1192
f 310/617/1193 311/616/1194 317/622/1195 316/623/1196
f 311/616/1197 312/621/1198 318/625/1199 317/622/1200
f 312/579/1201 313/578/1202 319/582/1203 318/583/1204
f 313/632/1205 314/631/1206 320/637/1207 319/638/1208
f 314/631/1209 309/636/1210 315/640/1211 320/637/1212
f 315/573/1213 316/572/1214 322/574/1215 321/575/1216
f 316/623/1217 317/622/1218 323/626/1219 322/627/1220
f 317/622/1221 318/625/1222 324/628/1223 323/626/1224
f 318/583/1225 319/582/1226 325/584/1227 324/585/1228
f 319/638/1229 320/637/1230 326/641/1231 325/642/1232
f 320/637/1233 315/640/1234 321/643/1235 326/641/1236
f 298/674/1237 297/675/1238 327/676/1239
f 299/678/1240 298/674/1241 327/676/1242
f 300/680/1243 299/678/1244 327/676/1245
f 301/679/1246 300/680/1247 327/676/1248
f 302/677/1249 301/679/1250 327/676/1251
f 297/675/1252 302/677/1253 327/676/1254
f 321/681/1255 322/682/1256 328/683/1257
f 322/682/1258 323/684/1259 328/683/1260
f 323/684/1261 324/686/1262 328/683/1263
f 324/686/1264 325/687/1265 328/683/1266
f 325/687/1267 326/685/1268 328/683/1269
f 326/685/1270 321/681/1271 328/683/1272
