# This file uses centimeters as units for non-parametric coordinates.

mtllib Well.mtl
g default
v 0.822037 0.994781 0.064525
v 0.951086 0.994781 0.064525
v 0.822037 0.994781 -0.064525
v 0.951086 0.994781 -0.064525
v 0.822037 2.403249 0.064525
v 0.951086 2.342089 0.064525
v 0.951086 2.342089 -0.064525
v 0.822037 2.403249 -0.064525
v 0.951086 2.541437 0.064525
v 0.951086 2.541437 -0.064525
v -0.938031 0.994781 0.064525
v -0.808982 0.994781 0.064525
v -0.938031 0.994781 -0.064525
v -0.808982 0.994781 -0.064525
v -0.938031 2.342089 0.064525
v -0.808982 2.403249 0.064525
v -0.808982 2.403249 -0.064525
v -0.938031 2.342089 -0.064525
v -0.938031 2.541437 0.064525
v -0.938031 2.541437 -0.064525
v 0.951086 2.403249 0.116040
v 0.951086 2.541437 0.114525
v -0.938031 2.403249 0.116040
v -0.938031 2.541437 0.114525
v 0.951086 2.403249 -0.116040
v 0.951086 2.541437 -0.114525
v -0.938031 2.403249 -0.116040
v -0.938031 2.541437 -0.114525
v 0.951086 1.912116 0.512844
v 0.951086 1.912116 0.657874
v -0.938031 1.912116 0.512844
v -0.938031 1.912116 0.657874
v 0.951086 1.912116 -0.512844
v 0.951086 1.912116 -0.657874
v -0.938031 1.912116 -0.512844
v -0.938031 1.912116 -0.657874
v -0.938031 1.711535 -0.064525
v -0.808982 1.711535 -0.064525
v -0.808982 1.711535 0.064525
v -0.938031 1.711535 0.064525
v 0.951086 1.711535 -0.064525
v 0.951086 1.711535 0.064525
v 0.822037 1.711535 0.064525
v 0.822037 1.711535 -0.064525
v 0.951086 1.824528 0.064525
v 0.822037 1.824528 0.064525
v 0.822037 1.824528 -0.064525
v 0.951086 1.824528 -0.064525
v -0.938031 1.824528 0.064525
v -0.938031 1.824528 -0.064525
v -0.808982 1.824528 -0.064525
v -0.808982 1.824528 0.064525
vt 0.269819 0.691154
vt 0.295422 0.691154
vt 0.295422 0.833357
vt 0.269819 0.833357
vt 0.309999 0.380545
vt 0.309999 0.522748
vt 0.284396 0.522748
vt 0.284396 0.380545
vt 0.309999 0.545165
vt 0.284396 0.545165
vt 0.309999 0.647848
vt 0.284396 0.647848
vt 0.309999 0.687398
vt 0.284396 0.687398
vt 0.320220 0.659982
vt 0.319919 0.687398
vt 0.274477 0.687398
vt 0.274176 0.659982
vt 0.398945 0.562542
vt 0.427719 0.562542
vt 0.166677 0.562542
vt 0.195451 0.562542
vt 0.119594 0.691154
vt 0.145197 0.691154
vt 0.145197 0.833357
vt 0.119594 0.833357
vt 0.145197 0.855775
vt 0.119594 0.855775
vt 0.145197 0.958457
vt 0.119594 0.958457
vt 0.145197 0.998008
vt 0.119594 0.998008
vt 0.155417 0.970592
vt 0.155117 0.998008
vt 0.109674 0.998008
vt 0.109373 0.970592
vt 0.234142 0.873152
vt 0.262916 0.873152
vt 0.001875 0.873152
vt 0.030648 0.873152
vt 0.328433 0.691154
vt 0.328433 0.833357
vt 0.302830 0.833357
vt 0.302830 0.691154
vt 0.335842 0.691154
vt 0.361445 0.691154
vt 0.361445 0.805972
vt 0.335842 0.805972
vt 0.368853 0.691154
vt 0.394457 0.691154
vt 0.394457 0.805972
vt 0.368853 0.805972
vt 0.401865 0.691154
vt 0.427468 0.691154
vt 0.427468 0.716757
vt 0.401865 0.716757
vt 0.795810 0.406148
vt 0.821413 0.406148
vt 0.821413 0.729739
vt 0.795810 0.729739
vt 0.910359 0.755342
vt 0.821413 0.755342
vt 0.821413 0.380545
vt 0.910359 0.380545
vt 0.706864 0.380545
vt 0.795810 0.380545
vt 0.795810 0.755342
vt 0.706864 0.755342
vt 0.939132 0.755342
vt 0.939132 0.380545
vt 0.678091 0.380545
vt 0.678091 0.755342
vt 0.662398 0.755342
vt 0.636794 0.755342
vt 0.636794 0.380545
vt 0.662398 0.380545
vt 0.626875 0.755342
vt 0.626875 0.380545
vt 0.672317 0.380545
vt 0.672317 0.755342
vt 0.434877 0.707892
vt 0.460480 0.707892
vt 0.460480 0.733495
vt 0.434877 0.733495
vt 0.490472 0.704136
vt 0.464869 0.704136
vt 0.464869 0.380545
vt 0.490472 0.380545
vt 0.433492 0.704136
vt 0.433492 0.380545
vt 0.459095 0.380545
vt 0.459095 0.704136
vt 0.281312 0.001992
vt 0.281312 0.027595
vt 0.139109 0.027595
vt 0.139109 0.001992
vt 0.116692 0.027595
vt 0.116692 0.001992
vt 0.116692 0.351186
vt 0.139109 0.351186
vt 0.001875 0.027595
vt 0.014009 0.001992
vt 0.139109 0.376789
vt 0.116692 0.376789
vt 0.281312 0.351186
vt 0.281312 0.376789
vt 0.014009 0.376789
vt 0.001875 0.351186
vt 0.288158 0.001992
vt 0.430361 0.001992
vt 0.430361 0.027595
vt 0.288158 0.027595
vt 0.452779 0.001992
vt 0.452779 0.027595
vt 0.555462 0.001992
vt 0.567596 0.027595
vt 0.452779 0.351186
vt 0.430361 0.351186
vt 0.430361 0.376789
vt 0.452779 0.376789
vt 0.288158 0.351186
vt 0.288158 0.376789
vt 0.567596 0.351186
vt 0.555462 0.376789
vt 0.574259 0.001992
vt 0.601675 0.001992
vt 0.601675 0.376789
vt 0.574259 0.376789
vt 0.699115 0.001992
vt 0.699115 0.376789
vt 0.621101 0.755342
vt 0.593685 0.755342
vt 0.593685 0.380545
vt 0.621101 0.380545
vt 0.496245 0.755342
vt 0.496245 0.380545
vn 0.000000 0.000000 -1.000000
vn 0.000000 0.000000 -1.000000
vn 0.000000 0.000000 -1.000000
vn 0.000000 0.000000 -1.000000
vn 0.000000 -1.000000 0.000000
vn 0.000000 -1.000000 0.000000
vn 0.000000 -1.000000 0.000000
vn 0.000000 -1.000000 0.000000
vn -1.000000 0.000000 0.000000
vn -1.000000 0.000000 0.000000
vn -1.000000 0.000000 0.000000
vn -1.000000 0.000000 0.000000
vn 0.000000 0.000000 1.000000
vn 0.000000 0.000000 1.000000
vn 0.000000 0.000000 1.000000
vn 0.000000 0.000000 1.000000
vn 1.000000 0.000000 0.000000
vn 1.000000 0.000000 0.000000
vn 1.000000 0.000000 0.000000
vn 1.000000 0.000000 0.000000
vn 1.000000 0.000000 0.000000
vn 1.000000 0.000000 0.000000
vn 1.000000 0.000000 0.000000
vn 1.000000 0.000000 0.000000
vn 0.000000 0.010967 -0.999940
vn 0.000000 0.010967 -0.999940
vn 0.000000 0.010967 -0.999940
vn 0.000000 0.010967 -0.999940
vn 0.000000 -1.000000 0.000000
vn 0.000000 -1.000000 0.000000
vn 0.000000 -1.000000 0.000000
vn 0.000000 -1.000000 0.000000
vn 0.000000 1.000000 0.000000
vn 0.000000 1.000000 0.000000
vn 0.000000 1.000000 0.000000
vn 0.000000 1.000000 0.000000
vn -0.000000 0.000000 -1.000000
vn -0.000000 0.000000 -1.000000
vn -0.000000 0.000000 -1.000000
vn -0.000000 0.000000 -1.000000
vn 0.000000 -1.000000 0.000000
vn 0.000000 -1.000000 0.000000
vn 0.000000 -1.000000 0.000000
vn 0.000000 -1.000000 0.000000
vn -1.000000 0.000000 0.000000
vn -1.000000 0.000000 0.000000
vn -1.000000 0.000000 0.000000
vn -1.000000 0.000000 0.000000
vn -0.000000 0.000000 1.000000
vn -0.000000 0.000000 1.000000
vn -0.000000 0.000000 1.000000
vn -0.000000 0.000000 1.000000
vn 1.000000 0.000000 0.000000
vn 1.000000 0.000000 0.000000
vn 1.000000 0.000000 0.000000
vn 1.000000 0.000000 0.000000
vn 0.000000 0.010967 0.999940
vn 0.000000 0.010967 0.999940
vn 0.000000 0.010967 0.999940
vn 0.000000 0.010967 0.999940
vn -1.000000 0.000000 0.000000
vn -1.000000 0.000000 0.000000
vn -1.000000 0.000000 0.000000
vn -1.000000 0.000000 0.000000
vn 1.000000 0.000000 0.000000
vn 1.000000 0.000000 0.000000
vn 1.000000 0.000000 0.000000
vn 1.000000 0.000000 0.000000
vn 0.000000 1.000000 0.000000
vn 0.000000 1.000000 0.000000
vn 0.000000 1.000000 0.000000
vn 0.000000 1.000000 0.000000
vn 0.000000 -1.000000 0.000000
vn 0.000000 -1.000000 0.000000
vn 0.000000 -1.000000 0.000000
vn 0.000000 -1.000000 0.000000
vn -1.000000 0.000000 0.000000
vn -1.000000 0.000000 0.000000
vn -1.000000 0.000000 0.000000
vn -1.000000 0.000000 0.000000
vn 0.000000 -1.000000 0.000000
vn 0.000000 -1.000000 0.000000
vn 0.000000 -1.000000 0.000000
vn 0.000000 -1.000000 0.000000
vn 1.000000 0.000000 0.000000
vn 1.000000 0.000000 0.000000
vn 1.000000 0.000000 0.000000
vn 1.000000 0.000000 0.000000
vn -1.000000 0.000000 0.000000
vn -1.000000 0.000000 0.000000
vn -1.000000 0.000000 0.000000
vn -1.000000 0.000000 0.000000
vn 0.000000 1.000000 0.000000
vn 0.000000 1.000000 0.000000
vn 0.000000 1.000000 0.000000
vn 0.000000 1.000000 0.000000
vn 1.000000 0.000000 0.000000
vn 1.000000 0.000000 0.000000
vn 1.000000 0.000000 0.000000
vn 1.000000 0.000000 0.000000
vn -0.000000 0.740921 0.671592
vn -0.000000 0.740921 0.671592
vn -0.000000 0.740921 0.671592
vn -0.000000 0.740921 0.671592
vn 0.000000 -0.677318 -0.735690
vn 0.000000 -0.677318 -0.735690
vn 0.000000 -0.677319 -0.735690
vn 0.000000 -0.677319 -0.735690
vn 0.000000 -0.677319 -0.735690
vn 0.000000 -0.677318 -0.735690
vn -1.000000 -0.000001 0.000000
vn -1.000000 -0.000001 0.000000
vn -1.000000 -0.000001 0.000000
vn -1.000000 -0.000001 0.000000
vn 0.000000 -0.677318 0.735690
vn 0.000000 -0.677319 0.735690
vn 0.000000 -0.677319 0.735690
vn 0.000000 -0.677319 0.735690
vn 0.000000 -0.677318 0.735690
vn 0.000000 -0.677318 0.735690
vn 1.000000 0.000000 0.000000
vn 1.000000 0.000000 0.000000
vn 1.000000 0.000000 0.000000
vn 1.000000 0.000000 0.000000
vn -1.000000 -0.000001 0.000000
vn -1.000000 -0.000001 0.000000
vn -1.000000 -0.000001 0.000000
vn -1.000000 -0.000001 0.000000
vn -0.000000 0.740921 -0.671592
vn -0.000000 0.740921 -0.671592
vn -0.000000 0.740921 -0.671592
vn -0.000000 0.740921 -0.671592
vn 0.000000 0.000000 -1.000000
vn 0.000000 0.000000 -1.000000
vn 0.000000 0.000000 -1.000000
vn 0.000000 0.000000 -1.000000
vn 0.000000 0.000000 1.000000
vn 0.000000 0.000000 1.000000
vn 0.000000 0.000000 1.000000
vn 0.000000 0.000000 1.000000
vn -1.000000 0.000000 0.000000
vn -1.000000 0.000000 0.000000
vn -1.000000 0.000000 0.000000
vn -1.000000 0.000000 0.000000
vn 1.000000 0.000000 0.000000
vn 1.000000 0.000000 0.000000
vn 1.000000 0.000000 0.000000
vn 1.000000 0.000000 0.000000
vn 0.000000 0.000000 1.000000
vn 0.000000 0.000000 1.000000
vn 0.000000 0.000000 1.000000
vn 0.000000 0.000000 1.000000
vn 0.000000 0.000000 -1.000000
vn 0.000000 0.000000 -1.000000
vn 0.000000 0.000000 -1.000000
vn 0.000000 0.000000 -1.000000
vn 0.000000 0.000000 1.000000
vn 0.000000 0.000000 1.000000
vn 0.000000 0.000000 1.000000
vn 0.000000 0.000000 1.000000
vn -1.000000 0.000000 0.000000
vn -1.000000 0.000000 0.000000
vn -1.000000 0.000000 0.000000
vn -1.000000 0.000000 0.000000
vn 0.000000 0.000000 -1.000000
vn 0.000000 0.000000 -1.000000
vn 0.000000 0.000000 -1.000000
vn 0.000000 0.000000 -1.000000
vn 1.000000 0.000000 0.000000
vn 1.000000 0.000000 0.000000
vn 1.000000 0.000000 0.000000
vn 1.000000 0.000000 0.000000
vn -1.000000 0.000000 0.000000
vn -1.000000 0.000000 0.000000
vn -1.000000 0.000000 0.000000
vn -1.000000 0.000000 0.000000
vn 0.000000 0.000000 -1.000000
vn 0.000000 0.000000 -1.000000
vn 0.000000 0.000000 -1.000000
vn 0.000000 0.000000 -1.000000
vn 1.000000 0.000000 0.000000
vn 1.000000 0.000000 0.000000
vn 1.000000 0.000000 0.000000
vn 1.000000 0.000000 0.000000
vn 0.000000 0.000000 1.000000
vn 0.000000 0.000000 1.000000
vn 0.000000 0.000000 1.000000
vn 0.000000 0.000000 1.000000
vn 0.000000 -1.000000 0.000000
vn 0.000000 -1.000000 0.000000
vn 0.000000 -1.000000 0.000000
vn 0.000000 -1.000000 0.000000
vn 0.000000 0.000000 1.000000
vn 0.000000 0.000000 1.000000
vn 0.000000 0.000000 1.000000
vn 0.000000 0.000000 1.000000
vn 0.000000 1.000000 0.000000
vn 0.000000 1.000000 0.000000
vn 0.000000 1.000000 0.000000
vn 0.000000 1.000000 0.000000
vn 0.000000 0.000000 -1.000000
vn 0.000000 0.000000 -1.000000
vn 0.000000 0.000000 -1.000000
vn 0.000000 0.000000 -1.000000
s off
g polySurface399 polySurface39
usemtl blinn15SG
f 4/93/1 3/94/2 44/95/3 41/96/4
f 3/53/5 4/54/6 2/55/7 1/56/8
f 3/1/9 1/2/10 43/3/11 44/4/12
f 2/109/13 42/110/14 43/111/15 1/112/16
f 4/5/17 41/6/18 42/7/19 2/8/20
f 6/12/21 7/11/22 10/13/23 9/14/24
f 26/125/25 25/126/26 27/127/27 28/128/28
f 8/57/29 5/58/30 16/59/31 17/60/32
f 20/73/33 19/74/34 9/75/35 10/76/36
f 14/105/37 13/106/38 37/103/39 38/100/40
f 13/81/41 14/82/42 12/83/43 11/84/44
f 13/23/45 11/24/46 40/25/47 37/26/48
f 12/121/49 39/118/50 40/119/51 11/122/52
f 14/41/53 38/42/54 39/43/55 12/44/56
f 24/131/57 23/132/58 21/133/59 22/134/60
f 18/30/61 15/29/62 19/31/63 20/32/64
f 6/12/65 9/14/66 22/17/67 21/18/68
f 24/77/69 22/78/70 9/75/71 19/74/72
f 32/69/73 31/61/74 29/64/75 30/70/76
f 19/31/77 15/29/78 23/33/79 24/34/80
f 34/71/81 33/65/82 35/68/83 36/72/84
f 10/13/85 7/11/86 25/15/87 26/16/88
f 18/30/89 20/32/90 28/35/91 27/36/92
f 26/79/93 28/80/94 20/73/95 10/76/96
f 6/12/97 21/18/98 30/21/99 29/22/100
f 32/135/101 30/136/102 21/133/103 23/132/104
f 31/61/105 15/62/106 16/59/107 5/58/108 6/63/109 29/64/110
f 23/33/111 15/29/112 31/37/113 32/38/114
f 33/65/115 7/66/116 8/57/117 17/60/118 18/67/119 35/68/120
f 25/15/121 7/11/122 33/19/123 34/20/124
f 18/30/125 27/36/126 36/39/127 35/40/128
f 34/129/129 36/130/130 27/127/131 25/126/132
f 38/100/133 37/103/134 50/104/135 51/99/136
f 40/119/137 39/118/138 52/117/139 49/120/140
f 37/26/141 40/25/142 49/27/143 50/28/144
f 42/7/145 41/6/146 48/9/147 45/10/148
f 43/111/149 42/110/150 45/113/151 46/114/152
f 41/96/153 44/95/154 47/97/155 48/98/156
f 46/114/157 45/113/158 6/115/159 5/116/160
f 47/45/161 46/46/162 5/47/163 8/48/164
f 48/98/165 47/97/166 8/101/167 7/102/168
f 45/10/169 48/9/170 7/11/171 6/12/172
f 50/28/173 49/27/174 15/29/175 18/30/176
f 51/99/177 50/104/178 18/107/179 17/108/180
f 52/49/181 51/50/182 17/51/183 16/52/184
f 49/120/185 52/117/186 16/123/187 15/124/188
f 39/85/189 38/86/190 44/87/191 43/88/192
f 52/117/193 39/118/194 43/111/195 46/114/196
f 52/89/197 46/90/198 47/91/199 51/92/200
f 51/99/201 47/97/202 44/95/203 38/100/204
g default
v 0.802975 0.193502 -0.000000
v 0.695397 0.193502 -0.401488
v 0.401488 0.234365 -0.695397
v 0.000000 0.193502 -0.802975
v -0.401488 0.193502 -0.695397
v -0.695397 0.193502 -0.401488
v -0.802975 0.193502 -0.000000
v -0.695397 0.193502 0.401488
v -0.401488 0.193502 0.695397
v 0.000000 0.193502 0.802975
v 0.401488 0.193502 0.695397
v 0.695397 0.193502 0.401488
v 0.802975 1.126298 0.000000
v 0.695397 1.010992 -0.401488
v 0.401488 1.076548 -0.695397
v 0.000000 1.010247 -0.802975
v -0.401488 1.056518 -0.695397
v -0.695397 1.056518 -0.401488
v -0.802975 1.056518 0.000000
v -0.695397 1.107731 0.401488
v -0.401488 1.097382 0.695397
v 0.000000 1.027946 0.802975
v 0.401488 1.095325 0.695397
v 0.695397 1.106070 0.401488
v 0.984395 1.059729 0.000000
v 0.852511 0.944424 -0.492197
v 0.492197 1.009980 -0.852511
v 0.000000 0.943679 -0.984395
v -0.492197 0.989950 -0.852511
v -0.852511 0.989950 -0.492197
v -0.984395 0.989950 0.000000
v -0.852511 1.041162 0.492197
v -0.492197 1.030813 0.852511
v 0.000000 0.961378 0.984395
v 0.492197 1.028756 0.852511
v 0.852511 1.039502 0.492197
v 0.984395 0.190101 -0.000000
v 0.852511 0.190101 -0.492197
v 0.492197 0.192158 -0.852511
v 0.000000 0.190101 -0.984395
v -0.492197 0.190101 -0.852511
v -0.852511 0.190101 -0.492197
v -0.984395 0.190101 -0.000000
v -0.852511 0.190101 0.492197
v -0.492197 0.190101 0.852511
v 0.000000 0.190101 0.984395
v 0.492197 0.190101 0.852511
v 0.852511 0.190101 0.492197
v -0.887529 1.047183 0.000000
v -0.768622 1.098395 0.443764
v -0.443764 1.088046 0.768622
v 0.000000 1.018610 0.887529
v 0.443764 1.085989 0.768622
v 0.768622 1.096734 0.443764
v 0.887529 1.116962 0.000000
v 0.768622 1.001656 -0.443764
v 0.443764 1.067212 -0.768622
v 0.000000 1.000912 -0.887529
v -0.443764 1.042771 -0.783937
v -0.788982 1.078126 -0.443764
v -0.852511 0.284186 -0.492197
v -0.984395 0.353965 0.000000
v -0.852511 0.284186 0.492197
v -0.492197 0.284186 0.852511
v 0.000000 0.284186 0.984395
v 0.492197 0.284186 0.852511
v 0.852511 0.284186 0.492197
v 0.984395 0.284186 0.000000
v 0.852511 0.284186 -0.492197
v 0.492197 0.376262 -0.852511
v 0.000000 0.255614 -0.984395
v -0.492197 0.284186 -0.852511
v -0.904190 0.284186 -0.522034
v -1.044068 0.353965 0.000000
v -0.904190 0.190101 -0.522034
v -1.044068 0.190101 0.000000
v -0.904190 0.284186 0.522034
v -0.904190 0.190101 0.522034
v -0.522034 0.284186 0.904190
v -0.522034 0.190101 0.904190
v 0.000000 0.284186 1.044068
v 0.000000 0.190101 1.044068
v 0.522034 0.284186 0.904190
v 0.522034 0.190101 0.904190
v 0.904190 0.284186 0.522034
v 0.904190 0.190101 0.522034
v 1.044068 0.284186 0.000000
v 1.044068 0.190101 0.000000
v 0.904190 0.284186 -0.522034
v 0.904190 0.190101 -0.522034
v 0.522034 0.376262 -0.904190
v 0.522034 0.192158 -0.904190
v 0.000000 0.255614 -1.044068
v 0.000000 0.187899 -1.044068
v -0.522034 0.284186 -0.904190
v -0.522034 0.190101 -0.904190
vt 0.069909 0.608331
vt 0.069909 0.532390
vt 0.246348 0.532390
vt 0.224538 0.608331
vt 0.069909 0.456448
vt 0.242522 0.456448
vt 0.077639 0.663924
vt 0.236938 0.663924
vt 0.069909 0.400855
vt 0.240489 0.400855
vt 0.001992 0.799450
vt 0.001992 0.723509
vt 0.165232 0.723509
vt 0.165232 0.799450
vt 0.001992 0.667916
vt 0.165232 0.667916
vt 0.001992 0.875392
vt 0.174919 0.875392
vt 0.001992 0.930984
vt 0.172961 0.930984
vt 0.537510 0.469009
vt 0.559320 0.562108
vt 0.412626 0.562108
vt 0.412626 0.469009
vt 0.555494 0.655207
vt 0.412626 0.655207
vt 0.549910 0.400855
vt 0.430042 0.400855
vt 0.553461 0.723360
vt 0.412626 0.723360
vt 0.385978 0.562108
vt 0.385978 0.655207
vt 0.252483 0.655207
vt 0.265682 0.562108
vt 0.396804 0.562108
vt 0.402657 0.646046
vt 0.385978 0.723361
vt 0.252483 0.723361
vt 0.395665 0.469009
vt 0.252483 0.469009
vt 0.406491 0.478170
vt 0.393708 0.400855
vt 0.252483 0.400855
vt 0.637798 0.571883
vt 0.624600 0.670626
vt 0.606803 0.670626
vt 0.606803 0.571883
vt 0.624600 0.742911
vt 0.606803 0.742911
vt 0.624600 0.473140
vt 0.606803 0.473140
vt 0.624600 0.400855
vt 0.606803 0.400855
vt 0.583252 0.571883
vt 0.583252 0.670626
vt 0.565455 0.670626
vt 0.565455 0.571883
vt 0.583252 0.742911
vt 0.565455 0.742911
vt 0.583252 0.473140
vt 0.565455 0.473140
vt 0.600668 0.400855
vt 0.565844 0.400855
vt 0.943344 0.662995
vt 0.963692 0.587054
vt 0.979686 0.587054
vt 0.957195 0.670992
vt 0.943344 0.511112
vt 0.957195 0.503116
vt 0.998008 0.587054
vt 0.973062 0.680153
vt 0.887751 0.718588
vt 0.895748 0.732439
vt 0.887751 0.455519
vt 0.895748 0.441669
vt 0.973062 0.493955
vt 0.904909 0.748306
vt 0.811810 0.738937
vt 0.811810 0.754930
vt 0.811810 0.435171
vt 0.811810 0.419178
vt 0.904909 0.425801
vt 0.811810 0.773252
vt 0.735868 0.718588
vt 0.727872 0.735336
vt 0.735868 0.455519
vt 0.727872 0.441669
vt 0.811810 0.400855
vt 0.718710 0.748306
vt 0.680275 0.662995
vt 0.662574 0.670992
vt 0.680275 0.511112
vt 0.666425 0.503116
vt 0.718710 0.425801
vt 0.650557 0.680153
vt 0.659927 0.587054
vt 0.643934 0.587054
vt 0.650557 0.493955
vt 0.360730 0.106279
vt 0.385676 0.199378
vt 0.351361 0.199378
vt 0.331012 0.123437
vt 0.370505 0.100635
vt 0.396963 0.199378
vt 0.360730 0.292478
vt 0.331012 0.275320
vt 0.292577 0.038126
vt 0.275419 0.067844
vt 0.298221 0.028351
vt 0.370505 0.298121
vt 0.292577 0.360631
vt 0.275419 0.330913
vt 0.199478 0.013180
vt 0.199478 0.047495
vt 0.199478 0.001893
vt 0.298221 0.370406
vt 0.199478 0.385577
vt 0.199478 0.351261
vt 0.106379 0.038126
vt 0.123536 0.067844
vt 0.100735 0.028351
vt 0.199478 0.396864
vt 0.106379 0.360631
vt 0.123536 0.330913
vt 0.038225 0.106279
vt 0.067943 0.123437
vt 0.028450 0.100635
vt 0.100735 0.370406
vt 0.038225 0.292478
vt 0.067943 0.275320
vt 0.013279 0.199378
vt 0.047595 0.199378
vt 0.001992 0.199378
vt 0.028450 0.298121
vt 0.414958 0.199378
vt 0.439904 0.292478
vt 0.430129 0.298121
vt 0.403671 0.199378
vt 0.508058 0.360631
vt 0.502414 0.370406
vt 0.439904 0.106279
vt 0.430129 0.100636
vt 0.601157 0.385577
vt 0.601157 0.396864
vt 0.508058 0.038126
vt 0.502414 0.028351
vt 0.694256 0.360631
vt 0.699900 0.370406
vt 0.601157 0.013180
vt 0.601157 0.001893
vt 0.762409 0.292478
vt 0.772184 0.298121
vt 0.694256 0.038126
vt 0.699900 0.028351
vt 0.787355 0.199378
vt 0.798643 0.199378
vt 0.762409 0.106279
vt 0.772184 0.100636
vt 0.783649 0.777244
vt 0.859591 0.784973
vt 0.859591 0.944272
vt 0.783649 0.931731
vt 0.707708 0.777244
vt 0.707708 0.940483
vt 0.623835 0.948213
vt 0.547894 0.948213
vt 0.547894 0.777244
vt 0.623835 0.790377
vt 0.699776 0.948213
vt 0.699776 0.777633
vt 0.262245 0.820451
vt 0.249704 0.727352
vt 0.369572 0.727352
vt 0.392392 0.820451
vt 0.253492 0.913550
vt 0.386988 0.913550
vt 0.527864 0.820451
vt 0.540998 0.913550
vt 0.399773 0.913550
vt 0.399773 0.820451
vt 0.540609 0.727352
vt 0.399773 0.727352
vt 0.199287 0.766659
vt 0.199287 0.865401
vt 0.181491 0.865401
vt 0.181491 0.766659
vt 0.199287 0.667916
vt 0.181491 0.667916
vt 0.229648 0.766659
vt 0.206827 0.667916
vt 0.241650 0.667916
vt 0.242456 0.766659
vt 0.224243 0.865401
vt 0.242039 0.865401
vn -0.965926 0.000000 0.258819
vn -0.965926 0.000000 0.258819
vn -0.965926 0.000000 0.258819
vn -0.965926 0.000000 0.258819
vn -0.707107 0.000000 0.707107
vn -0.707107 0.000000 0.707107
vn -0.707107 0.000000 0.707107
vn -0.707107 0.000000 0.707107
vn -0.258819 0.000000 0.965926
vn -0.258819 0.000000 0.965926
vn -0.258819 0.000000 0.965926
vn -0.258819 0.000000 0.965926
vn 0.258819 0.000000 0.965926
vn 0.258819 0.000000 0.965926
vn 0.258819 0.000000 0.965926
vn 0.258819 0.000000 0.965926
vn 0.707107 0.000000 0.707107
vn 0.707107 0.000000 0.707107
vn 0.707107 0.000000 0.707107
vn 0.707107 0.000000 0.707107
vn 0.965926 -0.000000 0.258819
vn 0.965926 -0.000000 0.258819
vn 0.965926 -0.000000 0.258819
vn 0.965926 -0.000000 0.258819
vn 0.965926 0.000000 -0.258819
vn 0.965926 0.000000 -0.258819
vn 0.965926 0.000000 -0.258819
vn 0.965926 0.000000 -0.258819
vn 0.707107 0.000000 -0.707107
vn 0.707107 0.000000 -0.707107
vn 0.707107 0.000000 -0.707107
vn 0.707107 0.000000 -0.707107
vn 0.258819 0.000000 -0.965926
vn 0.258819 0.000000 -0.965926
vn 0.258819 0.000000 -0.965926
vn 0.258819 0.000000 -0.965926
vn -0.258819 0.000000 -0.965926
vn -0.258819 0.000000 -0.965926
vn -0.258819 0.000000 -0.965926
vn -0.258819 0.000000 -0.965926
vn -0.707107 0.000000 -0.707107
vn -0.707107 0.000000 -0.707107
vn -0.707107 0.000000 -0.707107
vn -0.707107 0.000000 -0.707107
vn -0.965926 0.000000 -0.258819
vn -0.965926 0.000000 -0.258819
vn -0.965926 0.000000 -0.258819
vn -0.965926 0.000000 -0.258819
vn 0.040566 0.961131 -0.273096
vn 0.040566 0.961131 -0.273096
vn 0.040566 0.961131 -0.273096
vn 0.040566 0.961131 -0.273096
vn 0.183544 0.982702 0.024683
vn 0.183544 0.982702 0.024683
vn 0.183544 0.982702 0.024683
vn 0.183544 0.982702 0.024683
vn -0.114735 0.982458 -0.147009
vn -0.114735 0.982458 -0.147009
vn -0.114735 0.982458 -0.147009
vn -0.114735 0.982458 -0.147009
vn 0.065987 0.986826 -0.147718
vn 0.065987 0.986826 -0.147718
vn 0.065987 0.986826 -0.147718
vn 0.065987 0.986826 -0.147718
vn 0.056513 0.998401 0.001294
vn 0.056513 0.998401 0.001294
vn 0.056513 0.998401 0.001294
vn 0.056513 0.998401 0.001294
vn 0.056743 0.997119 0.050340
vn 0.056743 0.997119 0.050340
vn 0.056743 0.997119 0.050340
vn 0.056743 0.997119 0.050340
vn -0.138862 0.986879 -0.082380
vn -0.138862 0.986879 -0.082380
vn -0.138862 0.986879 -0.082380
vn -0.138862 0.986879 -0.082380
vn -0.063671 0.993256 0.096896
vn -0.063671 0.993256 0.096896
vn -0.063671 0.993256 0.096896
vn -0.063671 0.993256 0.096896
vn 0.121405 0.981406 0.148672
vn 0.121405 0.981406 0.148672
vn 0.121405 0.981406 0.148672
vn 0.121405 0.981406 0.148672
vn -0.117030 0.982102 0.147581
vn -0.117030 0.982102 0.147581
vn -0.117030 0.982102 0.147581
vn -0.117030 0.982102 0.147581
vn 0.063033 0.993234 0.097531
vn 0.063033 0.993235 0.097531
vn 0.063033 0.993235 0.097531
vn 0.063033 0.993235 0.097531
vn 0.097709 0.992484 0.073683
vn 0.097709 0.992484 0.073683
vn 0.097709 0.992484 0.073683
vn 0.097709 0.992484 0.073683
vn 0.965926 0.000000 -0.258819
vn 0.965926 0.000000 -0.258819
vn 0.965926 0.000000 -0.258819
vn 0.965926 0.000000 -0.258819
vn 0.707107 0.000000 -0.707107
vn 0.707107 0.000000 -0.707107
vn 0.707107 0.000000 -0.707107
vn 0.707107 0.000000 -0.707107
vn 0.258819 0.000000 -0.965926
vn 0.258819 0.000000 -0.965926
vn 0.258819 0.000000 -0.965926
vn 0.258819 0.000000 -0.965926
vn -0.258819 0.000000 -0.965926
vn -0.258819 0.000000 -0.965926
vn -0.258819 0.000000 -0.965926
vn -0.258819 0.000000 -0.965926
vn -0.707107 0.000000 -0.707107
vn -0.707107 0.000000 -0.707107
vn -0.707107 0.000000 -0.707107
vn -0.707107 0.000000 -0.707107
vn -0.965926 0.000000 -0.258819
vn -0.965926 0.000000 -0.258819
vn -0.965926 0.000000 -0.258819
vn -0.965926 0.000000 -0.258819
vn -0.965926 0.000000 0.258819
vn -0.965926 0.000000 0.258819
vn -0.965926 0.000000 0.258819
vn -0.965926 0.000000 0.258819
vn -0.707107 0.000000 0.707107
vn -0.707107 0.000000 0.707107
vn -0.707107 0.000000 0.707107
vn -0.707107 0.000000 0.707107
vn -0.258819 0.000000 0.965926
vn -0.258819 0.000000 0.965926
vn -0.258819 0.000000 0.965926
vn -0.258819 0.000000 0.965926
vn 0.258819 0.000000 0.965926
vn 0.258819 0.000000 0.965926
vn 0.258819 0.000000 0.965926
vn 0.258819 0.000000 0.965926
vn 0.707107 0.000000 0.707107
vn 0.707107 0.000000 0.707107
vn 0.707107 0.000000 0.707107
vn 0.707107 0.000000 0.707107
vn 0.965926 -0.000000 0.258819
vn 0.965926 -0.000000 0.258819
vn 0.965926 -0.000000 0.258819
vn 0.965926 -0.000000 0.258819
vn -0.018744 -0.999812 0.005022
vn -0.018744 -0.999812 0.005022
vn -0.018744 -0.999812 0.005022
vn -0.018744 -0.999812 0.005022
vn -0.123647 -0.990591 0.058659
vn -0.123647 -0.990591 0.058659
vn -0.123647 -0.990591 0.058659
vn -0.123647 -0.990591 0.058659
vn 0.011024 -0.990591 0.136411
vn 0.011024 -0.990591 0.136411
vn 0.011024 -0.990591 0.136411
vn 0.011024 -0.990591 0.136411
vn 0.005022 -0.999812 0.018744
vn 0.005022 -0.999812 0.018744
vn 0.005022 -0.999812 0.018744
vn 0.005022 -0.999812 0.018744
vn 0.013722 -0.999812 0.013721
vn 0.013722 -0.999812 0.013721
vn 0.013722 -0.999812 0.013721
vn 0.013722 -0.999812 0.013721
vn 0.018744 -0.999812 0.005022
vn 0.018744 -0.999812 0.005022
vn 0.018744 -0.999812 0.005022
vn 0.018744 -0.999812 0.005022
vn 0.018744 -0.999812 -0.005022
vn 0.018744 -0.999812 -0.005022
vn 0.018744 -0.999812 -0.005022
vn 0.018744 -0.999812 -0.005022
vn 0.013722 -0.999812 -0.013722
vn 0.013722 -0.999812 -0.013722
vn 0.013722 -0.999812 -0.013722
vn 0.013722 -0.999812 -0.013722
vn 0.005022 -0.999812 -0.018744
vn 0.005022 -0.999812 -0.018744
vn 0.005022 -0.999812 -0.018744
vn 0.005022 -0.999812 -0.018744
vn -0.005022 -0.999812 -0.018744
vn -0.005022 -0.999812 -0.018744
vn -0.005022 -0.999812 -0.018744
vn -0.005022 -0.999812 -0.018744
vn -0.013722 -0.999812 -0.013721
vn -0.013722 -0.999812 -0.013721
vn -0.013722 -0.999812 -0.013721
vn -0.013722 -0.999812 -0.013721
vn -0.018744 -0.999812 -0.005022
vn -0.018744 -0.999812 -0.005022
vn -0.018744 -0.999812 -0.005022
vn -0.018744 -0.999812 -0.005022
vn -0.525234 0.849616 0.047760
vn -0.525234 0.849616 0.047760
vn -0.525234 0.849616 0.047760
vn -0.525234 0.849616 0.047760
vn -0.356030 0.852922 0.381795
vn -0.356030 0.852922 0.381795
vn -0.356030 0.852922 0.381795
vn -0.356030 0.852922 0.381795
vn -0.016835 0.846758 0.531711
vn -0.016835 0.846759 0.531711
vn -0.016835 0.846758 0.531711
vn -0.016835 0.846759 0.531711
vn 0.020317 0.847123 0.531008
vn 0.020317 0.847123 0.531008
vn 0.020317 0.847123 0.531008
vn 0.020317 0.847123 0.531008
vn 0.355531 0.852911 0.382284
vn 0.355531 0.852911 0.382284
vn 0.355531 0.852911 0.382284
vn 0.355531 0.852911 0.382284
vn 0.494495 0.852523 0.169348
vn 0.494495 0.852523 0.169348
vn 0.494495 0.852523 0.169348
vn 0.494495 0.852523 0.169348
vn 0.442454 0.836008 -0.324538
vn 0.442454 0.836008 -0.324538
vn 0.442454 0.836008 -0.324538
vn 0.442454 0.836008 -0.324538
vn 0.447621 0.847437 -0.285459
vn 0.447621 0.847437 -0.285459
vn 0.447621 0.847437 -0.285459
vn 0.447621 0.847437 -0.285459
vn 0.022142 0.847310 -0.530637
vn 0.022142 0.847310 -0.530637
vn 0.022142 0.847310 -0.530637
vn 0.022142 0.847310 -0.530637
vn -0.057194 0.838883 -0.541298
vn -0.057194 0.838883 -0.541298
vn -0.057194 0.838883 -0.541298
vn -0.057194 0.838883 -0.541298
vn -0.443299 0.754118 -0.484554
vn -0.443299 0.754118 -0.484554
vn -0.443299 0.754118 -0.484554
vn -0.443299 0.754118 -0.484554
vn -0.643225 0.753961 -0.133433
vn -0.643226 0.753961 -0.133433
vn -0.643225 0.753960 -0.133433
vn -0.643225 0.753961 -0.133433
vn -0.965926 0.000000 -0.258819
vn -0.965926 0.000000 -0.258819
vn -0.965926 0.000000 -0.258819
vn -0.965926 0.000000 -0.258819
vn -0.965926 0.000000 0.258819
vn -0.965926 0.000000 0.258819
vn -0.965926 0.000000 0.258819
vn -0.965926 0.000000 0.258819
vn -0.707107 0.000000 0.707107
vn -0.707107 0.000000 0.707107
vn -0.707107 0.000000 0.707107
vn -0.707107 0.000000 0.707107
vn -0.258819 0.000000 0.965926
vn -0.258819 0.000000 0.965926
vn -0.258819 0.000000 0.965926
vn -0.258819 0.000000 0.965926
vn 0.258819 0.000000 0.965926
vn 0.258819 0.000000 0.965926
vn 0.258819 0.000000 0.965926
vn 0.258819 0.000000 0.965926
vn 0.707107 0.000000 0.707107
vn 0.707107 0.000000 0.707107
vn 0.707107 0.000000 0.707107
vn 0.707107 0.000000 0.707107
vn 0.965926 0.000000 0.258819
vn 0.965926 0.000000 0.258819
vn 0.965926 0.000000 0.258819
vn 0.965926 0.000000 0.258819
vn 0.965926 0.000000 -0.258819
vn 0.965926 0.000000 -0.258819
vn 0.965926 0.000000 -0.258819
vn 0.965926 0.000000 -0.258819
vn 0.707107 0.000000 -0.707107
vn 0.707107 0.000000 -0.707107
vn 0.707107 0.000000 -0.707107
vn 0.707107 0.000000 -0.707107
vn 0.258819 0.000000 -0.965926
vn 0.258819 0.000000 -0.965926
vn 0.258819 0.000000 -0.965926
vn 0.258819 0.000000 -0.965926
vn -0.258819 0.000000 -0.965926
vn -0.258819 0.000000 -0.965926
vn -0.258819 0.000000 -0.965926
vn -0.258819 0.000000 -0.965926
vn -0.707107 0.000000 -0.707107
vn -0.707107 0.000000 -0.707107
vn -0.707107 0.000000 -0.707107
vn -0.707107 0.000000 -0.707107
vn 0.034100 0.991283 -0.127263
vn 0.034100 0.991283 -0.127263
vn 0.034100 0.991283 -0.127263
vn 0.034100 0.991283 -0.127263
vn 0.000000 -1.000000 0.000000
vn 0.000000 -1.000000 0.000000
vn 0.000000 -1.000000 0.000000
vn 0.000000 -1.000000 0.000000
vn 0.034100 0.991283 0.127264
vn 0.034100 0.991283 0.127264
vn 0.034100 0.991283 0.127264
vn 0.034100 0.991283 0.127264
vn 0.000000 -1.000000 0.000000
vn 0.000000 -1.000000 0.000000
vn 0.000000 -1.000000 0.000000
vn 0.000000 -1.000000 0.000000
vn 0.000000 1.000000 0.000000
vn 0.000000 1.000000 0.000000
vn 0.000000 1.000000 0.000000
vn 0.000000 1.000000 0.000000
vn 0.000000 -1.000000 -0.000000
vn 0.000000 -1.000000 -0.000000
vn 0.000000 -1.000000 -0.000000
vn 0.000000 -1.000000 -0.000000
vn 0.000000 1.000000 -0.000000
vn 0.000000 1.000000 -0.000000
vn 0.000000 1.000000 -0.000000
vn 0.000000 1.000000 -0.000000
vn 0.000000 -1.000000 -0.000000
vn 0.000000 -1.000000 -0.000000
vn 0.000000 -1.000000 -0.000000
vn 0.000000 -1.000000 -0.000000
vn 0.000000 1.000000 -0.000000
vn 0.000000 1.000000 -0.000000
vn 0.000000 1.000000 -0.000000
vn 0.000000 1.000000 -0.000000
vn 0.000000 -1.000000 0.000000
vn 0.000000 -1.000000 0.000000
vn 0.000000 -1.000000 0.000000
vn 0.000000 -1.000000 0.000000
vn 0.000000 1.000000 -0.000000
vn 0.000000 1.000000 -0.000000
vn 0.000000 1.000000 -0.000000
vn 0.000000 1.000000 -0.000000
vn 0.000000 -1.000000 -0.000000
vn 0.000000 -1.000000 -0.000000
vn 0.000000 -1.000000 -0.000000
vn 0.000000 -1.000000 -0.000000
vn 0.000000 1.000000 0.000000
vn 0.000000 1.000000 0.000000
vn 0.000000 1.000000 0.000000
vn 0.000000 1.000000 0.000000
vn 0.000000 -1.000000 -0.000000
vn 0.000000 -1.000000 -0.000000
vn 0.000000 -1.000000 -0.000000
vn 0.000000 -1.000000 -0.000000
vn 0.000000 1.000000 -0.000000
vn 0.000000 1.000000 -0.000000
vn 0.000000 1.000000 -0.000000
vn 0.000000 1.000000 -0.000000
vn 0.000000 -1.000000 -0.000000
vn 0.000000 -1.000000 -0.000000
vn 0.000000 -1.000000 -0.000000
vn 0.000000 -1.000000 -0.000000
vn 0.122149 0.984967 0.122149
vn 0.122149 0.984967 0.122149
vn 0.122149 0.984967 0.122149
vn 0.122149 0.984967 0.122149
vn -0.002771 -0.999992 -0.002771
vn -0.002771 -0.999992 -0.002771
vn -0.002771 -0.999992 -0.002771
vn -0.002771 -0.999992 -0.002771
vn -0.216335 0.974597 -0.057967
vn -0.216335 0.974597 -0.057967
vn -0.216335 0.974597 -0.057967
vn -0.216335 0.974597 -0.057967
vn 0.000867 -0.999800 0.020003
vn 0.000867 -0.999800 0.020003
vn 0.000867 -0.999800 0.020003
vn 0.000867 -0.999800 0.020003
vn 0.052491 0.998522 -0.014065
vn 0.052491 0.998522 -0.014065
vn 0.052491 0.998522 -0.014065
vn 0.052491 0.998522 -0.014065
vn 0.002918 -0.999815 0.018989
vn 0.002918 -0.999815 0.018989
vn 0.002918 -0.999815 0.018989
vn 0.002918 -0.999815 0.018989
vn 0.000000 1.000000 0.000000
vn 0.000000 1.000000 0.000000
vn 0.000000 1.000000 0.000000
vn 0.000000 1.000000 0.000000
vn 0.000000 -1.000000 0.000000
vn 0.000000 -1.000000 0.000000
vn 0.000000 -1.000000 0.000000
vn 0.000000 -1.000000 0.000000
s off
g polySurface39 polySurface400
usemtl blinn16SG
f 54/137/205 53/138/206 65/139/207 66/140/208
f 55/143/209 54/137/210 66/140/211 67/144/212
f 56/295/213 55/296/214 67/297/215 68/298/216
f 57/299/217 56/295/218 68/298/219 69/300/220
f 58/148/221 57/151/222 69/152/223 70/149/224
f 59/147/225 58/148/226 70/149/227 71/150/228
f 60/153/229 59/147/230 71/150/231 72/154/232
f 61/155/233 60/153/234 72/154/235 73/156/236
f 62/301/237 61/302/238 73/303/239 74/304/240
f 63/305/241 62/301/242 74/304/243 75/306/244
f 64/141/245 63/145/246 75/146/247 76/142/248
f 53/138/249 64/141/250 76/142/251 65/139/252
f 66/200/253 65/201/254 107/202/255 108/203/256
f 67/208/257 66/200/258 108/203/259 109/209/260
f 68/214/261 67/208/262 109/209/263 110/215/264
f 69/220/265 68/214/266 110/215/267 111/221/268
f 70/226/269 69/220/270 111/221/271 112/227/272
f 71/232/273 70/226/274 112/227/275 101/233/276
f 72/228/277 71/232/278 101/233/279 102/229/280
f 73/222/281 72/228/282 102/229/283 103/223/284
f 74/216/285 73/222/286 103/223/287 104/217/288
f 75/210/289 74/216/290 104/217/291 105/211/292
f 76/204/293 75/210/294 105/211/295 106/205/296
f 65/201/297 76/204/298 106/205/299 107/202/300
f 78/157/301 77/158/302 120/159/303 121/160/304
f 79/163/305 78/157/306 121/160/307 122/164/308
f 80/307/309 79/308/310 122/309/311 123/310/312
f 81/311/313 80/307/314 123/310/315 124/312/316
f 82/168/317 81/173/318 124/174/319 113/169/320
f 83/167/321 82/168/322 113/169/323 114/170/324
f 84/175/325 83/167/326 114/170/327 115/176/328
f 85/178/329 84/175/330 115/176/331 116/179/332
f 86/313/333 85/314/334 116/315/335 117/316/336
f 87/317/337 86/313/338 117/316/339 118/318/340
f 88/161/341 87/165/342 118/166/343 119/162/344
f 77/158/345 88/161/346 119/162/347 120/159/348
f 90/235/349 89/236/350 53/237/351 54/238/352
f 91/243/353 90/235/354 54/238/355 55/244/356
f 92/249/357 91/243/358 55/244/359 56/250/360
f 93/255/361 92/249/362 56/250/363 57/256/364
f 94/261/365 93/255/366 57/256/367 58/262/368
f 95/267/369 94/261/370 58/262/371 59/268/372
f 96/265/373 95/267/374 59/268/375 60/266/376
f 97/259/377 96/265/378 60/266/379 61/260/380
f 98/253/381 97/259/382 61/260/383 62/254/384
f 99/247/385 98/253/386 62/254/387 63/248/388
f 100/241/389 99/247/390 63/248/391 64/242/392
f 89/236/393 100/241/394 64/242/395 53/237/396
f 102/177/397 101/171/398 83/167/399 84/175/400
f 103/223/401 102/229/402 84/234/403 85/230/404
f 104/217/405 103/223/406 85/230/407 86/224/408
f 105/211/409 104/217/410 86/224/411 87/218/412
f 106/205/413 105/211/414 87/218/415 88/212/416
f 107/202/417 106/205/418 88/212/419 77/206/420
f 108/203/421 107/202/422 77/206/423 78/207/424
f 109/209/425 108/203/426 78/207/427 79/213/428
f 110/215/429 109/209/430 79/213/431 80/219/432
f 111/221/433 110/215/434 80/219/435 81/225/436
f 112/227/437 111/221/438 81/225/439 82/231/440
f 101/171/441 112/172/442 82/168/443 83/167/444
f 126/180/445 125/181/446 127/182/447 128/183/448
f 129/186/449 126/180/450 128/183/451 130/187/452
f 131/188/453 129/186/454 130/187/455 132/189/456
f 133/319/457 131/320/458 132/321/459 134/322/460
f 135/323/461 133/319/462 134/322/463 136/324/464
f 137/191/465 135/194/466 136/195/467 138/192/468
f 139/190/469 137/191/470 138/192/471 140/193/472
f 141/196/473 139/190/474 140/193/475 142/197/476
f 143/198/477 141/196/478 142/197/479 144/199/480
f 145/325/481 143/326/482 144/327/483 146/328/484
f 147/329/485 145/325/486 146/328/487 148/330/488
f 125/181/489 147/184/490 148/185/491 127/182/492
f 114/271/493 113/272/494 125/273/495 126/274/496
f 94/261/497 95/267/498 128/269/499 127/263/500
f 115/277/501 114/271/502 126/274/503 129/278/504
f 95/267/505 96/265/506 130/270/507 128/269/508
f 116/281/509 115/277/510 129/278/511 131/282/512
f 96/265/513 97/259/514 132/264/515 130/270/516
f 117/285/517 116/281/518 131/282/519 133/286/520
f 97/259/521 98/253/522 134/258/523 132/264/524
f 118/289/525 117/285/526 133/286/527 135/290/528
f 98/253/529 99/247/530 136/252/531 134/258/532
f 119/293/533 118/289/534 135/290/535 137/294/536
f 99/247/537 100/241/538 138/246/539 136/252/540
f 120/291/541 119/293/542 137/294/543 139/292/544
f 100/241/545 89/236/546 140/240/547 138/246/548
f 121/287/549 120/291/550 139/292/551 141/288/552
f 89/236/553 90/235/554 142/239/555 140/240/556
f 122/283/557 121/287/558 141/288/559 143/284/560
f 90/235/561 91/243/562 144/245/563 142/239/564
f 123/279/565 122/283/566 143/284/567 145/280/568
f 91/243/569 92/249/570 146/251/571 144/245/572
f 124/275/573 123/279/574 145/280/575 147/276/576
f 92/249/577 93/255/578 148/257/579 146/251/580
f 113/272/581 124/275/582 147/276/583 125/273/584
f 93/255/585 94/261/586 127/263/587 148/257/588
