# This file uses centimeters as units for non-parametric coordinates.

mtllib Rock_02.mtl
g default
v -4.542001 -0.005188 4.279055
v -1.687932 -0.005188 5.469017
v -4.849933 2.663909 4.350044
v -1.789201 2.369144 4.747888
v -4.485744 2.693772 2.102337
v -1.687932 3.156814 1.761943
v -4.348115 -0.005188 2.105054
v -1.636488 -0.005188 2.170721
v -3.268933 -0.005188 5.350304
v -3.268933 2.444332 4.923944
v -3.268933 2.793490 1.830732
v -3.268933 -0.005188 1.430770
v -4.453184 1.575813 4.491235
v -4.568060 1.575813 1.687211
v -3.268933 1.575813 1.426713
v -1.687932 1.575813 1.761943
v -1.687932 1.575813 5.773293
v -3.268933 1.575813 5.152328
v -4.849933 2.847115 3.342943
v -5.217924 1.575813 3.342943
v -4.849933 -0.005188 3.342943
v -3.268933 -0.005188 3.342943
v -1.341321 -0.005188 3.342943
v -1.182569 1.575813 3.342943
v -1.409700 3.156814 3.342943
v -3.268933 3.156814 3.342943
vt 0.661814 0.826524
vt 0.661814 0.600472
vt 0.829911 0.600472
vt 0.829911 0.858875
vt 0.661814 0.475838
vt 0.829911 0.432375
vt 0.998008 0.600472
vt 0.914261 0.749851
vt 0.998008 0.432375
vt 0.352412 0.648664
vt 0.352412 0.549133
vt 0.520509 0.526574
vt 0.520509 0.648664
vt 0.352412 0.435235
vt 0.520509 0.456284
vt 0.636199 0.541586
vt 0.655678 0.648664
vt 0.352412 0.780280
vt 0.520509 0.824707
vt 0.639374 0.780569
vt 0.382233 0.153208
vt 0.550330 0.092189
vt 0.550330 0.260286
vt 0.382233 0.260286
vt 0.707660 0.110908
vt 0.748010 0.260286
vt 0.550330 0.421069
vt 0.420954 0.392191
vt 0.550330 0.067906
vt 0.718427 0.001883
vt 0.718427 0.428383
vt 0.001992 0.205192
vt 0.170089 0.205192
vt 0.170089 0.418621
vt 0.034732 0.304722
vt 0.055347 0.073575
vt 0.170089 0.001883
vt 0.375039 0.205192
vt 0.338187 0.431243
vt 0.343656 0.080557
vt 0.034582 0.603332
vt 0.172710 0.603332
vt 0.172710 0.771429
vt 0.057968 0.771429
vt 0.043334 0.484466
vt 0.172710 0.473864
vt 0.340807 0.603332
vt 0.346277 0.771429
vt 0.340807 0.435234
vt 0.001992 0.943517
vt 0.001992 0.775420
vt 0.170089 0.775420
vt 0.170089 0.943517
vt 0.177593 0.901334
vt 0.177593 0.775420
vt 0.269937 0.775420
vt 0.293283 0.943517
vn -0.576142 0.012512 0.817254
vn -0.576142 0.012512 0.817254
vn -0.576141 0.012512 0.817254
vn -0.576141 0.012512 0.817254
vn -0.085974 0.941509 0.325836
vn -0.085974 0.941509 0.325836
vn -0.085974 0.941509 0.325836
vn -0.085974 0.941509 0.325836
vn -0.361776 -0.147978 -0.920446
vn -0.361776 -0.147978 -0.920446
vn -0.361776 -0.147978 -0.920446
vn -0.361776 -0.147978 -0.920446
vn 0.000000 -1.000000 0.000000
vn 0.000000 -1.000000 0.000000
vn 0.000000 -1.000000 0.000000
vn 0.000000 -1.000000 0.000000
vn 0.980763 -0.066887 0.183386
vn 0.980763 -0.066887 0.183386
vn 0.980763 -0.066887 0.183386
vn 0.980763 -0.066887 0.183386
vn -0.883912 -0.108564 0.454877
vn -0.883912 -0.108564 0.454877
vn -0.883912 -0.108564 0.454877
vn -0.883912 -0.108564 0.454877
vn -0.227656 -0.032716 0.973192
vn -0.227656 -0.032716 0.973192
vn -0.227656 -0.032716 0.973192
vn -0.227656 -0.032716 0.973192
vn 0.043935 0.890452 0.452951
vn 0.043935 0.890452 0.452951
vn 0.043935 0.890452 0.452951
vn 0.043935 0.890452 0.452951
vn 0.315088 -0.117826 -0.941720
vn 0.315088 -0.117826 -0.941720
vn 0.315088 -0.117826 -0.941720
vn 0.315088 -0.117826 -0.941720
vn 0.000000 -1.000000 0.000000
vn 0.000000 -1.000000 0.000000
vn 0.000000 -1.000000 0.000000
vn 0.000000 -1.000000 0.000000
vn -0.942174 0.008564 0.335014
vn -0.942174 0.008564 0.335014
vn -0.942174 0.008564 0.335014
vn -0.942174 0.008564 0.335014
vn -0.207818 0.330241 -0.920735
vn -0.207818 0.330241 -0.920735
vn -0.207818 0.330241 -0.920735
vn -0.207818 0.330241 -0.920735
vn 0.066831 0.142560 -0.987527
vn 0.066831 0.142560 -0.987527
vn 0.066831 0.142560 -0.987527
vn 0.066831 0.142560 -0.987527
vn 0.932899 0.243591 0.265262
vn 0.932898 0.243591 0.265262
vn 0.932898 0.243591 0.265262
vn 0.932898 0.243591 0.265262
vn -0.101251 0.595239 0.797144
vn -0.101251 0.595239 0.797144
vn -0.101251 0.595239 0.797144
vn -0.101251 0.595239 0.797144
vn -0.400051 0.091134 0.911951
vn -0.400051 0.091134 0.911951
vn -0.400051 0.091134 0.911951
vn -0.400051 0.091134 0.911951
vn -0.914627 0.230135 -0.332409
vn -0.914627 0.230135 -0.332409
vn -0.914627 0.230135 -0.332409
vn -0.914627 0.230135 -0.332409
vn -0.907104 -0.216374 -0.361034
vn -0.907104 -0.216374 -0.361034
vn -0.907104 -0.216374 -0.361034
vn -0.907104 -0.216374 -0.361034
vn 0.000000 -1.000000 0.000000
vn 0.000000 -1.000000 0.000000
vn 0.000000 -1.000000 0.000000
vn 0.000000 -1.000000 0.000000
vn 0.000000 -1.000000 0.000000
vn 0.000000 -1.000000 0.000000
vn 0.000000 -1.000000 0.000000
vn 0.000000 -1.000000 0.000000
vn 0.957977 -0.068520 -0.278542
vn 0.957977 -0.068520 -0.278542
vn 0.957977 -0.068520 -0.278542
vn 0.957977 -0.068520 -0.278542
vn 0.968288 0.069554 -0.239958
vn 0.968288 0.069554 -0.239958
vn 0.968288 0.069554 -0.239958
vn 0.968288 0.069554 -0.239958
vn -0.106535 0.988585 -0.106535
vn -0.106535 0.988585 -0.106535
vn -0.106535 0.988585 -0.106535
vn -0.106535 0.988585 -0.106535
vn -0.161017 0.965934 -0.202595
vn -0.161017 0.965934 -0.202595
vn -0.161017 0.965934 -0.202595
vn -0.161017 0.965934 -0.202595
s off
g pCube2
usemtl initialShadingGroup
f 1/11/1 9/14/2 18/15/3 13/12/4
f 3/21/5 10/22/6 26/23/7 19/24/8
f 14/41/9 15/42/10 12/43/11 7/44/12
f 21/32/13 22/33/14 9/34/15 1/35/16
f 2/1/17 23/2/18 24/3/19 17/4/20
f 21/10/21 1/11/22 13/12/23 20/13/24
f 9/50/25 2/51/26 17/52/27 18/53/28
f 26/23/29 10/22/30 4/25/31 25/26/32
f 12/43/33 15/42/34 16/47/35 8/48/36
f 9/34/37 22/33/38 23/38/39 2/39/40
f 20/13/41 13/12/42 3/16/43 19/17/44
f 5/45/45 11/46/46 15/42/47 14/41/48
f 16/47/49 15/42/50 11/46/51 6/49/52
f 17/4/53 24/3/54 25/7/55 4/8/56
f 18/29/57 17/30/58 4/25/59 10/22/60
f 13/54/61 18/55/62 10/56/63 3/57/64
f 14/19/65 20/13/66 19/17/67 5/20/68
f 7/18/69 21/10/70 20/13/71 14/19/72
f 7/36/73 12/37/74 22/33/75 21/32/76
f 23/38/77 22/33/78 12/37/79 8/40/80
f 24/3/81 23/2/82 8/5/83 16/6/84
f 25/7/85 24/3/86 16/6/87 6/9/88
f 11/27/89 26/23/90 25/26/91 6/31/92
f 19/24/93 26/23/94 11/27/95 5/28/96
