# This file uses centimeters as units for non-parametric coordinates.

mtllib NE-03.mtl
g default
v 7.485471 4.720306 -20.499022
v 7.273861 4.720306 -20.499022
v 7.485471 5.720306 -20.499022
v 7.273861 5.720306 -20.499022
v 7.485471 5.720306 -20.684607
v 7.273861 5.720306 -20.684607
v 7.485471 4.720306 -20.684607
v 7.273861 4.720306 -20.684607
v 9.639198 2.591609 -19.484350
v 9.460606 2.701793 -19.511599
v 11.511291 5.650901 -20.191515
v 11.332697 5.761086 -20.218765
v 11.511291 5.606347 -20.371675
v 11.332697 5.716532 -20.398924
v 9.639198 2.547054 -19.664509
v 9.460606 2.657239 -19.691759
v 9.504873 2.592547 -19.749193
v 9.503866 2.797966 -19.799994
v 12.960093 2.590544 -20.146214
v 12.959085 2.795962 -20.197014
v 12.933897 2.546314 -20.324539
v 12.932890 2.751733 -20.375340
v 9.478679 2.548318 -19.927519
v 9.477671 2.753736 -19.978319
v 11.706517 2.582185 -19.432606
v 11.494908 2.582185 -19.432606
v 11.706517 5.970313 -20.270508
v 11.494908 5.970313 -20.270508
v 11.706517 5.925759 -20.450668
v 11.494908 5.925759 -20.450668
v 11.706517 2.537631 -19.612766
v 11.494908 2.537631 -19.612766
v 15.743281 2.555193 -20.499022
v 15.531672 2.555193 -20.499022
v 15.743281 4.045392 -20.499022
v 15.531672 4.045392 -20.499022
v 15.743281 4.045392 -20.684607
v 15.531672 4.045392 -20.684607
v 15.743281 2.555193 -20.684607
v 15.531672 2.555193 -20.684607
vt 0.164033 0.519682
vt 0.164033 0.667247
vt 0.136647 0.667247
vt 0.136647 0.519682
vt 0.130512 0.519682
vt 0.130512 0.667247
vt 0.103126 0.667247
vt 0.103126 0.519682
vt 0.926348 0.024791
vt 0.821995 0.476234
vt 0.795411 0.469659
vt 0.899763 0.018216
vt 0.903784 0.001957
vt 0.930369 0.008531
vt 0.679722 0.001957
vt 0.784075 0.453400
vt 0.757490 0.459975
vt 0.653137 0.008531
vt 0.788096 0.469659
vt 0.761511 0.476234
vt 0.063179 0.526209
vt 0.089494 0.519682
vt 0.096990 0.549994
vt 0.070676 0.556521
vt 0.030729 0.519682
vt 0.057044 0.526208
vt 0.049547 0.556521
vt 0.023233 0.549994
vt 0.409679 0.008531
vt 0.286034 0.508499
vt 0.259449 0.501925
vt 0.383094 0.001957
vt 0.443899 0.001957
vt 0.567544 0.501925
vt 0.540959 0.508499
vt 0.417314 0.008531
vt 0.305798 0.512490
vt 0.305798 0.732391
vt 0.278412 0.732391
vt 0.278412 0.512490
vt 0.272277 0.515965
vt 0.272277 0.735866
vt 0.244891 0.735866
vt 0.244891 0.515965
vt 0.001992 0.560512
vt 0.029378 0.560512
vt 0.029378 0.591739
vt 0.001992 0.591739
vt 0.037268 0.560512
vt 0.064654 0.560512
vt 0.064654 0.591739
vt 0.037268 0.591739
vt 0.001992 0.511825
vt 0.060578 0.001956
vt 0.086893 0.005822
vt 0.028307 0.515690
vt 0.152374 0.515690
vt 0.093788 0.005822
vt 0.120102 0.001956
vt 0.178688 0.511825
vt 0.072349 0.671238
vt 0.098935 0.671238
vt 0.098935 0.702464
vt 0.072349 0.702464
vt 0.105481 0.671238
vt 0.132067 0.671238
vt 0.132067 0.702464
vt 0.105481 0.702464
vt 0.138614 0.671238
vt 0.166000 0.671238
vt 0.166000 0.702463
vt 0.138614 0.702463
vt 0.173695 0.671238
vt 0.201081 0.671238
vt 0.201081 0.702464
vt 0.173695 0.702464
vt 0.238756 0.515965
vt 0.238756 0.663530
vt 0.207529 0.663530
vt 0.207529 0.515965
vt 0.201394 0.519682
vt 0.201394 0.667247
vt 0.170168 0.667247
vt 0.170168 0.519682
vt 0.721753 0.480225
vt 0.998008 0.931669
vt 0.971654 0.947928
vt 0.695399 0.496485
vt 0.689264 0.528750
vt 0.413010 0.980193
vt 0.386656 0.963934
vt 0.662910 0.512490
vt 0.185684 0.511825
vt 0.185388 0.001957
vt 0.215701 0.002105
vt 0.215997 0.511973
vt 0.253027 0.001956
vt 0.252731 0.511825
vt 0.222419 0.511974
vt 0.222714 0.002105
vt 0.606405 0.001957
vt 0.606405 0.501924
vt 0.575179 0.501924
vt 0.575179 0.001957
vt 0.645384 0.001956
vt 0.645384 0.501924
vt 0.614158 0.501924
vt 0.614158 0.001956
vt 0.380520 0.512490
vt 0.380520 0.732391
vt 0.349295 0.732391
vt 0.349295 0.512490
vt 0.343159 0.512490
vt 0.343159 0.732391
vt 0.311933 0.732391
vt 0.311933 0.512490
vn 0.000000 0.000000 1.000000
vn 0.000000 0.000000 1.000000
vn 0.000000 0.000000 1.000000
vn 0.000000 0.000000 1.000000
vn 0.000000 1.000000 0.000000
vn 0.000000 1.000000 0.000000
vn 0.000000 1.000000 0.000000
vn 0.000000 1.000000 0.000000
vn 0.000000 0.000000 -1.000000
vn 0.000000 0.000000 -1.000000
vn 0.000000 0.000000 -1.000000
vn 0.000000 0.000000 -1.000000
vn 0.000000 -1.000000 0.000000
vn 0.000000 -1.000000 0.000000
vn 0.000000 -1.000000 0.000000
vn 0.000000 -1.000000 0.000000
vn -1.000000 0.000000 0.000000
vn -1.000000 0.000000 0.000000
vn -1.000000 0.000000 0.000000
vn -1.000000 0.000000 0.000000
vn 1.000000 0.000000 0.000000
vn 1.000000 0.000000 0.000000
vn 1.000000 0.000000 0.000000
vn 1.000000 0.000000 0.000000
vn -0.007037 0.229298 0.973331
vn -0.007037 0.229298 0.973331
vn -0.007037 0.229298 0.973331
vn -0.007037 0.229298 0.973331
vn 0.536383 0.819292 -0.202617
vn 0.536383 0.819292 -0.202617
vn 0.536383 0.819292 -0.202617
vn 0.536383 0.819292 -0.202617
vn 0.007037 -0.229297 -0.973331
vn 0.007037 -0.229298 -0.973331
vn 0.007037 -0.229298 -0.973331
vn 0.007037 -0.229298 -0.973331
vn -0.536385 -0.819292 0.202614
vn -0.536385 -0.819292 0.202614
vn -0.536385 -0.819292 0.202614
vn -0.536385 -0.819292 0.202614
vn -0.858900 0.497165 -0.122951
vn -0.858900 0.497165 -0.122951
vn -0.858900 0.497165 -0.122951
vn -0.858900 0.497165 -0.122951
vn 0.858899 -0.497168 0.122953
vn 0.858899 -0.497168 0.122953
vn 0.858899 -0.497168 0.122953
vn 0.858899 -0.497168 0.122953
vn 0.110979 0.239099 0.964632
vn 0.110979 0.239099 0.964632
vn 0.110979 0.239099 0.964632
vn 0.110979 0.239099 0.964632
vn 0.989977 -0.029307 -0.138152
vn 0.989977 -0.029308 -0.138152
vn 0.989977 -0.029307 -0.138152
vn 0.989977 -0.029307 -0.138152
vn -0.110979 -0.239098 -0.964632
vn -0.110979 -0.239098 -0.964632
vn -0.110979 -0.239098 -0.964632
vn -0.110979 -0.239098 -0.964632
vn -0.989977 0.029310 0.138150
vn -0.989977 0.029310 0.138150
vn -0.989978 0.029310 0.138150
vn -0.989978 0.029310 0.138150
vn -0.026664 0.971155 -0.236955
vn -0.026664 0.971155 -0.236955
vn -0.026664 0.971155 -0.236955
vn -0.026664 0.971155 -0.236955
vn 0.026664 -0.971155 0.236954
vn 0.026664 -0.971155 0.236954
vn 0.026664 -0.971155 0.236954
vn 0.026664 -0.971155 0.236954
vn 0.000000 0.240074 0.970755
vn 0.000000 0.240074 0.970755
vn 0.000000 0.240074 0.970755
vn 0.000000 0.240074 0.970755
vn 0.000000 0.970755 -0.240072
vn 0.000000 0.970755 -0.240072
vn 0.000000 0.970755 -0.240072
vn 0.000000 0.970755 -0.240072
vn 0.000000 -0.240074 -0.970755
vn 0.000000 -0.240074 -0.970755
vn 0.000000 -0.240074 -0.970755
vn 0.000000 -0.240074 -0.970755
vn 0.000000 -0.970755 0.240072
vn 0.000000 -0.970755 0.240072
vn 0.000000 -0.970755 0.240072
vn 0.000000 -0.970755 0.240072
vn -1.000000 0.000000 0.000000
vn -1.000000 0.000000 0.000000
vn -1.000000 0.000000 0.000000
vn -1.000000 0.000000 0.000000
vn 1.000000 0.000000 0.000000
vn 1.000000 0.000000 0.000000
vn 1.000000 0.000000 0.000000
vn 1.000000 0.000000 0.000000
vn 0.000000 0.000000 1.000000
vn 0.000000 0.000000 1.000000
vn 0.000000 0.000000 1.000000
vn 0.000000 0.000000 1.000000
vn 0.000000 1.000000 0.000000
vn 0.000000 1.000000 0.000000
vn 0.000000 1.000000 0.000000
vn 0.000000 1.000000 0.000000
vn 0.000000 0.000000 -1.000000
vn 0.000000 0.000000 -1.000000
vn 0.000000 0.000000 -1.000000
vn 0.000000 0.000000 -1.000000
vn 0.000000 -1.000000 0.000000
vn 0.000000 -1.000000 0.000000
vn 0.000000 -1.000000 0.000000
vn 0.000000 -1.000000 0.000000
vn -1.000000 0.000000 0.000000
vn -1.000000 0.000000 0.000000
vn -1.000000 0.000000 0.000000
vn -1.000000 0.000000 0.000000
vn 1.000000 0.000000 0.000000
vn 1.000000 0.000000 0.000000
vn 1.000000 0.000000 0.000000
vn 1.000000 0.000000 0.000000
s off
g polySurface69
usemtl lambert10SG
f 1/77/1 3/78/2 4/79/3 2/80/4
f 3/45/5 5/46/6 6/47/7 4/48/8
f 5/81/9 7/82/10 8/83/11 6/84/12
f 7/49/13 1/50/14 2/51/15 8/52/16
f 2/1/17 4/2/18 6/3/19 8/4/20
f 7/5/21 5/6/22 3/7/23 1/8/24
f 9/85/25 11/86/26 12/87/27 10/88/28
f 11/17/29 13/16/30 14/19/31 12/20/32
f 13/89/33 15/90/34 16/91/35 14/92/36
f 15/13/37 9/14/38 10/9/39 16/12/40
f 10/9/41 12/10/42 14/11/43 16/12/44
f 15/15/45 13/16/46 11/17/47 9/18/48
f 17/93/49 19/94/50 20/95/51 18/96/52
f 19/21/53 21/22/54 22/23/55 20/24/56
f 21/97/57 23/98/58 24/99/59 22/100/60
f 23/25/61 17/26/62 18/27/63 24/28/64
f 18/53/65 20/54/66 22/55/67 24/56/68
f 23/57/69 21/58/70 19/59/71 17/60/72
f 25/101/73 27/102/74 28/103/75 26/104/76
f 27/61/77 29/62/78 30/63/79 28/64/80
f 29/105/81 31/106/82 32/107/83 30/108/84
f 31/65/85 25/66/86 26/67/87 32/68/88
f 26/29/89 28/30/90 30/31/91 32/32/92
f 31/33/93 29/34/94 27/35/95 25/36/96
f 33/109/97 35/110/98 36/111/99 34/112/100
f 35/69/101 37/70/102 38/71/103 36/72/104
f 37/113/105 39/114/106 40/115/107 38/116/108
f 39/73/109 33/74/110 34/75/111 40/76/112
f 34/37/113 36/38/114 38/39/115 40/40/116
f 39/41/117 37/42/118 35/43/119 33/44/120
g default
v 7.161116 2.562562 -20.379498
v 15.831930 5.639684 -20.379498
v 15.831930 5.639684 -20.810820
v 7.161116 2.562562 -20.810820
v 7.547122 2.562562 -20.810820
v 7.547122 2.562562 -20.379498
v 15.453845 5.639684 -20.379498
v 15.453845 5.639684 -20.810820
v 7.161116 5.639684 -25.698977
v 7.547122 5.639684 -25.698977
v 7.547122 2.562562 -25.698977
v 7.161116 2.562562 -25.698977
v 15.453845 5.639684 -25.698977
v 15.453845 2.562562 -25.698977
v 15.831930 5.639684 -25.698977
v 15.831930 2.562562 -25.698977
v 15.831930 5.639684 -25.213009
v 15.453845 5.639684 -25.213009
v 15.453845 2.562562 -25.213009
v 15.831930 2.562562 -25.213009
v 7.547122 5.639684 -25.213009
v 7.161116 5.639684 -25.213009
v 7.161116 2.562562 -25.213009
v 7.547122 2.562562 -25.213009
v 7.547122 5.024260 -20.379498
v 8.337794 5.639684 -20.379498
v 8.337794 5.639684 -20.810820
v 7.547122 5.331972 -20.810820
v 7.547122 5.639684 -21.747883
v 7.161116 5.639684 -21.747883
v 7.161116 5.024260 -20.379498
v 7.161116 5.331972 -20.810820
v 7.547122 5.485829 -21.279350
v 7.161116 5.485829 -21.279350
v 7.161116 5.408900 -21.045086
v 7.547122 5.408900 -21.045086
v 15.831930 4.276383 -20.379498
v 15.453845 3.796907 -20.379498
v 14.421764 2.562562 -20.379498
v 14.351086 2.562562 -20.810820
v 15.453845 2.856138 -20.810820
v 15.453845 2.562562 -21.639797
v 15.831930 2.562562 -21.702343
v 15.831930 3.410389 -20.810820
v 10.370658 5.639684 -20.379498
v 10.370658 5.639684 -20.810820
v 12.278319 5.639684 -20.379498
v 12.278319 5.639684 -20.810820
v 12.278319 5.024260 -20.379498
v 12.278319 2.562562 -20.379498
v 10.370658 5.024260 -20.379498
v 10.370658 2.562562 -20.379498
v 10.370658 2.562562 -20.810820
v 10.370658 5.024260 -20.810820
v 12.278319 5.024260 -20.810820
v 12.278319 2.562562 -20.810820
v 14.920613 2.562562 -20.590652
v 14.543995 2.562562 -20.368858
v 15.319185 2.856138 -19.562439
v 15.319185 2.562562 -19.562439
v 14.917021 2.562562 -19.406546
v 14.917021 3.796907 -19.406546
v 15.253154 2.924604 -19.945236
v 15.121571 3.132139 -20.232574
v 16.829592 2.998961 -20.613441
v 16.256968 3.185694 -20.713835
v 15.954929 2.601342 -20.500090
v 15.175066 2.564557 -20.169529
v 15.043484 2.772093 -20.456867
v 15.043483 2.772092 -20.456867
v 16.105949 2.893518 -20.606962
v 8.016697 2.549934 -19.877209
v 7.948498 2.924559 -19.674612
v 8.764592 2.547353 -19.620674
v 8.191068 2.854939 -20.382494
v 8.035684 3.077060 -19.927254
v 8.696393 2.921976 -19.418077
v 6.970585 3.007412 -19.547472
v 6.924585 2.741513 -19.695351
v 7.781288 3.120802 -20.003527
v 7.966072 2.932228 -19.721931
v 7.155369 2.818838 -19.265877
v 7.109369 2.552938 -19.413757
v 7.045453 2.544605 -20.009754
v 7.660652 2.547497 -19.993359
v 7.361945 2.763989 -20.373661
v 7.054346 2.762545 -20.381859
v 7.038692 2.877707 -19.814821
v 7.653891 2.880597 -19.798426
v 7.047585 3.095645 -20.186926
v 7.507918 2.822294 -20.086044
v 15.887045 2.503886 -20.623547
v 15.831146 2.877815 -20.623547
v 16.725554 2.629234 -20.623547
v 15.887045 2.503886 -21.515074
v 15.831146 2.877815 -21.452524
v 16.121496 2.921219 -20.623547
vt 0.504359 0.480508
vt 0.504359 0.458017
vt 0.632726 0.458017
vt 0.648772 0.480508
vt 0.652784 0.492724
vt 0.656795 0.504940
vt 0.664818 0.529372
vt 0.664818 0.710065
vt 0.504359 0.710065
vt 0.664818 0.735406
vt 0.504359 0.735406
vt 0.331629 0.638709
vt 0.323606 0.663141
vt 0.319594 0.675357
vt 0.315583 0.687573
vt 0.171169 0.687573
vt 0.171169 0.458017
vt 0.331629 0.458017
vt 0.498224 0.483358
vt 0.337764 0.483358
vt 0.337764 0.458017
vt 0.498224 0.458017
vt 0.498224 0.712914
vt 0.381975 0.712914
vt 0.337764 0.666425
vt 0.427133 0.735406
vt 0.498224 0.735406
vt 0.353073 0.712914
vt 0.337764 0.669686
vt 0.402130 0.735406
vt 0.004574 0.501245
vt 0.019883 0.458017
vt 0.165034 0.458017
vt 0.165034 0.687573
vt 0.004574 0.687573
vt 0.053913 0.691565
vt 0.053913 0.819932
vt 0.031421 0.819932
vt 0.031421 0.691565
vt 0.060655 0.819932
vt 0.060655 0.691565
vt 0.083147 0.691565
vt 0.083147 0.819932
vt 0.429007 0.739398
vt 0.444316 0.793015
vt 0.429007 0.793015
vt 0.255059 0.755931
vt 0.204878 0.691565
vt 0.255059 0.691565
vt 0.959520 0.940333
vt 0.947823 0.921558
vt 0.962807 0.910736
vt 0.974503 0.929511
vt 0.898751 0.874312
vt 0.906703 0.887486
vt 0.895120 0.911225
vt 0.879215 0.884876
vt 0.892134 0.938915
vt 0.884423 0.925050
vt 0.899107 0.915216
vt 0.906818 0.929082
vt 0.912954 0.920901
vt 0.930323 0.910736
vt 0.941688 0.930140
vt 0.924318 0.940305
vt 0.994968 0.925381
vt 0.998008 0.940380
vt 0.980638 0.930215
vt 0.991927 0.910383
vt 0.723299 0.874312
vt 0.742798 0.874312
vt 0.742798 0.917540
vt 0.723299 0.920801
vt 0.592304 0.454025
vt 0.592304 0.433896
vt 0.614796 0.433896
vt 0.614796 0.454025
vt 0.362748 0.454025
vt 0.362748 0.433896
vt 0.592304 0.286660
vt 0.614796 0.286660
vt 0.337407 0.454025
vt 0.337407 0.433896
vt 0.337407 0.021593
vt 0.362748 0.021593
vt 0.362748 0.001877
vt 0.337407 0.001877
vt 0.545815 0.001877
vt 0.549077 0.021593
vt 0.644446 0.187184
vt 0.621954 0.187184
vt 0.621954 0.021593
vt 0.644446 0.021593
vt 0.644446 0.286660
vt 0.621954 0.286660
vt 0.621954 0.001877
vt 0.644446 0.001877
vt 0.644446 0.392666
vt 0.621954 0.392666
vt 0.874002 0.001877
vt 0.874002 0.021593
vt 0.621954 0.433896
vt 0.644446 0.433896
vt 0.899343 0.001877
vt 0.899343 0.021593
vt 0.621954 0.454025
vt 0.644446 0.454025
vt 0.899343 0.433896
vt 0.874002 0.433896
vt 0.656662 0.454025
vt 0.656662 0.433896
vt 0.874002 0.454025
vt 0.899343 0.454025
vt 0.668878 0.433896
vt 0.668878 0.454025
vt 0.693310 0.454025
vt 0.693310 0.433896
vt 0.024484 0.857156
vt 0.001992 0.857156
vt 0.001992 0.749069
vt 0.024484 0.745384
vt 0.024484 0.691565
vt 0.001992 0.691565
vt 0.112382 0.691565
vt 0.112382 0.791041
vt 0.089890 0.791041
vt 0.089890 0.691565
vt 0.345203 0.750963
vt 0.364842 0.739397
vt 0.385626 0.793015
vt 0.364654 0.801144
vt 0.492818 0.739397
vt 0.472034 0.793015
vt 0.452395 0.781449
vt 0.832441 0.900661
vt 0.841533 0.874312
vt 0.871440 0.914038
vt 0.582995 0.739397
vt 0.548542 0.765949
vt 0.543996 0.752775
vt 0.586552 0.749962
vt 0.556645 0.789688
vt 0.513854 0.791308
vt 0.499170 0.781672
vt 0.522951 0.739397
vt 0.537635 0.749033
vt 0.966325 0.881924
vt 0.971585 0.905928
vt 0.952182 0.906392
vt 0.951327 0.874312
vt 0.981323 0.889536
vt 0.981750 0.905576
vt 0.592719 0.786037
vt 0.592719 0.770897
vt 0.635947 0.786037
vt 0.592719 0.739397
vt 0.672626 0.874312
vt 0.716351 0.920801
vt 0.672626 0.920801
vt 0.001992 0.454025
vt 0.001992 0.433897
vt 0.130360 0.433897
vt 0.130360 0.454025
vt 0.162452 0.392666
vt 0.001992 0.286661
vt 0.130360 0.286661
vt 0.162452 0.286661
vt 0.130360 0.187184
vt 0.162452 0.187184
vt 0.001992 0.187184
vt 0.001992 0.075412
vt 0.066358 0.021593
vt 0.162452 0.021593
vt 0.091361 0.001877
vt 0.162452 0.001877
vt 0.169797 0.454025
vt 0.169797 0.433897
vt 0.330256 0.433897
vt 0.330256 0.454025
vt 0.330256 0.021593
vt 0.169797 0.021593
vt 0.169797 0.001877
vt 0.330256 0.001877
vt 0.837548 0.458017
vt 0.998008 0.458017
vt 0.998008 0.870320
vt 0.837548 0.870320
vt 0.831413 0.623608
vt 0.703045 0.623608
vt 0.670954 0.623608
vt 0.670954 0.458017
vt 0.816104 0.458017
vt 0.831413 0.515521
vt 0.703045 0.723084
vt 0.670954 0.723084
vt 0.831413 0.870320
vt 0.686999 0.870320
vt 0.670954 0.829090
vt 0.831413 0.723084
vt 0.317917 0.739398
vt 0.338888 0.739398
vt 0.338888 0.754706
vt 0.317917 0.803764
vt 0.121917 0.780631
vt 0.119124 0.721425
vt 0.134360 0.729300
vt 0.140692 0.784703
vt 0.128861 0.691565
vt 0.149596 0.737175
vt 0.151514 0.777842
vt 0.805290 0.913312
vt 0.805155 0.874312
vt 0.824690 0.877868
vt 0.824825 0.916868
vt 0.391977 0.749033
vt 0.411756 0.793707
vt 0.397890 0.791308
vt 0.401811 0.739397
vt 0.421589 0.784071
vt 0.791736 0.916587
vt 0.777870 0.918985
vt 0.797648 0.874312
vt 0.665154 0.770897
vt 0.662891 0.786037
vt 0.643392 0.783122
vt 0.649928 0.739398
vt 0.934555 0.874312
vt 0.944720 0.874664
vt 0.943865 0.906745
vt 0.933700 0.906392
vt 0.914724 0.889888
vt 0.914297 0.905928
vt 0.269527 0.706873
vt 0.311578 0.691565
vt 0.261398 0.755931
vt 0.757121 0.920801
vt 0.750585 0.874312
vt 0.770083 0.877574
vt 0.158103 0.773770
vt 0.169799 0.777842
vt 0.187036 0.737175
vt 0.192947 0.691565
vt 0.198182 0.721425
vt 0.173087 0.780631
vn 0.000000 0.000000 1.000000
vn 0.000000 0.000000 1.000000
vn 0.000000 0.000000 1.000000
vn 0.000000 0.000000 1.000000
vn 0.000000 0.000000 -1.000000
vn 0.000000 0.000000 -1.000000
vn 0.000000 0.000000 -1.000000
vn 0.000000 0.000000 -1.000000
vn 0.000000 -1.000000 0.000000
vn 0.000000 -1.000000 0.000000
vn 0.000000 -1.000000 0.000000
vn 0.000000 -1.000000 0.000000
vn -1.000000 0.000000 0.000000
vn -1.000000 0.000000 0.000000
vn -1.000000 0.000000 0.000000
vn -1.000000 0.000000 0.000000
vn 0.000000 1.000000 0.000000
vn 0.000000 1.000000 0.000000
vn 0.000000 1.000000 0.000000
vn 0.000000 1.000000 0.000000
vn 0.000000 1.000000 0.000000
vn 0.000000 1.000000 0.000000
vn 0.000000 1.000000 0.000000
vn 0.000000 1.000000 0.000000
vn 0.000000 0.000000 -1.000000
vn 0.000000 0.000000 -1.000000
vn 0.000000 0.000000 -1.000000
vn 0.000000 0.000000 -1.000000
vn 0.000000 1.000000 0.000000
vn 0.000000 1.000000 0.000000
vn 0.000000 1.000000 0.000000
vn 0.000000 1.000000 0.000000
vn 1.000000 -0.000000 0.000000
vn 1.000000 -0.000000 0.000000
vn 1.000000 -0.000000 0.000000
vn 1.000000 -0.000000 0.000000
vn 1.000000 -0.000000 0.000000
vn 1.000000 -0.000000 0.000000
vn 1.000000 -0.000000 0.000000
vn 0.000000 -1.000000 0.000000
vn 0.000000 -1.000000 0.000000
vn 0.000000 -1.000000 0.000000
vn 0.000000 -1.000000 0.000000
vn -1.000000 0.000000 0.000000
vn -1.000000 0.000000 0.000000
vn -1.000000 0.000000 0.000000
vn -1.000000 0.000000 0.000000
vn -1.000000 0.000000 0.000000
vn -1.000000 0.000000 0.000000
vn -1.000000 0.000000 0.000000
vn 0.000000 1.000000 0.000000
vn 0.000000 1.000000 0.000000
vn 0.000000 1.000000 0.000000
vn 0.000000 1.000000 0.000000
vn 0.000000 1.000000 0.000000
vn 0.000000 1.000000 0.000000
vn 0.000000 1.000000 0.000000
vn 0.000000 1.000000 0.000000
vn 0.000000 -1.000000 0.000000
vn 0.000000 -1.000000 0.000000
vn 0.000000 -1.000000 0.000000
vn 0.000000 -1.000000 0.000000
vn 1.000000 0.000000 0.000000
vn 1.000000 0.000000 0.000000
vn 1.000000 0.000000 0.000000
vn 1.000000 0.000000 0.000000
vn 0.000000 1.000000 0.000000
vn 0.000000 1.000000 0.000000
vn 0.000000 1.000000 0.000000
vn 0.000000 1.000000 0.000000
vn -1.000000 0.000000 0.000000
vn -1.000000 0.000000 0.000000
vn -1.000000 0.000000 0.000000
vn -1.000000 0.000000 0.000000
vn 0.000000 -1.000000 0.000000
vn 0.000000 -1.000000 0.000000
vn 0.000000 -1.000000 0.000000
vn 0.000000 -1.000000 0.000000
vn 0.000000 0.000000 1.000000
vn 0.000000 0.000000 1.000000
vn 0.000000 0.000000 1.000000
vn 0.000000 0.000000 1.000000
vn 0.000000 -1.000000 0.000000
vn 0.000000 -1.000000 0.000000
vn 0.000000 -1.000000 0.000000
vn 0.000000 -1.000000 0.000000
vn 0.000000 0.000000 -1.000000
vn 0.000000 0.000000 -1.000000
vn 0.000000 0.000000 -1.000000
vn 0.000000 0.000000 -1.000000
vn 0.000000 1.000000 0.000000
vn 0.000000 1.000000 0.000000
vn 0.000000 1.000000 0.000000
vn 0.000000 1.000000 0.000000
vn 0.000000 0.950087 0.311985
vn 0.000000 0.950087 0.311985
vn 0.000000 0.950087 0.311985
vn 0.000000 0.950087 0.311985
vn 0.000000 0.950084 0.311994
vn 0.000000 0.950084 0.311994
vn 0.000000 0.950084 0.311994
vn 0.000000 0.950084 0.311994
vn 0.000000 0.950086 0.311989
vn 0.000000 0.950086 0.311989
vn 0.000000 0.950086 0.311989
vn 0.000000 0.950086 0.311989
vn 0.000000 0.814068 0.580770
vn 0.000000 0.814068 0.580770
vn 0.000000 0.814068 0.580770
vn 0.000000 0.814068 0.580770
vn -0.481806 0.825341 0.294406
vn -0.481806 0.825341 0.294406
vn -0.481806 0.825341 0.294406
vn -0.481806 0.825341 0.294406
vn -0.000003 0.000000 1.000000
vn -0.000003 0.000000 1.000000
vn -0.000003 0.000000 1.000000
vn -0.000003 0.000000 1.000000
vn 0.000000 0.000000 1.000000
vn 0.000000 0.000000 1.000000
vn 0.000000 0.000000 1.000000
vn 0.000000 0.000000 1.000000
vn 0.000000 0.000000 1.000000
vn 0.000000 0.000000 1.000000
vn 0.000000 -1.000000 0.000000
vn 0.000000 -1.000000 0.000000
vn 0.000000 -1.000000 0.000000
vn 0.000000 -1.000000 0.000000
vn -0.000000 0.000000 -1.000000
vn -0.000000 0.000000 -1.000000
vn -0.000000 0.000000 -1.000000
vn -0.000000 0.000000 -1.000000
vn -0.000000 0.000000 -1.000000
vn -0.000000 0.000000 -1.000000
vn -1.000000 0.000000 0.000000
vn -1.000000 0.000000 0.000000
vn -1.000000 0.000000 0.000000
vn -1.000000 0.000000 0.000000
vn -1.000000 0.000000 0.000000
vn 0.000000 -1.000000 0.000000
vn 0.000000 -1.000000 0.000000
vn 0.000000 -1.000000 0.000000
vn 0.000000 -1.000000 0.000000
vn 1.000000 0.000000 0.000000
vn 1.000000 0.000000 0.000000
vn 1.000000 0.000000 0.000000
vn 1.000000 0.000000 0.000000
vn 1.000000 0.000000 0.000000
vn 1.000000 0.000000 0.000000
vn 1.000000 0.000000 0.000000
vn 1.000000 0.000000 0.000000
vn 1.000000 0.000000 0.000000
vn 0.548808 -0.696595 0.462131
vn 0.548809 -0.696595 0.462131
vn 0.548809 -0.696595 0.462131
vn 0.548809 -0.696595 0.462131
vn 0.445829 -0.622923 0.642809
vn 0.445829 -0.622923 0.642809
vn 0.445829 -0.622923 0.642809
vn 0.445829 -0.622923 0.642809
vn 0.507521 -0.371248 0.777559
vn 0.507521 -0.371248 0.777559
vn 0.507521 -0.371248 0.777559
vn 0.507521 -0.371248 0.777559
vn 0.000000 0.000000 1.000000
vn 0.000000 0.000000 1.000000
vn 0.000000 0.000000 1.000000
vn 0.000000 0.000000 1.000000
vn 0.000000 0.000000 1.000000
vn 0.000000 0.000000 1.000000
vn 0.000000 -1.000000 0.000000
vn 0.000000 -1.000000 0.000000
vn 0.000000 -1.000000 0.000000
vn 0.000000 -1.000000 0.000000
vn 0.000000 0.000000 -1.000000
vn 0.000000 0.000000 -1.000000
vn 0.000000 0.000000 -1.000000
vn 0.000000 0.000000 -1.000000
vn 0.000000 0.000000 -1.000000
vn 0.000000 0.000000 -1.000000
vn 0.000000 1.000000 0.000000
vn 0.000000 1.000000 0.000000
vn 0.000000 1.000000 0.000000
vn 0.000000 1.000000 0.000000
vn 0.000000 0.000000 -1.000000
vn 0.000000 0.000000 -1.000000
vn 0.000000 0.000000 -1.000000
vn 0.000000 0.000000 -1.000000
vn 0.000000 1.000000 0.000000
vn 0.000000 1.000000 0.000000
vn 0.000000 1.000000 0.000000
vn 0.000000 1.000000 0.000000
vn 0.000000 0.000000 1.000000
vn 0.000000 0.000000 1.000000
vn 0.000000 0.000000 1.000000
vn 0.000000 0.000000 1.000000
vn -1.000000 0.000000 0.000000
vn -1.000000 0.000000 0.000000
vn -1.000000 0.000000 0.000000
vn -1.000000 0.000000 0.000000
vn 0.000000 -1.000000 0.000000
vn 0.000000 -1.000000 0.000000
vn 0.000000 -1.000000 0.000000
vn 0.000000 -1.000000 0.000000
vn 1.000000 0.000000 0.000000
vn 1.000000 0.000000 0.000000
vn 1.000000 0.000000 0.000000
vn 1.000000 0.000000 0.000000
vn 0.932399 0.000000 -0.361431
vn 0.932399 0.000000 -0.361431
vn 0.932399 0.000000 -0.361431
vn 0.000000 -1.000000 0.000000
vn 0.000000 -1.000000 0.000000
vn 0.000000 -1.000000 0.000000
vn 0.000000 -1.000000 0.000000
vn -0.932400 0.000000 0.361430
vn -0.932399 0.000000 0.361430
vn -0.932399 0.000000 0.361430
vn -0.132169 0.965485 -0.224432
vn -0.132169 0.965485 -0.224432
vn -0.132169 0.965485 -0.224432
vn 0.597325 0.372997 -0.709983
vn 0.597325 0.372997 -0.709983
vn 0.597325 0.372997 -0.709983
vn 0.361432 0.000000 0.932398
vn 0.361432 0.000000 0.932398
vn 0.361432 0.000000 0.932398
vn 0.361432 0.000000 0.932398
vn 0.348025 -0.548914 0.759981
vn 0.348025 -0.548914 0.759981
vn 0.348025 -0.548914 0.759981
vn 0.348025 -0.548914 0.759981
vn -0.919839 -0.043386 0.389890
vn -0.919839 -0.043386 0.389890
vn -0.919839 -0.043387 0.389890
vn -0.919839 -0.043386 0.389890
vn 0.181043 0.834753 0.520010
vn 0.181043 0.834753 0.520010
vn 0.181043 0.834753 0.520010
vn 0.181043 0.834753 0.520010
vn -0.285648 0.266086 -0.920654
vn -0.285648 0.266086 -0.920654
vn -0.285648 0.266086 -0.920654
vn -0.285648 0.266086 -0.920654
vn -0.150962 -0.608632 -0.778959
vn -0.150962 -0.608632 -0.778959
vn -0.150962 -0.608632 -0.778959
vn -0.150962 -0.608632 -0.778959
vn 0.044625 -0.363443 -0.930547
vn 0.044624 -0.363443 -0.930547
vn 0.044625 -0.363443 -0.930547
vn 0.044620 -0.363445 -0.930547
vn 0.044620 -0.363445 -0.930547
vn 0.044620 -0.363445 -0.930547
vn 0.158120 -0.868544 -0.469711
vn 0.158120 -0.868544 -0.469711
vn 0.158120 -0.868544 -0.469711
vn -0.158118 0.868545 0.469712
vn -0.158118 0.868545 0.469712
vn -0.158118 0.868545 0.469712
vn -0.283335 -0.495598 0.821039
vn -0.283335 -0.495598 0.821038
vn -0.283335 -0.495598 0.821039
vn -0.283335 -0.495598 0.821039
vn 0.643035 0.663170 -0.383029
vn 0.643035 0.663170 -0.383029
vn 0.643035 0.663170 -0.383029
vn 0.643035 0.663170 -0.383029
vn -0.945897 0.003269 -0.324451
vn -0.945897 0.003269 -0.324451
vn -0.945897 0.003269 -0.324451
vn -0.945897 0.003269 -0.324451
vn -0.478709 0.488525 -0.729508
vn -0.478709 0.488525 -0.729508
vn -0.478709 0.488525 -0.729508
vn 0.149484 0.864118 0.480577
vn 0.149484 0.864118 0.480577
vn 0.149484 0.864118 0.480577
vn 0.149484 0.864118 0.480577
vn 0.478705 -0.488530 0.729507
vn 0.478705 -0.488530 0.729507
vn 0.478705 -0.488530 0.729507
vn -0.865155 -0.121002 0.486689
vn -0.865155 -0.121002 0.486689
vn -0.865155 -0.121002 0.486689
vn -0.865155 -0.121002 0.486689
vn 0.127897 -0.783234 -0.608431
vn 0.127897 -0.783233 -0.608431
vn 0.127897 -0.783233 -0.608431
vn 0.127897 -0.783234 -0.608431
vn -0.999634 -0.004698 -0.026642
vn -0.999634 -0.004698 -0.026642
vn -0.999634 -0.004698 -0.026642
vn -0.999634 -0.004698 -0.026642
vn -0.020618 -0.505282 0.862708
vn -0.020618 -0.505282 0.862708
vn -0.020618 -0.505282 0.862708
vn -0.020618 -0.505282 0.862708
vn 0.017515 -0.862942 -0.505000
vn 0.017515 -0.862942 -0.505000
vn 0.017515 -0.862942 -0.505000
vn 0.017515 -0.862942 -0.505000
vn 0.334012 0.682582 -0.650014
vn 0.334012 0.682582 -0.650014
vn 0.334012 0.682582 -0.650014
vn 0.334012 0.682582 -0.650014
vn 0.220517 0.957509 0.185873
vn 0.220517 0.957509 0.185873
vn 0.220517 0.957509 0.185873
vn 0.220517 0.957509 0.185873
vn 0.825743 0.297278 -0.479347
vn 0.825743 0.297278 -0.479347
vn 0.825743 0.297278 -0.479347
vn 0.825745 0.297272 -0.479349
vn 0.825744 0.297272 -0.479349
vn 0.825745 0.297272 -0.479349
vn -0.147847 0.989010 0.000000
vn -0.147847 0.989010 0.000000
vn -0.147847 0.989010 0.000000
vn 0.147846 -0.989010 0.000000
vn 0.147846 -0.989010 0.000000
vn 0.147846 -0.989010 0.000000
vn -0.989010 -0.147848 0.000000
vn -0.989010 -0.147848 0.000000
vn -0.989010 -0.147848 0.000000
vn -0.989010 -0.147848 0.000000
vn -0.000002 0.000000 1.000000
vn -0.000002 0.000000 1.000000
vn -0.000002 0.000000 1.000000
vn -0.000002 0.000000 1.000000
vn 0.695319 0.218476 -0.684689
vn 0.695319 0.218476 -0.684689
vn 0.695319 0.218476 -0.684689
vn 0.426781 0.882925 -0.195709
vn 0.426781 0.882925 -0.195709
vn 0.426781 0.882925 -0.195709
s off
g polySurface75
usemtl phong5SG
f 41/276/121 46/277/122 65/278/123 71/279/124
f 49/292/125 50/293/126 51/294/127 52/295/128
f 44/190/129 45/191/130 46/192/131 41/193/132
f 44/117/133 41/118/134 71/119/135 72/120/136
f 88/206/137 87/207/138 47/208/139 48/209/140
f 47/208/141 42/212/142 43/213/143 48/209/144
f 54/296/145 53/297/146 55/298/147 56/299/148
f 70/232/149 69/233/150 61/225/151 62/228/152
f 69/128/153 73/129/154 76/130/155 68/131/156 45/132/157 64/133/158 61/134/159
f 45/191/160 44/190/161 63/194/162 64/195/163
f 44/117/164 72/120/165 75/121/166 74/122/167 70/123/168 62/124/169 63/125/170
f 48/209/171 43/213/172 57/216/173 58/217/174
f 58/217/175 57/216/176 55/220/177 53/221/178
f 60/202/179 59/201/180 54/200/181 56/203/182
f 57/135/183 60/136/184 56/137/185 55/138/186
f 62/228/187 61/225/188 50/224/189 49/229/190
f 63/125/191 62/124/192 49/126/193 52/127/194
f 64/195/195 63/194/196 52/198/197 51/199/198
f 59/300/199 58/301/200 61/302/201 64/303/202
f 54/200/203 59/201/204 64/195/205 51/199/206
f 54/296/207 51/294/208 50/293/209 53/297/210
f 50/224/211 61/225/212 58/217/213 53/221/214
f 73/230/215 69/233/216 70/232/217 74/231/218
f 76/227/219 73/230/220 74/231/221 75/226/222
f 75/226/223 72/223/224 68/219/225 76/227/226
f 71/222/227 65/218/228 68/219/229 72/223/230
f 65/218/231 66/215/232 67/214/233 68/219/234
f 47/289/235 78/288/236 77/290/237 42/291/238
f 87/285/239 89/284/240 90/286/241 79/287/242 78/288/243 47/289/244
f 90/234/245 96/235/246 80/236/247 79/237/248
f 96/304/249 95/305/250 88/306/251 48/307/252 81/308/253 80/309/254
f 82/147/255 81/148/256 48/149/257 58/150/258 59/151/259
f 83/204/260 82/205/261 59/201/262 60/202/263
f 43/139/264 84/140/265 83/141/266 60/136/267 57/135/268
f 77/142/269 84/140/270 43/139/271 42/143/272
f 81/144/273 82/145/274 83/141/275 84/140/276
f 78/238/277 79/237/278 80/236/279 81/239/280
f 84/140/281 77/142/282 78/146/283 81/144/284
f 66/280/285 65/278/286 46/277/287 92/281/288 91/282/289 85/283/290
f 46/192/291 45/191/292 93/196/293 92/197/294
f 45/312/295 68/313/296 67/314/297 86/311/298 94/310/299 93/315/300
f 67/214/301 66/215/302 85/211/303 86/210/304
f 95/305/305 94/310/306 86/311/307 88/306/308
f 86/210/309 85/211/310 87/207/311 88/206/312
f 85/283/313 91/282/314 89/284/315 87/285/316
f 90/152/317 89/153/318 95/154/319 96/155/320
f 89/240/321 91/241/322 94/242/323 95/243/324
f 91/156/325 92/157/326 93/158/327 94/159/328
f 97/160/329 99/161/330 100/162/331
f 98/244/332 97/245/333 100/246/334 101/247/335
f 102/163/336 98/164/337 101/165/338
f 99/248/339 97/249/340 98/250/341
f 99/349/342 98/350/343 102/351/344
f 101/316/345 100/317/346 99/318/347 102/319/348
f 103/355/349 108/356/350 107/357/351 105/358/352
f 104/166/353 109/167/354 108/168/355 103/169/356
f 105/358/357 106/359/358 104/360/359 103/355/360
f 104/320/361 106/321/362 111/322/363 110/323/364
f 110/323/365 111/322/366 107/325/367 108/326/368
f 106/321/369 105/324/370 111/322/371
f 107/325/372 111/322/373 105/324/374
f 112/251/375 115/252/376 114/253/377
f 117/254/378 116/255/379 113/256/380
f 112/327/381 114/328/382 117/329/383 113/330/384
f 114/257/385 115/258/386 116/255/387 117/254/388
f 113/170/389 116/171/390 115/172/391 112/173/392
f 120/331/393 119/332/394 118/333/395
f 118/259/396 122/260/397 121/261/398 120/262/399
f 122/336/400 123/337/401 121/338/402
f 118/174/403 119/175/404 123/176/405 122/177/406
f 119/332/407 120/331/408 121/334/409 123/335/410
f 124/178/411 128/179/412 130/180/413 127/181/414
f 125/343/415 129/344/416 128/345/417 124/346/418
f 126/347/419 125/343/420 124/346/421 127/348/422
f 126/267/423 127/268/424 130/264/425 131/263/426
f 131/263/427 130/264/428 128/265/429 129/266/430
f 131/182/431 129/183/432 125/184/433
f 126/185/434 131/182/435 125/184/436
f 133/269/437 137/270/438 136/271/439
f 135/273/440 134/274/441 132/275/442
f 132/186/443 133/187/444 136/188/445 135/189/446
f 137/339/447 133/340/448 132/341/449 134/342/450
f 134/352/451 135/353/452 136/354/453
f 134/272/454 136/271/455 137/270/456
