# This file uses centimeters as units for non-parametric coordinates.

mtllib Stairs.mtl
g default
v 2.058263 0.191578 -7.646863
v 2.058263 0.191578 -8.000093
v 2.058263 0.721795 -7.646863
v -2.023948 0.721795 -7.646863
v -2.023948 0.191578 -7.646863
v -2.023948 0.191578 -8.000093
v -2.023948 0.191578 -8.330762
v 2.058263 0.191578 -8.330762
v -2.023948 0.191578 -8.671897
v 2.058263 0.191578 -8.671897
v -2.023948 0.191578 -8.996152
v 2.058263 0.191578 -8.996152
v -2.023948 0.191578 -9.312051
v 2.058263 0.191578 -9.312051
v -2.023948 0.191578 -9.652835
v 2.058263 0.191578 -9.652835
v -2.023948 0.191578 -9.993494
v 2.058263 0.191578 -9.993494
v -2.023948 0.191578 -10.385391
v 2.058263 0.191578 -10.385391
v 2.058263 2.148847 -9.993494
v -2.023948 2.148847 -9.993494
v 2.058263 2.148846 -10.385391
v -2.023948 2.148846 -10.385391
v 2.058263 1.923749 -9.652835
v -2.023948 1.923749 -9.652835
v 2.058263 1.923749 -9.993494
v -2.023948 1.923749 -9.993494
v 2.058263 1.730057 -9.312051
v -2.023948 1.730057 -9.312051
v 2.058263 1.730057 -9.652835
v -2.023948 1.730057 -9.652835
v 2.058263 1.535002 -8.996152
v -2.023948 1.535002 -8.996152
v 2.058263 1.535002 -9.312051
v -2.023948 1.535002 -9.312051
v 2.058263 1.361039 -8.671897
v -2.023948 1.361039 -8.671897
v 2.058263 1.361039 -8.996152
v -2.023948 1.361039 -8.996152
v 2.058263 1.181691 -8.330762
v -2.023948 1.181691 -8.330762
v 2.058263 1.181691 -8.671897
v -2.023948 1.181691 -8.671897
v 2.058263 1.044318 -8.000093
v -2.023948 1.044318 -8.000093
v 2.058263 1.044318 -8.330762
v -2.023948 1.044318 -8.330762
v 2.058263 0.875469 -7.646863
v 2.058263 0.875469 -8.000093
v -2.023948 0.875469 -8.000093
v -2.023948 0.875469 -7.646863
v -2.023948 0.191578 -7.298015
v 2.058263 0.191578 -7.298015
v 2.058263 0.721795 -7.298015
v -2.023948 0.721795 -7.298015
v -2.023948 0.495100 -7.298015
v 2.058263 0.495100 -7.298015
v -2.023948 0.191578 -6.941658
v 2.058263 0.191578 -6.941658
v 2.058263 0.495100 -6.941658
v -2.023948 0.495100 -6.941658
v 2.058263 0.191578 -8.982782
v -2.323948 0.191578 -9.652835
v -2.323948 1.730057 -9.652835
v -2.323948 1.923749 -9.993494
v -2.323948 0.191578 -9.993494
v -2.323948 2.148847 -10.385391
v -2.323948 0.191578 -10.385391
v -2.323948 0.191578 -8.996152
v -2.323948 1.361039 -8.996152
v -2.323948 1.535002 -9.312051
v -2.323948 0.191578 -9.312051
v -2.323948 0.495100 -7.298015
v -2.323948 0.191578 -7.298015
v -2.323948 0.191578 -6.941658
v -2.323948 1.181691 -8.671897
v -2.323948 0.191578 -8.671897
v -2.323948 1.044318 -8.330762
v -2.323948 0.191578 -8.330762
v -2.323948 0.875469 -8.000093
v -2.323948 0.191578 -8.000093
v -2.323948 0.191578 -7.646863
v -2.323948 0.721795 -7.646863
v -2.323948 0.495100 -6.941658
v 2.358263 1.923749 -9.993494
v 2.358263 0.191578 -9.993494
v 2.358263 0.191578 -10.385391
v 2.358263 2.148847 -10.385391
v 2.358263 1.535002 -9.312051
v 2.358263 0.191578 -9.312051
v 2.358263 0.191578 -9.652835
v 2.358263 1.730057 -9.652835
v 2.358263 1.181691 -8.671897
v 2.358263 0.191578 -8.671897
v 2.358263 0.191578 -8.982782
v 2.358263 1.361039 -8.996152
v 2.358263 0.191578 -8.996152
v 2.358263 1.044318 -8.330762
v 2.358263 0.191578 -8.330762
v 2.358263 0.191578 -8.000093
v 2.358263 0.875469 -8.000093
v 2.358263 0.191578 -7.646863
v 2.358263 0.721795 -7.646863
v 2.358263 0.495100 -7.298015
v 2.358263 0.191578 -7.298015
v 2.358263 0.191578 -6.941658
v 2.358263 0.495100 -6.941658
v -2.023948 1.119667 -7.298015
v -2.023948 0.892971 -6.941658
v -2.323948 1.119667 -7.298015
v -2.323948 0.892971 -6.941658
v -2.023948 1.273341 -7.646863
v -2.023948 1.119667 -7.298015
v -2.323948 1.273341 -7.646863
v -2.323948 1.119667 -7.298015
v -2.023948 1.273341 -7.646863
v -2.023948 1.442190 -8.000093
v -2.323948 1.442190 -8.000093
v -2.323948 1.273341 -7.646863
v -2.023948 1.442190 -8.000093
v -2.023948 1.579563 -8.330762
v -2.323948 1.579563 -8.330762
v -2.323948 1.442190 -8.000093
v -2.023948 1.579563 -8.330762
v -2.023948 1.758912 -8.671897
v -2.323948 1.758912 -8.671897
v -2.323948 1.579563 -8.330762
v -2.023948 1.758912 -8.671897
v -2.023948 1.932874 -8.996152
v -2.323948 1.932874 -8.996152
v -2.323948 1.758912 -8.671897
v -2.023948 1.932874 -8.996152
v -2.023948 2.127930 -9.312051
v -2.323948 2.127930 -9.312051
v -2.323948 1.932874 -8.996152
v -2.023948 2.127930 -9.312051
v -2.023948 2.321622 -9.652835
v -2.323948 2.321622 -9.652835
v -2.323948 2.127930 -9.312051
v -2.023948 2.321622 -9.652835
v -2.023948 2.546719 -9.993494
v -2.323948 2.546719 -9.993494
v -2.323948 2.321622 -9.652835
v -2.023948 2.546719 -9.993494
v -2.023948 2.546719 -10.610574
v -2.323948 2.546719 -10.610574
v -2.323948 2.546719 -9.993494
v 2.058263 2.546719 -9.993494
v 2.058263 2.546719 -10.610573
v 2.358263 2.546719 -9.993494
v 2.358263 2.546719 -10.610574
v 2.058263 2.321622 -9.652835
v 2.058263 2.546719 -9.993494
v 2.358263 2.321622 -9.652835
v 2.358263 2.546719 -9.993494
v 2.058263 2.127930 -9.312051
v 2.058263 2.321622 -9.652835
v 2.358263 2.127930 -9.312051
v 2.358263 2.321622 -9.652835
v 2.058263 1.932874 -8.996152
v 2.058263 2.127930 -9.312051
v 2.358263 1.932874 -8.996152
v 2.358263 2.127930 -9.312051
v 2.058263 1.758912 -8.671897
v 2.058263 1.932873 -8.996152
v 2.358263 1.758912 -8.671897
v 2.358263 1.932873 -8.996152
v 2.058263 1.579563 -8.330762
v 2.058263 1.758912 -8.671897
v 2.358263 1.579563 -8.330762
v 2.358263 1.758912 -8.671897
v 2.058263 1.442190 -8.000093
v 2.058263 1.579563 -8.330762
v 2.358263 1.442190 -8.000093
v 2.358263 1.579563 -8.330762
v 2.058263 1.273341 -7.646863
v 2.058263 1.442190 -8.000093
v 2.358263 1.273341 -7.646863
v 2.358263 1.442190 -8.000093
v 2.058263 1.273341 -7.646863
v 2.058263 1.119667 -7.298015
v 2.358263 1.119667 -7.298015
v 2.358263 1.273341 -7.646863
v 2.058263 1.119667 -7.298015
v 2.058263 0.892971 -6.941658
v 2.358263 0.892971 -6.941658
v 2.358263 1.119667 -7.298015
vt 0.386421 0.760704
vt 0.543475 0.760704
vt 0.563248 0.795480
vt 0.386421 0.795480
vt 0.386421 0.725916
vt 0.523563 0.725916
vt 0.603864 0.760704
vt 0.626842 0.795480
vt 0.586226 0.835486
vt 0.386421 0.835486
vt 0.386421 0.693668
vt 0.505804 0.693668
vt 0.584091 0.725916
vt 0.603864 0.760704
vt 0.626842 0.795480
vt 0.626842 0.858474
vt 0.386421 0.660567
vt 0.487496 0.660567
vt 0.564179 0.693668
vt 0.584091 0.725916
vt 0.386421 0.625742
vt 0.473472 0.625742
vt 0.546420 0.660567
vt 0.564179 0.693668
vt 0.386421 0.591987
vt 0.456235 0.591987
vt 0.528112 0.625742
vt 0.546420 0.660567
vt 0.386421 0.555928
vt 0.440548 0.555928
vt 0.514088 0.591987
vt 0.528112 0.625742
vt 0.386421 0.520316
vt 0.417406 0.520316
vt 0.496852 0.555928
vt 0.514088 0.591987
vt 0.386421 0.483938
vt 0.481164 0.520316
vt 0.496852 0.555928
vt 0.458022 0.483938
vt 0.481164 0.520316
vt 0.316725 0.546932
vt 0.139899 0.546932
vt 0.139899 0.506925
vt 0.339704 0.506925
vt 0.296952 0.581707
vt 0.139899 0.581707
vt 0.380320 0.483938
vt 0.380320 0.546932
vt 0.277041 0.616496
vt 0.139899 0.616496
vt 0.380320 0.546932
vt 0.357341 0.581707
vt 0.259282 0.648744
vt 0.139899 0.650109
vt 0.139899 0.648744
vt 0.357341 0.581707
vt 0.337569 0.616496
vt 0.240973 0.681845
vt 0.139899 0.681845
vt 0.337569 0.616496
vt 0.317657 0.648744
vt 0.226950 0.716669
vt 0.139899 0.716669
vt 0.317657 0.648744
vt 0.299898 0.681845
vt 0.139899 0.750425
vt 0.209713 0.750425
vt 0.299898 0.681845
vt 0.281590 0.716669
vt 0.281590 0.716669
vt 0.267566 0.750425
vt 0.194026 0.786484
vt 0.139899 0.786484
vt 0.267566 0.750425
vt 0.250329 0.786484
vt 0.170884 0.822096
vt 0.139899 0.822096
vt 0.250329 0.786484
vt 0.234642 0.822096
vt 0.139899 0.858474
vt 0.234642 0.822096
vt 0.211500 0.858474
vt 0.116530 0.902449
vt 0.116530 0.862443
vt 0.157146 0.862443
vt 0.157146 0.925437
vt 0.014063 0.483938
vt 0.048839 0.483938
vt 0.048839 0.524554
vt 0.014063 0.547533
vt 0.290969 0.862443
vt 0.325758 0.862443
vt 0.325758 0.903059
vt 0.290969 0.922832
vt 0.213440 0.862443
vt 0.245688 0.862443
vt 0.245688 0.903059
vt 0.213440 0.922971
vt 0.461532 0.862443
vt 0.494633 0.862443
vt 0.494633 0.903059
vt 0.461532 0.920818
vt 0.376251 0.862443
vt 0.411075 0.862443
vt 0.411075 0.903059
vt 0.376251 0.921368
vt 0.713500 0.843384
vt 0.747256 0.843384
vt 0.747256 0.884000
vt 0.713500 0.898023
vt 0.542937 0.862443
vt 0.578996 0.862443
vt 0.578996 0.903059
vt 0.542937 0.920296
vt 0.628219 0.904634
vt 0.663831 0.904634
vt 0.663831 0.945250
vt 0.628219 0.960938
vt 0.097420 0.483938
vt 0.133798 0.483938
vt 0.133798 0.524554
vt 0.097420 0.547696
vt 0.054940 0.483938
vt 0.091318 0.483938
vt 0.091318 0.547696
vt 0.054940 0.524554
vt 0.670860 0.904634
vt 0.706471 0.904634
vt 0.706471 0.960938
vt 0.670860 0.945250
vt 0.585578 0.862443
vt 0.621637 0.862443
vt 0.621637 0.920296
vt 0.585578 0.903059
vt 0.754203 0.843384
vt 0.787959 0.843384
vt 0.787959 0.898023
vt 0.754203 0.884000
vt 0.418891 0.862443
vt 0.453716 0.862443
vt 0.453716 0.921368
vt 0.418891 0.903059
vt 0.502235 0.862443
vt 0.535336 0.862443
vt 0.535336 0.920818
vt 0.502235 0.903059
vt 0.252205 0.862443
vt 0.284453 0.862443
vt 0.284453 0.922971
vt 0.252205 0.903059
vt 0.333610 0.862443
vt 0.368398 0.862443
vt 0.368398 0.922832
vt 0.333610 0.903059
vt 0.001981 0.551502
vt 0.036757 0.551502
vt 0.036757 0.615097
vt 0.001981 0.592119
vt 0.164985 0.925437
vt 0.164985 0.885431
vt 0.205601 0.862443
vt 0.205601 0.925437
vt 0.711562 0.001992
vt 0.747621 0.001992
vt 0.747621 0.418718
vt 0.711562 0.418718
vt 0.281540 0.449343
vt 0.245481 0.449343
vt 0.245481 0.032617
vt 0.281540 0.032617
vt 0.281540 0.479968
vt 0.245481 0.479968
vt 0.211725 0.449343
vt 0.211725 0.032617
vt 0.245481 0.001992
vt 0.281540 0.001992
vt 0.317151 0.032617
vt 0.317151 0.449343
vt 0.317151 0.479968
vt 0.211725 0.479968
vt 0.176900 0.449343
vt 0.176900 0.032617
vt 0.211725 0.001992
vt 0.317151 0.001992
vt 0.353529 0.032617
vt 0.353529 0.449343
vt 0.353529 0.479968
vt 0.176900 0.479968
vt 0.143799 0.449343
vt 0.143799 0.032617
vt 0.145164 0.032617
vt 0.176900 0.001992
vt 0.353529 0.001992
vt 0.143799 0.479968
vt 0.111551 0.449343
vt 0.111551 0.032617
vt 0.143799 0.001992
vt 0.145164 0.001992
vt 0.111551 0.479968
vt 0.076763 0.449343
vt 0.076763 0.032617
vt 0.111551 0.001992
vt 0.076763 0.479968
vt 0.041987 0.449343
vt 0.041987 0.032617
vt 0.076763 0.001992
vt 0.041987 0.479968
vt 0.001981 0.449343
vt 0.001981 0.032617
vt 0.041987 0.001992
vt 0.001981 0.479968
vt 0.001981 0.001992
vt 0.785214 0.418718
vt 0.785214 0.001992
vt 0.818970 0.001992
vt 0.818970 0.418718
vt 0.825917 0.418718
vt 0.825917 0.001992
vt 0.860741 0.001992
vt 0.860741 0.418718
vt 0.868558 0.418718
vt 0.868558 0.001992
vt 0.901659 0.001992
vt 0.901659 0.418718
vt 0.909260 0.418718
vt 0.909260 0.001992
vt 0.941508 0.001992
vt 0.941508 0.418718
vt 0.948025 0.418718
vt 0.948025 0.001992
vt 0.982813 0.001992
vt 0.982813 0.418718
vt 0.957735 0.839414
vt 0.957735 0.422688
vt 0.992510 0.422688
vt 0.992510 0.839414
vt 0.911627 0.839414
vt 0.911627 0.422688
vt 0.951633 0.422688
vt 0.951633 0.839414
vt 0.883736 0.422688
vt 0.883736 0.839414
vt 0.848125 0.839414
vt 0.848125 0.422688
vt 0.842023 0.422688
vt 0.842023 0.839414
vt 0.805645 0.839414
vt 0.805645 0.422688
vt 0.899183 0.843384
vt 0.899183 0.878995
vt 0.868558 0.878995
vt 0.868558 0.843384
vt 0.825531 0.843384
vt 0.825531 0.879443
vt 0.794905 0.879443
vt 0.794905 0.843384
vt 0.808877 0.901993
vt 0.808877 0.935749
vt 0.778252 0.935749
vt 0.778252 0.901993
vt 0.972835 0.843384
vt 0.972835 0.878208
vt 0.942210 0.878208
vt 0.942210 0.843384
vt 0.735424 0.964907
vt 0.735424 0.998008
vt 0.704799 0.998008
vt 0.704799 0.964907
vt 0.955784 0.882965
vt 0.955784 0.917753
vt 0.925159 0.917753
vt 0.925159 0.882965
vt 0.073503 0.551665
vt 0.073503 0.614659
vt 0.042877 0.614659
vt 0.042877 0.551665
vt 0.079704 0.614659
vt 0.079704 0.551665
vt 0.110329 0.551665
vt 0.110329 0.614659
vt 0.888432 0.917753
vt 0.888432 0.882965
vt 0.919057 0.882965
vt 0.919057 0.917753
vt 0.668073 0.998008
vt 0.668073 0.964907
vt 0.698698 0.964907
vt 0.698698 0.998008
vt 0.961885 0.917002
vt 0.961885 0.882177
vt 0.992510 0.882177
vt 0.992510 0.917002
vt 0.741526 0.935749
vt 0.741526 0.901993
vt 0.772151 0.901993
vt 0.772151 0.935749
vt 0.831732 0.879443
vt 0.831732 0.843384
vt 0.862357 0.843384
vt 0.862357 0.879443
vt 0.905384 0.878995
vt 0.905384 0.843384
vt 0.936009 0.843384
vt 0.936009 0.878995
vt 0.754203 0.418718
vt 0.754203 0.001992
vt 0.777345 0.001992
vt 0.777345 0.418718
vt 0.601166 0.449343
vt 0.401361 0.449343
vt 0.401361 0.032617
vt 0.601166 0.032617
vt 0.601166 0.479968
vt 0.401361 0.479968
vt 0.401361 0.001992
vt 0.601166 0.001992
vt 0.360745 0.479968
vt 0.360745 0.449343
vt 0.360745 0.032617
vt 0.360745 0.001992
vt 0.889838 0.839414
vt 0.889838 0.422688
vt 0.905526 0.422688
vt 0.905526 0.839414
vt 0.608837 0.449343
vt 0.608837 0.032617
vt 0.639821 0.032617
vt 0.639821 0.449343
vt 0.608837 0.001992
vt 0.639821 0.001992
vt 0.639821 0.479968
vt 0.608837 0.479968
vt 0.680437 0.001992
vt 0.680437 0.032617
vt 0.680437 0.449343
vt 0.680437 0.479968
vt 0.703579 0.032617
vt 0.703579 0.001992
vt 0.703579 0.449343
vt 0.703579 0.479968
vt 0.799544 0.422688
vt 0.799544 0.839414
vt 0.782307 0.839414
vt 0.782307 0.422688
vt 0.776206 0.422688
vt 0.776206 0.839414
vt 0.762182 0.839414
vt 0.762182 0.422688
vt 0.756081 0.422688
vt 0.756081 0.839414
vt 0.737772 0.839414
vt 0.737772 0.422688
vt 0.731671 0.422688
vt 0.731671 0.839414
vt 0.713912 0.839414
vt 0.713912 0.422688
vt 0.707810 0.483938
vt 0.707810 0.900664
vt 0.687898 0.900664
vt 0.687898 0.483938
vt 0.681797 0.483938
vt 0.681797 0.900664
vt 0.662024 0.900664
vt 0.662024 0.483938
vt 0.655923 0.483938
vt 0.655923 0.900664
vt 0.632944 0.900664
vt 0.632944 0.483938
vt 0.661971 0.964907
vt 0.661971 0.997155
vt 0.631346 0.997155
vt 0.631346 0.964907
vt 0.882331 0.883412
vt 0.882331 0.918188
vt 0.851706 0.918188
vt 0.851706 0.883412
vt 0.814979 0.918188
vt 0.814979 0.883412
vt 0.845604 0.883412
vt 0.845604 0.918188
vt 0.594619 0.997155
vt 0.594619 0.964907
vt 0.625245 0.964907
vt 0.625245 0.997155
vn 0.000000 1.000000 0.000000
vn 0.000000 1.000000 0.000000
vn 0.000000 1.000000 0.000000
vn 0.000000 1.000000 0.000000
vn 0.000000 -1.000000 0.000000
vn 0.000000 -1.000000 0.000000
vn 0.000000 -1.000000 0.000000
vn 0.000000 -1.000000 0.000000
vn 0.000000 0.000000 1.000000
vn 0.000000 0.000000 1.000000
vn 0.000000 0.000000 1.000000
vn 0.000000 0.000000 1.000000
vn 0.000000 -1.000000 0.000000
vn 0.000000 -1.000000 0.000000
vn 0.000000 -1.000000 0.000000
vn 0.000000 -1.000000 0.000000
vn 0.000000 1.000000 0.000000
vn 0.000000 1.000000 0.000000
vn 0.000000 1.000000 0.000000
vn 0.000000 1.000000 0.000000
vn 0.000000 -1.000000 0.000000
vn 0.000000 -1.000000 0.000000
vn 0.000000 -1.000000 0.000000
vn 0.000000 -1.000000 0.000000
vn 0.000000 1.000000 0.000000
vn 0.000000 1.000000 0.000000
vn 0.000000 1.000000 0.000000
vn 0.000000 1.000000 0.000000
vn 0.000000 -1.000000 0.000000
vn 0.000000 -1.000000 0.000000
vn 0.000000 -1.000000 0.000000
vn 0.000000 -1.000000 0.000000
vn 0.000000 -1.000000 0.000000
vn 0.000000 1.000000 0.000000
vn 0.000000 1.000000 0.000000
vn 0.000000 1.000000 0.000000
vn 0.000000 1.000000 0.000000
vn 0.000000 -1.000000 0.000000
vn 0.000000 -1.000000 0.000000
vn 0.000000 -1.000000 0.000000
vn 0.000000 -1.000000 0.000000
vn 0.000000 1.000000 0.000000
vn 0.000000 1.000000 0.000000
vn 0.000000 1.000000 0.000000
vn 0.000000 1.000000 0.000000
vn 0.000000 -1.000000 0.000000
vn 0.000000 -1.000000 0.000000
vn 0.000000 -1.000000 0.000000
vn 0.000000 -1.000000 0.000000
vn 0.000000 1.000000 0.000000
vn 0.000000 1.000000 0.000000
vn 0.000000 1.000000 0.000000
vn 0.000000 1.000000 0.000000
vn 0.000000 -1.000000 0.000000
vn 0.000000 -1.000000 0.000000
vn 0.000000 -1.000000 0.000000
vn 0.000000 -1.000000 0.000000
vn 0.000000 1.000000 0.000000
vn 0.000000 1.000000 0.000000
vn 0.000000 1.000000 0.000000
vn 0.000000 1.000000 0.000000
vn 0.000000 -1.000000 0.000000
vn 0.000000 -1.000000 0.000000
vn 0.000000 -1.000000 0.000000
vn 0.000000 -1.000000 0.000000
vn 0.000000 1.000000 -0.000001
vn 0.000000 1.000000 -0.000001
vn 0.000000 1.000000 -0.000001
vn 0.000000 1.000000 -0.000001
vn 0.000000 0.000000 -1.000000
vn 0.000000 0.000000 -1.000000
vn 0.000000 0.000000 -1.000000
vn 0.000000 0.000000 -1.000000
vn 0.000000 0.000000 1.000000
vn 0.000000 0.000000 1.000000
vn 0.000000 0.000000 1.000000
vn 0.000000 0.000000 1.000000
vn 0.000000 -1.000000 0.000000
vn 0.000000 -1.000000 0.000000
vn 0.000000 -1.000000 0.000000
vn 0.000000 -1.000000 0.000000
vn 0.000000 1.000000 0.000000
vn 0.000000 1.000000 0.000000
vn 0.000000 1.000000 0.000000
vn 0.000000 1.000000 0.000000
vn 0.000000 0.000000 1.000000
vn 0.000000 0.000000 1.000000
vn 0.000000 0.000000 1.000000
vn 0.000000 0.000000 1.000000
vn 0.000000 -1.000000 0.000000
vn 0.000000 -1.000000 0.000000
vn 0.000000 -1.000000 0.000000
vn 0.000000 -1.000000 0.000000
vn 0.000000 1.000000 -0.000000
vn 0.000000 1.000000 -0.000000
vn 0.000000 1.000000 -0.000000
vn 0.000000 1.000000 -0.000000
vn 0.000000 0.000000 1.000000
vn 0.000000 0.000000 1.000000
vn 0.000000 0.000000 1.000000
vn 0.000000 0.000000 1.000000
vn 0.000000 0.000000 1.000000
vn 0.000000 0.000000 1.000000
vn 0.000000 0.000000 1.000000
vn 0.000000 0.000000 1.000000
vn 0.000000 0.000000 1.000000
vn 0.000000 0.000000 1.000000
vn 0.000000 0.000000 1.000000
vn 0.000000 0.000000 1.000000
vn 0.000000 0.000000 1.000000
vn 0.000000 0.000000 1.000000
vn 0.000000 0.000000 1.000000
vn 0.000000 0.000000 1.000000
vn 0.000000 0.000000 1.000000
vn 0.000000 0.000000 1.000000
vn 0.000000 0.000000 1.000000
vn 0.000000 0.000000 1.000000
vn 0.000000 0.000000 1.000000
vn 0.000000 0.000000 1.000000
vn 0.000000 0.000000 1.000000
vn 0.000000 0.000000 1.000000
vn 0.000000 0.000000 1.000000
vn 0.000000 0.000000 1.000000
vn 0.000000 0.000000 1.000000
vn 0.000000 0.000000 1.000000
vn -1.000000 0.000000 0.000000
vn -1.000000 0.000000 0.000000
vn -1.000000 0.000000 0.000000
vn -1.000000 0.000000 0.000000
vn -1.000000 0.000000 0.000000
vn -1.000000 0.000000 0.000000
vn -1.000000 0.000000 0.000000
vn -1.000000 0.000000 0.000000
vn -1.000000 0.000000 0.000000
vn -1.000000 0.000000 0.000000
vn -1.000000 0.000000 0.000000
vn -1.000000 0.000000 0.000000
vn -1.000000 0.000000 0.000000
vn -1.000000 0.000000 0.000000
vn -1.000000 0.000000 0.000000
vn -1.000000 0.000000 0.000000
vn -1.000000 0.000000 0.000000
vn -1.000000 0.000000 0.000000
vn -1.000000 0.000000 0.000000
vn -1.000000 0.000000 0.000000
vn -1.000000 0.000000 0.000000
vn -1.000000 0.000000 0.000000
vn -1.000000 0.000000 0.000000
vn -1.000000 0.000000 0.000000
vn -1.000000 0.000000 0.000000
vn -1.000000 0.000000 0.000000
vn -1.000000 0.000000 0.000000
vn -1.000000 0.000000 0.000000
vn -1.000000 0.000000 0.000000
vn -1.000000 0.000000 0.000000
vn -1.000000 0.000000 0.000000
vn -1.000000 0.000000 0.000000
vn -1.000000 0.000000 0.000000
vn -1.000000 0.000000 0.000000
vn -1.000000 0.000000 0.000000
vn -1.000000 0.000000 0.000000
vn -1.000000 0.000000 0.000000
vn -1.000000 0.000000 0.000000
vn -1.000000 0.000000 0.000000
vn 1.000000 0.000000 0.000000
vn 1.000000 0.000000 0.000000
vn 1.000000 0.000000 0.000000
vn 1.000000 0.000000 0.000000
vn 1.000000 0.000000 0.000000
vn 1.000000 0.000000 0.000000
vn 1.000000 0.000000 0.000000
vn 1.000000 0.000000 0.000000
vn 1.000000 0.000000 0.000000
vn 1.000000 0.000000 0.000000
vn 1.000000 0.000000 0.000000
vn 1.000000 0.000000 0.000000
vn 1.000000 0.000000 0.000000
vn 1.000000 0.000000 0.000000
vn 1.000000 0.000000 0.000000
vn 1.000000 0.000000 0.000000
vn 1.000000 0.000000 0.000000
vn 1.000000 0.000000 0.000000
vn 1.000000 0.000000 0.000000
vn 1.000000 0.000000 0.000000
vn 1.000000 0.000000 0.000000
vn 1.000000 0.000000 0.000000
vn 1.000000 0.000000 0.000000
vn 1.000000 0.000000 0.000000
vn 1.000000 0.000000 0.000000
vn 1.000000 0.000000 0.000000
vn 1.000000 0.000000 0.000000
vn 1.000000 0.000000 0.000000
vn 1.000000 0.000000 0.000000
vn 1.000000 0.000000 0.000000
vn 1.000000 0.000000 0.000000
vn 1.000000 0.000000 0.000000
vn 1.000000 0.000000 0.000000
vn 1.000000 0.000000 0.000000
vn 1.000000 0.000000 0.000000
vn 1.000000 0.000000 0.000000
vn 1.000000 0.000000 0.000000
vn 1.000000 0.000000 0.000000
vn 1.000000 0.000000 0.000000
vn 1.000000 0.000000 0.000000
vn 0.000000 -1.000000 0.000000
vn 0.000000 -1.000000 0.000000
vn 0.000000 -1.000000 0.000000
vn 0.000000 -1.000000 0.000000
vn -0.000001 0.000000 -1.000000
vn -0.000001 0.000000 -1.000000
vn -0.000001 0.000000 -1.000000
vn -0.000001 0.000000 -1.000000
vn 0.000000 -1.000000 0.000000
vn 0.000000 -1.000000 0.000000
vn 0.000000 -1.000000 0.000000
vn 0.000000 -1.000000 0.000000
vn 0.000000 -1.000000 0.000000
vn 0.000000 -1.000000 0.000000
vn 0.000000 -1.000000 0.000000
vn 0.000000 -1.000000 0.000000
vn 0.000000 -1.000000 0.000000
vn 0.000000 -1.000000 0.000000
vn 0.000000 -1.000000 0.000000
vn 0.000000 -1.000000 0.000000
vn 0.000000 -1.000000 0.000000
vn 0.000000 -1.000000 0.000000
vn 0.000000 -1.000000 0.000000
vn 0.000000 -1.000000 0.000000
vn 0.000000 -1.000000 0.000000
vn 0.000000 -1.000000 0.000000
vn 0.000000 -1.000000 0.000000
vn 0.000000 -1.000000 0.000000
vn 0.000000 -1.000000 0.000000
vn 0.000000 -1.000000 0.000000
vn 0.000000 -1.000000 0.000000
vn 0.000000 -1.000000 0.000000
vn 0.000000 -1.000000 0.000000
vn 0.000000 -1.000000 0.000000
vn 0.000000 -1.000000 0.000000
vn 0.000000 -1.000000 0.000000
vn 0.000000 -1.000000 0.000000
vn 0.000000 -1.000000 0.000000
vn 0.000000 -1.000000 0.000000
vn 0.000000 -1.000000 0.000000
vn 0.000000 -1.000000 0.000000
vn 0.000000 -1.000000 0.000000
vn 0.000000 -1.000000 0.000000
vn 0.000000 -1.000000 0.000000
vn 0.000001 0.000000 1.000000
vn 0.000001 0.000000 1.000000
vn 0.000001 0.000000 1.000000
vn 0.000001 0.000000 1.000000
vn 0.000000 0.843743 0.536747
vn 0.000000 0.843743 0.536747
vn 0.000000 0.843743 0.536747
vn 0.000000 0.843743 0.536747
vn 0.000000 0.915140 0.403136
vn 0.000000 0.915140 0.403136
vn 0.000000 0.915140 0.403136
vn 0.000000 0.915140 0.403136
vn 0.000000 0.902221 0.431274
vn 0.000000 0.902221 0.431274
vn 0.000000 0.902221 0.431274
vn 0.000000 0.902221 0.431274
vn 0.000000 0.923478 0.383651
vn 0.000000 0.923478 0.383651
vn 0.000000 0.923478 0.383651
vn 0.000000 0.923478 0.383651
vn 0.000000 0.885128 0.465348
vn 0.000000 0.885128 0.465348
vn 0.000000 0.885128 0.465348
vn 0.000000 0.885128 0.465348
vn 0.000000 0.881192 0.472759
vn 0.000000 0.881192 0.472759
vn 0.000000 0.881192 0.472759
vn 0.000000 0.881192 0.472759
vn 0.000000 0.850868 0.525379
vn 0.000000 0.850868 0.525379
vn 0.000000 0.850868 0.525379
vn 0.000000 0.850868 0.525379
vn 0.000000 0.869386 0.494134
vn 0.000000 0.869386 0.494134
vn 0.000000 0.869386 0.494134
vn 0.000000 0.869386 0.494134
vn 0.000000 0.834314 0.551289
vn 0.000000 0.834314 0.551289
vn 0.000000 0.834314 0.551289
vn 0.000000 0.834314 0.551289
vn 0.000000 1.000000 0.000000
vn 0.000000 1.000000 0.000000
vn 0.000000 1.000000 0.000000
vn 0.000000 1.000000 0.000000
vn 0.000000 -1.000000 0.000000
vn 0.000000 -1.000000 0.000000
vn 0.000000 -1.000000 0.000000
vn 0.000000 -1.000000 0.000000
vn 0.000000 0.000000 -1.000000
vn 0.000000 0.000000 -1.000000
vn 0.000000 0.000000 -1.000000
vn 0.000000 0.000000 -1.000000
vn 0.000000 -1.000000 0.000000
vn 0.000000 -1.000000 0.000000
vn 0.000000 -1.000000 0.000000
vn 0.000000 -1.000000 0.000000
vn 0.000000 -1.000000 0.000000
vn 0.000000 -1.000000 0.000000
vn 0.000000 -1.000000 0.000000
vn 0.000000 -1.000000 0.000000
vn 0.000000 -1.000000 0.000000
vn 0.000000 -1.000000 0.000000
vn 0.000000 -1.000000 0.000000
vn 0.000000 -1.000000 0.000000
vn 0.000000 -1.000000 0.000000
vn 0.000000 -1.000000 0.000000
vn 0.000000 -1.000000 0.000000
vn 0.000000 -1.000000 0.000000
vn 0.000000 -1.000000 0.000000
vn 0.000000 -1.000000 0.000000
vn 0.000000 -1.000000 0.000000
vn 0.000000 -1.000000 0.000000
vn 0.000000 -1.000000 0.000000
vn 0.000000 -1.000000 0.000000
vn 0.000000 -1.000000 0.000000
vn 0.000000 -1.000000 0.000000
vn 0.000000 -1.000000 0.000000
vn 0.000000 -1.000000 0.000000
vn 0.000000 -1.000000 0.000000
vn 0.000000 -1.000000 0.000000
vn 0.000000 -1.000000 0.000000
vn 0.000000 -1.000000 0.000000
vn 0.000000 -1.000000 0.000000
vn 0.000000 -1.000000 0.000000
vn 0.000000 -1.000000 0.000000
vn 0.000000 -1.000000 0.000000
vn 0.000000 -1.000000 0.000000
vn 0.000000 -1.000000 0.000000
vn -0.000000 -1.000000 0.000000
vn -0.000000 -1.000000 0.000000
vn -0.000000 -1.000000 0.000000
vn -0.000000 -1.000000 0.000000
vn 0.000000 1.000000 0.000000
vn 0.000000 1.000000 0.000000
vn 0.000000 1.000000 0.000000
vn 0.000000 1.000000 0.000000
vn 0.000000 0.834314 0.551289
vn 0.000000 0.834314 0.551289
vn 0.000000 0.834314 0.551289
vn 0.000000 0.834314 0.551289
vn 0.000000 0.869386 0.494134
vn 0.000000 0.869386 0.494134
vn 0.000000 0.869386 0.494134
vn 0.000000 0.869386 0.494134
vn 0.000000 0.850868 0.525379
vn 0.000000 0.850868 0.525379
vn 0.000000 0.850868 0.525379
vn 0.000000 0.850868 0.525379
vn 0.000000 0.881193 0.472757
vn 0.000000 0.881193 0.472757
vn 0.000000 0.881193 0.472757
vn 0.000000 0.881193 0.472757
vn 0.000000 0.885128 0.465348
vn 0.000000 0.885128 0.465348
vn 0.000000 0.885128 0.465348
vn 0.000000 0.885128 0.465348
vn 0.000000 0.923478 0.383651
vn 0.000000 0.923478 0.383651
vn 0.000000 0.923478 0.383651
vn 0.000000 0.923478 0.383651
vn 0.000000 0.902221 0.431274
vn 0.000000 0.902221 0.431274
vn 0.000000 0.902221 0.431274
vn 0.000000 0.902221 0.431274
vn 0.000000 0.915140 0.403136
vn 0.000000 0.915140 0.403136
vn 0.000000 0.915140 0.403136
vn 0.000000 0.915140 0.403136
vn 0.000000 0.843743 0.536747
vn 0.000000 0.843743 0.536747
vn 0.000000 0.843743 0.536747
vn 0.000000 0.843743 0.536747
vn 0.000000 0.000000 1.000000
vn 0.000000 0.000000 1.000000
vn 0.000000 0.000000 1.000000
vn 0.000000 0.000000 1.000000
vn 0.000000 0.000000 1.000000
vn 0.000000 0.000000 1.000000
vn 0.000000 0.000000 1.000000
vn 0.000000 0.000000 1.000000
vn 0.000000 -0.492551 -0.870283
vn 0.000000 -0.492551 -0.870283
vn 0.000000 -0.492551 -0.870283
vn 0.000000 -0.492551 -0.870283
vn -1.000000 0.000000 0.000000
vn -1.000000 0.000000 0.000000
vn -1.000000 0.000000 0.000000
vn -1.000000 0.000000 0.000000
vn 0.000000 -0.492551 -0.870284
vn 0.000000 -0.492551 -0.870284
vn 0.000000 -0.492551 -0.870284
vn 0.000000 -0.492551 -0.870284
vn -1.000000 0.000000 0.000000
vn -1.000000 0.000000 0.000000
vn -1.000000 0.000000 0.000000
vn -1.000000 0.000000 0.000000
vn -1.000000 0.000000 0.000000
vn -1.000000 0.000000 0.000000
vn -1.000000 0.000000 0.000000
vn -1.000000 0.000000 0.000000
vn -1.000000 0.000000 0.000000
vn -1.000000 0.000000 0.000000
vn -1.000000 0.000000 0.000000
vn -1.000000 0.000000 0.000000
vn -1.000000 0.000000 0.000000
vn -1.000000 0.000000 0.000000
vn -1.000000 0.000000 0.000000
vn -1.000000 0.000000 0.000000
vn -1.000000 0.000000 0.000000
vn -1.000000 0.000000 0.000000
vn -1.000000 0.000000 0.000000
vn -1.000000 0.000000 0.000000
vn -1.000000 0.000000 0.000000
vn -1.000000 0.000000 0.000000
vn -1.000000 0.000000 0.000000
vn -1.000000 0.000000 0.000000
vn -1.000000 0.000000 0.000000
vn -1.000000 0.000000 0.000000
vn -1.000000 0.000000 0.000000
vn -1.000000 0.000000 0.000000
vn -1.000000 0.000000 0.000000
vn -1.000000 0.000000 0.000000
vn -1.000000 0.000000 0.000000
vn -1.000000 0.000000 0.000000
vn -1.000000 0.000000 0.000000
vn -1.000000 0.000000 0.000000
vn -1.000000 0.000000 0.000000
vn -1.000000 0.000000 0.000000
vn 0.000000 0.000000 1.000000
vn 0.000000 0.000000 1.000000
vn 0.000000 0.000000 1.000000
vn 0.000000 0.000000 1.000000
vn -1.000000 0.000000 0.000000
vn -1.000000 0.000000 0.000000
vn -1.000000 0.000000 0.000000
vn -1.000000 0.000000 0.000000
vn -1.000000 0.000000 0.000000
vn -1.000000 0.000000 0.000000
vn -1.000000 0.000000 0.000000
vn -1.000000 0.000000 0.000000
vn -1.000000 0.000000 0.000000
vn -1.000000 0.000000 0.000000
vn -1.000000 0.000000 0.000000
vn -1.000000 0.000000 0.000000
vn -1.000000 0.000000 0.000000
vn -1.000000 0.000000 0.000000
vn -1.000000 0.000000 0.000000
vn -1.000000 0.000000 0.000000
vn -1.000000 0.000000 0.000000
vn -1.000000 0.000000 0.000000
vn -1.000000 0.000000 0.000000
vn -1.000000 0.000000 0.000000
vn -1.000000 0.000000 0.000000
vn -1.000000 0.000000 0.000000
vn -1.000000 0.000000 0.000000
vn -1.000000 0.000000 0.000000
vn -1.000000 0.000000 0.000000
vn -1.000000 0.000000 0.000000
vn -1.000000 0.000000 0.000000
vn -1.000000 0.000000 0.000000
vn -1.000000 0.000000 0.000000
vn -1.000000 0.000000 0.000000
vn -1.000000 0.000000 0.000000
vn -1.000000 0.000000 0.000000
vn -1.000000 0.000000 0.000000
vn -1.000000 0.000000 0.000000
vn -1.000000 0.000000 0.000000
vn -1.000000 0.000000 0.000000
vn -1.000000 0.000000 -0.000000
vn -1.000000 0.000000 -0.000000
vn -1.000000 0.000000 -0.000000
vn -1.000000 0.000000 -0.000000
vn 1.000000 -0.000000 0.000001
vn 1.000000 -0.000000 0.000001
vn 1.000000 -0.000000 0.000001
vn 1.000000 -0.000000 0.000001
vn 1.000000 0.000000 0.000000
vn 1.000000 0.000000 0.000000
vn 1.000000 0.000000 0.000000
vn 1.000000 0.000000 0.000000
vn 1.000000 0.000000 0.000000
vn 1.000000 0.000000 0.000000
vn 1.000000 0.000000 0.000000
vn 1.000000 0.000000 0.000000
vn 1.000000 0.000000 0.000000
vn 1.000000 0.000000 0.000000
vn 1.000000 0.000000 0.000000
vn 1.000000 0.000000 0.000000
vn 1.000000 0.000000 0.000000
vn 1.000000 0.000000 0.000000
vn 1.000000 0.000000 0.000000
vn 1.000000 0.000000 0.000000
vn 1.000000 0.000000 0.000000
vn 1.000000 0.000000 0.000000
vn 1.000000 0.000000 0.000000
vn 1.000000 0.000000 0.000000
vn 1.000000 0.000000 0.000000
vn 1.000000 0.000000 0.000000
vn 1.000000 0.000000 0.000000
vn 1.000000 0.000000 0.000000
vn 1.000000 0.000000 0.000000
vn 1.000000 0.000000 0.000000
vn 1.000000 0.000000 0.000000
vn 1.000000 0.000000 0.000000
vn 1.000000 0.000000 0.000000
vn 1.000000 0.000000 0.000000
vn 1.000000 0.000000 0.000000
vn 1.000000 0.000000 0.000000
vn 1.000000 0.000000 0.000000
vn 1.000000 0.000000 0.000000
vn 1.000000 0.000000 0.000000
vn 1.000000 0.000000 0.000000
vn 1.000000 0.000000 0.000000
vn 1.000000 0.000000 0.000000
vn 1.000000 0.000000 0.000000
vn 1.000000 0.000000 0.000000
vn 1.000000 0.000000 0.000000
vn 1.000000 0.000000 0.000000
vn 1.000000 0.000000 0.000000
vn 1.000000 0.000000 0.000000
vn 1.000000 0.000000 0.000000
vn 1.000000 0.000000 0.000000
vn 1.000000 0.000000 0.000000
vn 1.000000 0.000000 0.000000
vn 1.000000 0.000000 0.000000
vn 1.000000 0.000000 0.000000
vn 1.000000 0.000000 0.000000
vn 1.000000 0.000000 0.000000
vn 1.000000 0.000000 0.000000
vn 1.000000 0.000000 0.000000
vn 1.000000 0.000000 0.000000
vn 1.000000 0.000000 0.000000
vn 1.000000 0.000000 0.000000
vn 1.000000 0.000000 0.000000
vn 1.000000 0.000000 0.000000
vn 1.000000 0.000000 0.000000
vn 1.000000 0.000000 0.000000
vn 1.000000 0.000000 0.000000
vn 1.000000 0.000000 0.000000
vn 1.000000 0.000000 0.000000
vn 1.000000 0.000000 0.000000
vn 1.000000 0.000000 0.000000
vn 1.000000 0.000000 0.000000
vn 1.000000 0.000000 0.000000
vn 1.000000 0.000000 0.000000
vn 1.000000 0.000000 0.000000
vn 1.000000 0.000000 0.000000
vn 1.000000 0.000000 0.000000
vn 1.000000 0.000000 0.000000
vn 1.000000 0.000000 0.000000
vn 1.000000 0.000000 0.000000
vn 1.000000 0.000000 0.000000
s off
g polySurface443 polySurface402
usemtl blinn14SG
f 49/164/1 50/165/2 51/166/3 52/167/4
f 5/168/5 6/169/6 2/170/7 1/171/8
f 57/306/9 58/307/10 55/308/11 56/309/12
f 2/170/13 6/169/14 7/174/15 8/175/16
f 46/214/17 45/215/18 47/216/19 48/217/20
f 8/175/21 7/174/22 9/182/23 10/183/24
f 42/218/25 41/219/26 43/220/27 44/221/28
f 10/183/29 9/182/30 11/190/31 12/191/32 63/192/33
f 38/222/34 37/223/35 39/224/36 40/225/37
f 12/191/38 11/190/39 13/196/40 14/197/41
f 34/226/42 33/227/43 35/228/44 36/229/45
f 14/197/46 13/196/47 15/201/48 16/202/49
f 30/230/50 29/231/51 31/232/52 32/233/53
f 16/202/54 15/201/55 17/205/56 18/206/57
f 26/234/58 25/235/59 27/236/60 28/237/61
f 18/206/62 17/205/63 19/209/64 20/210/65
f 22/238/66 21/239/67 23/240/68 24/241/69
f 19/310/70 24/311/71 23/312/72 20/313/73
f 4/322/74 3/323/75 49/324/76 52/325/77
f 5/168/78 1/171/79 54/178/80 53/179/81
f 3/242/82 4/243/83 56/244/84 55/245/85
f 59/326/86 60/327/87 61/328/88 62/329/89
f 53/179/90 54/178/91 60/186/92 59/187/93
f 58/246/94 57/247/95 62/248/96 61/249/97
f 45/342/98 46/343/99 51/344/100 50/345/101
f 41/346/102 42/347/103 48/348/104 47/349/105
f 37/350/106 38/351/107 44/352/108 43/353/109
f 33/354/110 34/355/111 40/356/112 39/357/113
f 29/358/114 30/359/115 36/360/116 35/361/117
f 25/362/118 26/363/119 32/364/120 31/365/121
f 21/366/122 22/367/123 28/368/124 27/369/125
f 64/1/126 65/2/127 66/3/128 67/4/129
f 67/4/130 66/3/131 68/9/132 69/10/133
f 70/11/134 71/12/135 72/6/136 73/5/137
f 73/5/138 72/6/139 65/2/140 64/1/141
f 74/34/142 75/33/143 76/37/144
f 78/17/145 77/18/146 71/12/147 70/11/148
f 80/21/149 79/22/150 77/18/151 78/17/152
f 82/25/153 81/26/154 79/22/155 80/21/156
f 82/25/157 83/29/158 84/30/159 81/26/160
f 84/30/161 83/29/162 75/33/163 74/34/164
f 86/42/165 87/43/166 88/44/167 89/45/168
f 90/50/169 91/51/170 92/47/171 93/46/172
f 93/46/173 92/47/174 87/43/175 86/42/176
f 94/59/177 95/60/178 96/55/179 97/54/180
f 97/54/181 96/55/182 98/56/183 91/51/184 90/50/185
f 99/63/186 100/64/187 95/60/188 94/59/189
f 101/67/190 100/64/191 99/63/192 102/68/193
f 103/74/194 104/73/195 105/77/196 106/78/197
f 101/67/198 102/68/199 104/73/200 103/74/201
f 106/78/202 105/77/203 107/81/204
f 17/205/205 15/201/206 64/204/207 67/208/208
f 24/311/209 19/310/210 69/314/211 68/315/212
f 19/209/213 17/205/214 67/208/215 69/212/216
f 13/196/217 11/190/218 70/195/219 73/200/220
f 15/201/221 13/196/222 73/200/223 64/204/224
f 53/179/225 59/187/226 76/188/227 75/180/228
f 11/190/229 9/182/230 78/189/231 70/195/232
f 9/182/233 7/174/234 80/181/235 78/189/236
f 7/174/237 6/169/238 82/173/239 80/181/240
f 6/169/241 5/168/242 83/172/243 82/173/244
f 5/168/245 53/179/246 75/180/247 83/172/248
f 59/326/249 62/329/250 85/332/251 76/333/252
f 110/336/253 109/340/254 111/341/255 112/337/256
f 114/250/257 113/251/258 115/252/259 116/253/260
f 117/254/261 118/255/262 119/256/263 120/257/264
f 121/258/265 122/259/266 123/260/267 124/261/268
f 125/262/269 126/263/270 127/264/271 128/265/272
f 129/266/273 130/267/274 131/268/275 132/269/276
f 133/370/277 134/371/278 135/372/279 136/373/280
f 137/270/281 138/271/282 139/272/283 140/273/284
f 141/374/285 142/375/286 143/376/287 144/377/288
f 145/274/289 146/275/290 147/276/291 148/277/292
f 18/206/293 20/210/294 88/213/295 87/211/296
f 20/313/297 23/312/298 89/316/299 88/317/300
f 14/197/301 16/202/302 92/207/303 91/203/304
f 16/202/305 18/206/306 87/211/307 92/207/308
f 10/183/309 63/192/310 96/199/311 95/193/312
f 63/192/313 12/191/314 98/198/315 96/199/316
f 12/191/317 14/197/318 91/203/319 98/198/320
f 8/175/321 10/183/322 95/193/323 100/184/324
f 2/170/325 8/175/326 100/184/327 101/176/328
f 54/178/329 1/171/330 103/177/331 106/185/332
f 1/171/333 2/170/334 101/176/335 103/177/336
f 60/186/337 54/178/338 106/185/339 107/194/340
f 150/278/341 149/279/342 151/280/343 152/281/344
f 154/378/345 153/379/346 155/380/347 156/381/348
f 158/282/349 157/283/350 159/284/351 160/285/352
f 162/382/353 161/383/354 163/384/355 164/385/356
f 166/286/357 165/287/358 167/288/359 168/289/360
f 170/290/361 169/291/362 171/292/363 172/293/364
f 174/294/365 173/295/366 175/296/367 176/297/368
f 178/298/369 177/299/370 179/300/371 180/301/372
f 181/302/373 182/303/374 183/304/375 184/305/376
f 185/338/377 186/335/378 187/334/379 188/339/380
f 61/328/381 60/327/382 107/330/383 108/331/384
f 85/332/385 62/329/386 110/336/387 112/337/388
f 24/311/389 68/315/390 147/318/391 146/319/392
f 23/84/393 21/85/394 149/86/395 150/87/396
f 89/316/397 23/312/398 150/320/399 152/321/400
f 27/88/401 25/89/402 153/90/403 154/91/404
f 31/92/405 29/93/406 157/94/407 158/95/408
f 35/96/409 33/97/410 161/98/411 162/99/412
f 39/100/413 37/101/414 165/102/415 166/103/416
f 43/104/417 41/105/418 169/106/419 170/107/420
f 47/108/421 45/109/422 173/110/423 174/111/424
f 50/112/425 49/113/426 177/114/427 178/115/428
f 3/116/429 55/117/430 182/118/431 181/119/432
f 58/120/433 61/121/434 186/122/435 185/123/436
f 61/328/437 108/331/438 187/334/439 186/335/440
f 68/9/441 66/3/442 148/15/443 147/16/444
f 66/3/445 65/2/446 144/7/447 143/8/448
f 65/2/449 72/6/450 140/13/451 139/14/452
f 72/6/453 71/12/454 136/19/455 135/20/456
f 71/12/457 77/18/458 132/23/459 131/24/460
f 77/18/461 79/22/462 128/27/463 127/28/464
f 79/22/465 81/26/466 124/31/467 123/32/468
f 81/26/469 84/30/470 120/35/471 119/36/472
f 84/30/473 74/34/474 116/38/475 115/39/476
f 74/34/477 76/37/478 112/40/479 111/41/480
f 62/124/481 57/125/482 109/126/483 110/127/484
f 56/128/485 4/129/486 113/130/487 114/131/488
f 52/132/489 51/133/490 118/134/491 117/135/492
f 46/136/493 48/137/494 122/138/495 121/139/496
f 42/140/497 44/141/498 126/142/499 125/143/500
f 38/144/501 40/145/502 130/146/503 129/147/504
f 34/148/505 36/149/506 134/150/507 133/151/508
f 30/152/509 32/153/510 138/154/511 137/155/512
f 26/156/513 28/157/514 142/158/515 141/159/516
f 22/160/517 24/161/518 146/162/519 145/163/520
f 107/81/521 105/77/522 188/82/523 187/83/524
f 105/77/525 104/73/526 184/79/527 183/80/528
f 104/73/529 102/68/530 180/75/531 179/76/532
f 102/68/533 99/63/534 176/71/535 175/72/536
f 99/63/537 94/59/538 172/69/539 171/70/540
f 94/59/541 97/54/542 168/65/543 167/66/544
f 97/54/545 90/50/546 164/61/547 163/62/548
f 90/50/549 93/46/550 160/57/551 159/58/552
f 93/46/553 86/42/554 156/52/555 155/53/556
f 86/42/557 89/45/558 152/48/559 151/49/560
