# This file uses centimeters as units for non-parametric coordinates.

mtllib ToRight_Pathway.mtl
g default
v -8.883450 0.142929 25.476514
v -7.334205 0.142929 39.174902
v -8.883450 0.460469 25.476514
v -7.334205 0.460469 39.174902
v -8.908177 0.460470 13.076496
v 5.065837 0.460470 39.174902
v -8.908177 0.142928 13.076496
v 5.065837 0.142928 39.174902
v 1.888726 0.460470 39.174902
v -8.901841 0.460470 16.253601
v -8.901841 0.142928 16.253601
v 1.888726 0.142928 39.174902
v -4.333834 0.460469 39.174902
v -8.889433 0.460469 22.476148
v -8.889433 0.142929 22.476148
v -4.333834 0.142929 39.174902
v -8.883450 0.811369 25.476514
v -7.334205 0.811369 39.174902
v -4.333834 0.811369 39.174902
v -8.889433 0.811369 22.476148
v 1.888726 0.811369 39.174902
v -8.901841 0.811369 16.253601
v 5.065837 0.811369 39.174902
v -8.908177 0.811369 13.076496
v -5.834020 0.961416 39.174902
v -8.886442 0.961416 23.976331
v -8.886442 0.546775 23.976331
v -8.886442 0.149975 23.976331
v -5.834020 0.149975 39.174902
v -5.834020 0.546775 39.174902
v -7.334209 0.811369 27.019589
v -5.834026 0.811369 27.016598
v -4.333843 0.892625 27.013606
v -4.333834 0.811369 33.091065
v -5.834020 0.811369 33.091065
v -7.334205 0.811369 33.091065
v -7.789248 0.811369 25.927193
v -6.730574 0.811369 24.864289
v -5.671900 0.748406 23.801384
v -4.333834 0.878559 36.132984
v -5.834020 0.811369 36.132984
v -7.334205 0.613063 36.132984
v -7.334205 0.914837 30.049145
v -5.834020 0.811369 30.049145
v -4.333834 0.937674 30.049145
v -4.683396 0.594987 25.274417
v -6.068239 0.811369 25.851276
v -7.453083 1.007004 26.428135
v -8.291526 0.620474 25.593029
v -7.720195 0.811369 24.205896
v -7.148864 0.963570 22.818763
v 3.477281 0.870829 39.174902
v -8.905009 0.870829 14.665048
v 1.888704 0.811369 27.001198
v 3.477257 0.811369 26.998031
v 5.065809 0.811369 26.994864
v 1.888726 0.775701 33.091065
v 3.477281 0.811369 33.091065
v 5.065837 0.811369 33.091065
v 1.888726 0.687461 36.132984
v 3.477281 0.811369 36.132984
v 5.065837 0.613063 36.132984
v 5.065837 0.914837 30.049145
v 3.477281 0.811369 30.049145
v 1.888726 0.937674 30.049145
v 0.961405 0.811369 17.141573
v -0.159631 0.811369 18.267089
v -1.280668 0.748406 19.392605
v 1.060740 0.594987 22.881688
v 2.527159 0.811369 22.270849
v 3.993577 1.007004 21.660010
v -3.569089 0.620474 14.127444
v -4.174075 0.811369 15.596287
v -4.779061 0.988045 17.065130
v -1.222554 0.460470 39.174902
v -8.895637 0.460470 19.364875
v -2.778194 0.460470 39.174902
v -8.892535 0.460470 20.920512
v 0.333086 0.460470 39.174902
v -8.898740 0.460470 17.809238
v 1.888704 0.460470 27.001198
v 0.333067 0.460470 27.004300
v -1.222569 0.548059 27.007402
v -2.778206 0.741499 27.010504
v -4.333843 0.548059 27.013606
v 1.888726 0.422022 33.091065
v 0.333086 0.337111 33.091065
v -1.222554 0.422022 33.091065
v -2.778194 0.460470 33.091065
v -4.333834 0.460470 33.091065
v 1.888726 0.358435 36.132984
v 0.333086 0.460470 36.132984
v -1.222554 0.532897 36.132984
v -2.778194 0.692849 36.132984
v -4.333834 0.532897 36.132984
v 1.888726 0.564479 30.049145
v 0.333086 0.460470 30.049145
v -1.222554 0.460470 30.049145
v -2.778194 0.460470 30.049145
v -4.333834 0.564479 30.049145
v -1.280668 0.408621 19.392605
v -2.378476 0.548190 20.494800
v -3.476283 0.741919 21.596994
v -4.574092 0.548190 22.699189
v -5.671900 0.408621 23.801384
v -3.247362 0.460470 24.676235
v -4.683396 0.282284 25.274417
v 1.060740 0.282284 22.881688
v -0.375294 0.460470 23.479870
v -1.811328 0.460470 24.078053
v -4.779061 0.605958 17.065130
v -5.371512 0.460470 18.503538
v -5.963963 0.434087 19.941946
v -6.556413 0.375823 21.380355
v -7.148864 0.579257 22.818763
v 3.477281 0.460470 39.174902
v 3.477281 0.142928 39.174902
v -8.905009 0.142928 14.665048
v -8.905009 0.460470 14.665048
v -1.222554 0.142928 39.174902
v -8.895637 0.142928 19.364875
v 0.333086 0.142928 39.174902
v -8.898740 0.142928 17.809238
v -2.778194 0.142929 39.174902
v -8.892535 0.142929 20.920512
v 5.065809 0.460470 26.994864
v 5.065809 0.142928 26.994864
v 3.477257 0.142928 26.998031
v 1.888704 0.142928 27.001198
v 0.333067 0.142928 27.004300
v -1.222569 0.225310 27.007402
v -2.778206 0.412895 27.010504
v -4.333843 0.225310 27.013606
v -5.834026 0.142928 27.016598
v -7.334209 0.142928 27.019589
v -7.334209 0.460470 27.019589
v 5.065837 0.460470 33.091065
v 5.065837 0.142928 33.091065
v 3.477281 0.142928 33.091065
v 1.888726 0.106767 33.091065
v 0.333086 0.024425 33.091065
v -1.222554 0.106767 33.091065
v -2.778194 0.142928 33.091065
v -4.333834 0.142928 33.091065
v -5.834020 0.142928 33.091065
v -7.334205 0.142928 33.091065
v -7.334205 0.460470 33.091065
v 5.065837 0.519983 30.049145
v 5.065837 0.147787 30.049145
v 3.477281 0.142928 30.049145
v 1.888726 0.200959 30.049145
v 0.333086 0.142928 30.049145
v -1.222554 0.142928 30.049145
v -2.778194 0.142928 30.049145
v -4.333834 0.200959 30.049145
v -5.834020 0.142928 30.049145
v -7.334205 0.147787 30.049145
v -7.334205 0.519983 30.049145
v 5.065837 0.346407 36.132984
v 5.065837 0.133616 36.132984
v 3.477281 0.142928 36.132984
v 1.888726 0.085999 36.132984
v 0.333086 0.142928 36.132984
v -1.222554 0.211049 36.132984
v -2.778194 0.366161 36.132984
v -4.333834 0.211049 36.132984
v -5.834020 0.142928 36.132984
v -7.334205 0.133616 36.132984
v -7.334205 0.346406 36.132984
v 0.961405 0.460470 17.141573
v 0.961405 0.142928 17.141573
v -0.159631 0.142928 18.267089
v -1.280668 0.114000 19.392605
v -2.378476 0.225433 20.494800
v -3.476283 0.413298 21.596994
v -4.574092 0.225433 22.699189
v -5.671900 0.114000 23.801384
v -6.730574 0.142928 24.864289
v -7.789248 0.142928 25.927193
v -7.789248 0.460470 25.927193
v 3.993577 0.572997 21.660010
v 3.993577 0.152116 21.660010
v 2.527159 0.142928 22.270849
v 1.060740 0.043512 22.881688
v -0.375294 0.142928 23.479870
v -1.811328 0.142928 24.078053
v -3.247362 0.142928 24.676235
v -4.683396 0.043512 25.274417
v -6.068239 0.142928 25.851276
v -7.453083 0.152116 26.428135
v -7.453083 0.572997 26.428135
v -3.569089 0.350669 14.127444
v -3.569089 0.133964 14.127444
v -4.174075 0.142928 15.596287
v -4.779061 0.224102 17.065130
v -5.371512 0.142928 18.503538
v -5.963963 0.118115 19.941946
v -6.556413 0.061614 21.380355
v -7.148864 0.199214 22.818763
v -7.720195 0.142928 24.205896
v -8.291526 0.133964 25.593029
v -8.291526 0.350669 25.593029
vt 0.431753 0.853795
vt 0.430307 0.761274
vt 0.447523 0.853795
vt 0.450372 0.926517
vt 0.137194 0.044818
vt 0.155813 0.041403
vt 0.155813 0.195305
vt 0.137194 0.237135
vt 0.155813 0.365376
vt 0.137194 0.438099
vt 0.118574 0.041403
vt 0.118574 0.195305
vt 0.118574 0.365376
vt 0.099267 0.195305
vt 0.099267 0.041403
vt 0.079959 0.195305
vt 0.079959 0.041403
vt 0.060652 0.195305
vt 0.060652 0.041403
vt 0.087121 0.029377
vt 0.104974 0.001992
vt 0.041344 0.041403
vt 0.041344 0.195305
vt 0.069269 0.195305
vt 0.051416 0.265819
vt 0.021627 0.195305
vt 0.021627 0.041403
vt 0.001911 0.041403
vt 0.001911 0.195305
vt 0.021627 0.394194
vt 0.041344 0.365376
vt 0.001911 0.365376
vt 0.698034 0.658949
vt 0.712003 0.628433
vt 0.755307 0.554075
vt 0.747726 0.658949
vt 0.712003 0.463750
vt 0.755307 0.402518
vt 0.806437 0.658949
vt 0.806397 0.658949
vt 0.684064 0.658949
vt 0.740145 0.753767
vt 0.806437 0.488879
vt 0.806358 0.658949
vt 0.844266 0.539289
vt 0.844266 0.720165
vt 0.844266 0.658949
vt 0.844266 0.709097
vt 0.806475 0.488879
vt 0.844266 0.488879
vt 0.882021 0.470244
vt 0.882021 0.641662
vt 0.882021 0.429090
vt 0.919775 0.439425
vt 0.919775 0.598894
vt 0.957530 0.488879
vt 0.957530 0.658949
vt 0.882021 0.658949
vt 0.919775 0.658949
vt 0.957530 0.687767
vt 0.914968 0.870225
vt 0.914968 0.792700
vt 0.952723 0.757597
vt 0.952723 0.757597
vt 0.877214 0.757597
vt 0.877214 0.757597
vt 0.310942 0.234366
vt 0.310942 0.105126
vt 0.348697 0.160408
vt 0.348697 0.330479
vt 0.273188 0.330479
vt 0.273188 0.160408
vt 0.310942 0.001992
vt 0.348697 0.006506
vt 0.310942 0.330479
vt 0.348697 0.403202
vt 0.235433 0.380626
vt 0.235433 0.189253
vt 0.273188 0.006506
vt 0.273188 0.330479
vt 0.197832 0.330479
vt 0.197832 0.160408
vt 0.235433 0.008861
vt 0.273188 0.330479
vt 0.310942 0.363043
vt 0.190491 0.425297
vt 0.190491 0.214947
vt 0.197832 0.006506
vt 0.235433 0.391695
vt 0.235433 0.330479
vt 0.184274 0.330479
vt 0.184274 0.160408
vt 0.190491 0.010959
vt 0.197758 0.369861
vt 0.197795 0.330479
vt 0.180126 0.237958
vt 0.180126 0.107192
vt 0.184274 0.006506
vt 0.180126 0.002161
vt 0.162910 0.330479
vt 0.171082 0.330479
vt 0.495077 0.718123
vt 0.495077 0.685558
vt 0.457322 0.758281
vt 0.457322 0.685558
vt 0.457322 0.515487
vt 0.495077 0.550591
vt 0.532831 0.515488
vt 0.532831 0.685558
vt 0.570586 0.565898
vt 0.570586 0.746774
vt 0.570586 0.515488
vt 0.532831 0.515488
vt 0.608261 0.557940
vt 0.608261 0.724940
vt 0.570586 0.515488
vt 0.532831 0.496853
vt 0.629847 0.429127
vt 0.629847 0.580684
vt 0.495077 0.628115
vt 0.495077 0.550591
vt 0.570586 0.515488
vt 0.532831 0.455699
vt 0.648130 0.490359
vt 0.648130 0.655042
vt 0.457322 0.515488
vt 0.457322 0.515488
vt 0.495077 0.515488
vt 0.608377 0.515488
vt 0.608338 0.557940
vt 0.660326 0.573061
vt 0.660326 0.759325
vt 0.634937 0.685558
vt 0.622688 0.685558
vt 0.457322 0.515488
vt 0.661809 0.558003
vt 0.678178 0.474462
vt 0.643109 0.685558
vt 0.495077 0.466034
vt 0.457322 0.515488
vt 0.845355 0.892466
vt 0.845318 0.892466
vt 0.807716 0.942614
vt 0.807716 0.892466
vt 0.859818 0.892466
vt 0.852659 0.987285
vt 0.769962 0.892466
vt 0.769962 0.892466
vt 0.611111 0.933467
vt 0.611111 0.994683
vt 0.573357 0.916180
vt 0.573357 0.933467
vt 0.648980 0.933467
vt 0.648941 0.933467
vt 0.432053 0.980495
vt 0.432053 0.930347
vt 0.469807 0.930347
vt 0.469807 0.930347
vt 0.431020 0.330479
vt 0.431020 0.330479
vt 0.393265 0.330479
vt 0.393265 0.234366
vt 0.355511 0.359297
vt 0.355511 0.330479
vt 0.393265 0.105126
vt 0.431020 0.160408
vt 0.355511 0.160408
vt 0.393265 0.001992
vt 0.431020 0.006506
vt 0.468774 0.189253
vt 0.468774 0.380626
vt 0.355511 0.006506
vt 0.468774 0.008861
vt 0.506683 0.160408
vt 0.506683 0.330479
vt 0.506683 0.006506
vt 0.572896 0.214947
vt 0.572896 0.425297
vt 0.572896 0.010959
vt 0.628976 0.160408
vt 0.628976 0.330479
vt 0.628976 0.006506
vt 0.666386 0.107192
vt 0.666386 0.237958
vt 0.666386 0.002161
vt 0.870105 0.788113
vt 0.851874 0.873742
vt 0.822987 0.757597
vt 0.836956 0.788113
vt 0.053117 0.726586
vt 0.045693 0.812947
vt 0.001950 0.812947
vt 0.001988 0.812947
vt 0.096422 0.787818
vt 0.082742 0.855463
vt 0.038268 0.812947
vt 0.001911 0.855399
vt 0.107457 0.812947
vt 0.125309 0.883461
vt 0.069062 0.949357
vt 0.157530 0.824764
vt 0.164954 0.738403
vt 0.186540 0.867216
vt 0.186501 0.960970
vt 0.132992 0.867279
vt 0.146671 0.799635
vt 0.224215 0.875174
vt 0.224215 0.824764
vt 0.713017 0.805607
vt 0.712978 0.899361
vt 0.675264 0.763155
vt 0.675264 0.763155
vt 0.749374 0.763155
vt 0.741950 0.763155
vt 0.407021 0.756875
vt 0.423390 0.840416
vt 0.409710 0.934310
vt 0.389168 0.785114
vt 0.256432 0.592945
vt 0.216504 0.592983
vt 0.216504 0.555192
vt 0.216504 0.555192
vt 0.216504 0.629302
vt 0.216504 0.636726
vt 0.159069 0.517437
vt 0.198977 0.517437
vt 0.347348 0.592906
vt 0.216504 0.555192
vt 0.347544 0.660096
vt 0.256492 0.673775
vt 0.168320 0.644150
vt 0.216504 0.593021
vt 0.216504 0.479683
vt 0.249520 0.479683
vt 0.216504 0.517437
vt 0.202483 0.687455
vt 0.216504 0.441928
vt 0.216504 0.441928
vt 0.324698 0.479683
vt 0.244630 0.555192
vt 0.216504 0.517437
vt 0.216504 0.698490
vt 0.255846 0.716343
vt 0.188912 0.479683
vt 0.216504 0.441928
vt 0.216504 0.441928
vt 0.216504 0.734573
vt 0.216504 0.701424
vt 0.294081 0.844987
vt 0.294120 0.935903
vt 0.256406 0.805059
vt 0.256406 0.833185
vt 0.315667 0.756875
vt 0.323091 0.805059
vt 0.333949 0.791039
vt 0.347629 0.845047
vt 0.346145 0.832339
vt 0.363998 0.765649
vt 0.381851 0.793033
vt 0.361309 0.936099
vt 0.456485 0.763192
vt 0.496413 0.763155
vt 0.484611 0.800830
vt 0.456485 0.800830
vt 0.456485 0.838585
vt 0.456485 0.838585
vt 0.489501 0.876339
vt 0.456485 0.876339
vt 0.456485 0.838585
vt 0.564679 0.876339
vt 0.456485 0.914094
vt 0.459900 0.914094
vt 0.549944 0.917924
vt 0.567470 0.917924
vt 0.567470 0.955678
vt 0.539879 0.955678
vt 0.567470 0.993433
vt 0.567470 0.993433
vt 0.692620 0.960829
vt 0.692620 0.988954
vt 0.654866 0.943302
vt 0.654866 0.903394
vt 0.730411 0.960829
vt 0.730450 0.960829
vt 0.903459 0.910588
vt 0.903459 0.985766
vt 0.865705 0.877572
vt 0.865705 0.877572
vt 0.943509 0.888024
vt 0.957530 0.874054
vt 0.957530 0.923747
vt 0.909346 0.931328
vt 0.957530 0.982418
vt 0.957530 0.982457
vt 0.521742 0.966108
vt 0.508550 0.952087
vt 0.526833 0.917924
vt 0.533992 0.966108
vt 0.513571 0.966108
vt 0.496354 0.993388
vt 0.230246 0.757022
vt 0.237621 0.759872
vt 0.234008 0.777088
vt 0.230264 0.775642
vt 0.230227 0.738403
vt 0.241234 0.742655
vt 0.243880 0.768043
vt 0.237184 0.781235
vt 0.248068 0.780293
vt 0.239310 0.787453
vt 0.249550 0.794756
vt 0.240062 0.794793
vt 0.249550 0.832395
vt 0.240062 0.832395
vt 0.249550 0.870149
vt 0.240062 0.870149
vt 0.249550 0.907904
vt 0.240062 0.907904
vt 0.249550 0.945659
vt 0.240062 0.945659
vt 0.353430 0.429127
vt 0.387196 0.442171
vt 0.383370 0.460401
vt 0.353450 0.448843
vt 0.415848 0.479580
vt 0.408758 0.493550
vt 0.379544 0.478631
vt 0.353470 0.468559
vt 0.435024 0.535661
vt 0.425750 0.543242
vt 0.375797 0.496484
vt 0.353490 0.487867
vt 0.441805 0.601874
vt 0.431759 0.601913
vt 0.372050 0.514337
vt 0.353510 0.507175
vt 0.441805 0.639782
vt 0.431759 0.639782
vt 0.441805 0.677537
vt 0.431759 0.677537
vt 0.421712 0.601953
vt 0.421712 0.639782
vt 0.441805 0.715291
vt 0.431759 0.715291
vt 0.421712 0.677537
vt 0.441805 0.753046
vt 0.431759 0.753046
vt 0.319860 0.942778
vt 0.327235 0.939929
vt 0.330849 0.957145
vt 0.319841 0.961397
vt 0.397973 0.975895
vt 0.388134 0.975895
vt 0.388134 0.938140
vt 0.397973 0.938140
vt 0.403879 0.963155
vt 0.422419 0.955993
vt 0.426166 0.973845
vt 0.403859 0.982463
vt 0.403898 0.943847
vt 0.418673 0.938140
vt 0.372410 0.939929
vt 0.382248 0.939929
vt 0.382248 0.977683
vt 0.372410 0.977683
vt 0.447692 0.433472
vt 0.451435 0.429127
vt 0.451435 0.534157
vt 0.447692 0.587374
vt 0.451435 0.664923
vt 0.447692 0.757444
vt 0.759410 0.200880
vt 0.793175 0.254098
vt 0.793175 0.359128
vt 0.759410 0.354783
vt 0.793175 0.123331
vt 0.759410 0.030810
vt 0.759430 0.001992
vt 0.789349 0.030810
vt 0.814738 0.030810
vt 0.821827 0.030810
vt 0.673394 0.001993
vt 0.682882 0.005408
vt 0.682882 0.197725
vt 0.673394 0.155895
vt 0.692369 0.001993
vt 0.692369 0.155895
vt 0.682882 0.398688
vt 0.673394 0.325965
vt 0.702207 0.001993
vt 0.702207 0.155895
vt 0.692369 0.325965
vt 0.712046 0.001992
vt 0.712046 0.155895
vt 0.721884 0.001992
vt 0.721884 0.155895
vt 0.731722 0.001992
vt 0.731722 0.155895
vt 0.741768 0.001992
vt 0.741768 0.155895
vt 0.751815 0.001992
vt 0.751815 0.155895
vt 0.741768 0.354783
vt 0.731722 0.325965
vt 0.751815 0.325965
vt 0.149436 0.441928
vt 0.149436 0.628193
vt 0.138428 0.685766
vt 0.138428 0.515695
vt 0.153183 0.726791
vt 0.138409 0.685765
vt 0.611096 0.907410
vt 0.602338 0.802536
vt 0.603819 0.802536
vt 0.613306 0.763154
vt 0.759887 0.998008
vt 0.753191 0.998008
vt 0.755317 0.903190
vt 0.764075 0.998008
vt 0.572419 0.912350
vt 0.588152 0.763154
vt 0.595095 0.857048
vt 0.576166 0.899563
vt 0.657898 0.899564
vt 0.650955 0.805670
vt 0.659346 0.763155
vt 0.668428 0.763155
vt 0.084324 0.467057
vt 0.110397 0.537571
vt 0.110397 0.722757
vt 0.084324 0.637128
vt 0.132522 0.441928
vt 0.132522 0.606611
vt 0.475694 0.957334
vt 0.490468 0.917924
vt 0.486721 0.984614
vt 0.475713 0.957334
vt 0.755670 0.848650
vt 0.762613 0.757597
vt 0.773142 0.888637
vt 0.764060 0.888637
vt 0.736336 0.951375
vt 0.745094 0.903191
vt 0.747305 0.991302
vt 0.737817 0.951375
vt 0.621037 0.763155
vt 0.624784 0.775181
vt 0.643712 0.815169
vt 0.636769 0.906221
vt 0.346807 0.969828
vt 0.336735 0.943755
vt 0.354965 0.939928
vt 0.366523 0.969848
vt 0.787403 0.757597
vt 0.779979 0.757597
vt 0.816336 0.797525
vt 0.816375 0.888441
vn -0.193135 0.000000 0.981172
vn -0.395673 0.000000 0.918392
vn -0.380948 0.000000 0.924597
vn -0.193134 0.000000 0.981172
vn 0.160378 0.976074 0.146826
vn 0.160378 0.976074 0.146826
vn 0.141886 0.981302 0.130056
vn 0.051182 0.997545 0.047786
vn 0.193134 0.000000 -0.981172
vn 0.381424 0.000000 -0.924400
vn 0.382567 0.000000 -0.923928
vn 0.193134 0.000000 -0.981172
vn 0.011971 -0.999862 -0.011501
vn -0.004093 -0.999886 -0.014542
vn 0.000397 -0.999996 -0.002700
vn -0.007716 -0.999945 -0.007064
vn 0.000000 0.000000 1.000000
vn -0.000000 0.000000 1.000000
vn -0.000000 0.000000 1.000000
vn 0.000000 0.000000 1.000000
vn -0.999998 0.000000 0.001994
vn -0.999998 0.000000 0.001994
vn -0.999998 0.000000 0.001994
vn -0.999998 0.000000 0.001994
vn -0.064696 0.995863 0.063806
vn -0.064696 0.995863 0.063806
vn -0.064696 0.995863 0.063806
vn -0.064696 0.995863 0.063806
vn -0.999998 0.000000 0.001994
vn -0.999998 0.000000 0.001994
vn -0.999998 0.000000 0.001994
vn -0.999998 0.000000 0.001994
vn -0.001413 -0.999995 0.002654
vn -0.001229 -0.999996 0.002730
vn -0.003282 -0.999952 0.009247
vn 0.000423 -0.999936 0.011338
vn 0.000000 0.000000 1.000000
vn 0.000000 0.000000 1.000000
vn 0.000000 0.000000 1.000000
vn 0.000000 0.000000 1.000000
vn -0.051279 0.997433 0.049973
vn -0.051279 0.997433 0.049973
vn -0.051279 0.997433 0.049973
vn -0.051279 0.997433 0.049973
vn -0.999998 0.000000 0.001994
vn -0.999998 0.000000 0.001994
vn -0.999998 0.000000 0.001994
vn -0.999998 0.000000 0.001994
vn 0.008330 -0.999940 0.007131
vn -0.003196 -0.999986 0.004318
vn 0.006973 -0.999902 0.012175
vn 0.009351 -0.999779 -0.018805
vn 0.000000 0.000000 1.000000
vn 0.000000 0.000000 1.000000
vn -0.000001 0.000000 1.000000
vn -0.000001 0.000000 1.000000
vn -1.000000 0.000000 0.000000
vn -1.000000 0.000000 0.000000
vn -1.000000 0.000000 0.000000
vn -1.000000 0.000000 0.000000
vn 0.000000 0.000000 1.000000
vn 0.000000 0.000000 1.000000
vn 0.371963 0.000000 -0.928248
vn 0.380017 0.000000 -0.924980
vn 0.193134 0.000000 -0.981172
vn 0.193134 0.000000 -0.981172
vn -0.999998 0.000000 0.001994
vn -0.999998 0.000000 0.001994
vn -1.000000 0.000000 0.000000
vn -1.000000 0.000000 0.000000
vn -1.000000 0.000000 0.000000
vn -1.000000 0.000000 0.000000
vn 0.000000 0.000000 1.000000
vn 0.000000 0.000000 1.000000
vn 0.377520 0.000000 -0.926002
vn 0.193134 0.000000 -0.981172
vn -0.999998 0.000000 0.001994
vn -0.999998 0.000000 0.001994
vn -0.000855 0.999999 0.000578
vn -0.000855 0.999999 0.000578
vn -0.999998 0.000000 0.001994
vn -0.999998 0.000000 0.001994
vn -0.999998 0.000000 0.001994
vn -0.003158 -0.999702 0.024188
vn 0.002305 -0.999961 0.008549
vn 0.000000 0.000000 1.000000
vn -0.090907 0.994629 -0.049490
vn -0.115142 0.991725 -0.056785
vn -0.115142 0.991725 -0.056785
vn -0.044173 0.998397 -0.035382
vn 0.027602 0.999526 -0.013613
vn 0.027602 0.999526 -0.013613
vn -0.069019 0.997588 -0.007406
vn -0.017460 0.999773 -0.012233
vn -0.017381 0.999774 -0.012241
vn -0.069019 0.997588 -0.007406
vn 0.034443 0.999261 -0.017055
vn 0.034443 0.999261 -0.017055
vn 0.047172 0.998264 -0.035265
vn 0.085991 0.991929 0.093179
vn 0.085991 0.991929 0.093179
vn 0.047178 0.998264 -0.035248
vn 0.025070 0.993954 -0.106894
vn 0.025070 0.993954 -0.106894
vn -0.022387 0.999688 -0.011041
vn -0.044198 0.998965 0.010765
vn -0.044198 0.998965 0.010765
vn -0.022387 0.999688 -0.011041
vn -0.065915 0.997296 0.032507
vn -0.065915 0.997295 0.032507
vn -0.003805 0.999815 0.018880
vn 0.034460 0.999262 0.016994
vn 0.034460 0.999262 0.016994
vn -0.003805 0.999815 0.018880
vn -0.042050 0.998900 0.020738
vn -0.042050 0.998900 0.020738
vn 0.107056 0.994204 -0.009838
vn 0.084156 0.995877 -0.033850
vn 0.063409 0.996444 -0.055489
vn 0.107056 0.994204 -0.009838
vn -0.005588 0.991929 -0.126671
vn -0.005588 0.991929 -0.126671
vn -0.013061 0.999046 0.041675
vn -0.123670 0.992311 -0.004961
vn -0.123670 0.992311 -0.004961
vn -0.035261 0.998854 0.032370
vn 0.043535 0.996917 0.065275
vn 0.043535 0.996917 0.065275
vn -0.062619 0.997854 0.019115
vn -0.062619 0.997854 0.019115
vn -0.062619 0.997854 0.019115
vn -0.062619 0.997854 0.019115
vn 0.028507 0.999240 0.026603
vn 0.028507 0.999239 0.026603
vn 0.028507 0.999240 0.026603
vn 0.028507 0.999240 0.026603
vn -0.032545 0.999326 0.016996
vn -0.032545 0.999326 0.016996
vn -0.032545 0.999326 0.016996
vn -0.032545 0.999326 0.016996
vn -0.050158 0.998636 0.014484
vn -0.050158 0.998636 0.014484
vn -0.050158 0.998636 0.014484
vn -0.050158 0.998636 0.014484
vn 0.062263 0.997530 0.032515
vn 0.062263 0.997530 0.032515
vn 0.062263 0.997530 0.032515
vn 0.062263 0.997530 0.032515
vn -0.057593 0.997887 -0.030076
vn -0.057593 0.997887 -0.030076
vn -0.057593 0.997887 -0.030076
vn -0.057593 0.997887 -0.030076
vn 0.080794 0.995837 -0.042193
vn 0.080794 0.995837 -0.042193
vn 0.080794 0.995837 -0.042193
vn 0.080794 0.995837 -0.042193
vn -0.032562 0.999326 -0.016935
vn -0.032562 0.999326 -0.016935
vn -0.032562 0.999326 -0.016935
vn -0.032562 0.999326 -0.016935
vn 0.039694 0.998998 -0.020689
vn 0.039694 0.998998 -0.020689
vn 0.039694 0.998998 -0.020689
vn 0.039694 0.998998 -0.020689
vn 0.018410 0.997957 -0.061182
vn 0.018410 0.997957 -0.061182
vn 0.018410 0.997957 -0.061182
vn 0.018410 0.997957 -0.061182
vn 0.042281 0.998983 -0.015657
vn 0.042281 0.998983 -0.015657
vn 0.042281 0.998983 -0.015657
vn 0.042281 0.998983 -0.015657
vn -0.072609 0.997312 -0.009800
vn -0.072609 0.997312 -0.009800
vn -0.072609 0.997312 -0.009800
vn -0.072609 0.997312 -0.009800
vn -0.057672 0.997854 0.030992
vn -0.057672 0.997854 0.030992
vn -0.057672 0.997854 0.030992
vn -0.057672 0.997854 0.030992
vn 0.039313 0.996494 -0.073859
vn 0.039313 0.996494 -0.073859
vn 0.039313 0.996493 -0.073859
vn 0.039313 0.996493 -0.073859
vn -0.005476 0.999209 -0.039386
vn -0.005476 0.999209 -0.039386
vn -0.005476 0.999209 -0.039386
vn -0.005476 0.999209 -0.039386
vn 0.023271 0.999658 0.011901
vn 0.023271 0.999658 0.011901
vn 0.023271 0.999658 0.011901
vn 0.023271 0.999658 0.011901
vn 0.051279 0.997433 0.049972
vn 0.051279 0.997433 0.049972
vn 0.051279 0.997433 0.049972
vn 0.051279 0.997433 0.049972
vn 0.032773 0.999322 -0.016760
vn 0.032773 0.999322 -0.016760
vn 0.032773 0.999322 -0.016760
vn 0.032773 0.999322 -0.016760
vn 0.052641 0.998040 -0.033845
vn 0.052641 0.998040 -0.033845
vn 0.052641 0.998040 -0.033845
vn 0.052641 0.998040 -0.033845
vn 0.025506 0.999500 -0.018692
vn 0.025506 0.999500 -0.018692
vn 0.025506 0.999500 -0.018692
vn 0.025506 0.999500 -0.018692
vn 0.012156 0.999729 0.019861
vn 0.020158 0.999795 -0.002009
vn 0.048409 0.995662 -0.079457
vn 0.048409 0.995662 -0.079457
vn -0.143047 0.984302 -0.103378
vn -0.143047 0.984302 -0.103378
vn -0.143047 0.984302 -0.103378
vn -0.143047 0.984302 -0.103378
vn -0.060552 0.997214 0.043570
vn -0.060552 0.997214 0.043570
vn -0.060552 0.997214 0.043570
vn -0.060552 0.997214 0.043570
vn 0.027272 0.999275 0.026577
vn 0.027272 0.999275 0.026577
vn 0.027272 0.999275 0.026577
vn 0.027272 0.999275 0.026577
vn 0.012356 0.999904 0.006319
vn 0.012356 0.999904 0.006319
vn 0.012356 0.999904 0.006319
vn 0.012356 0.999904 0.006319
vn 0.033406 0.999296 0.017084
vn 0.033406 0.999296 0.017084
vn 0.033406 0.999296 0.017084
vn 0.033406 0.999296 0.017084
vn 0.005503 0.999937 -0.009824
vn 0.005503 0.999937 -0.009824
vn 0.005503 0.999937 -0.009824
vn 0.005503 0.999937 -0.009824
vn 0.050468 0.997986 -0.038424
vn 0.050468 0.997986 -0.038424
vn 0.050468 0.997986 -0.038424
vn 0.050468 0.997986 -0.038424
vn 0.063538 0.996395 -0.056217
vn 0.063538 0.996395 -0.056217
vn 0.063538 0.996395 -0.056217
vn 0.063538 0.996395 -0.056217
vn -0.051279 0.997433 -0.049972
vn -0.051279 0.997433 -0.049972
vn -0.051279 0.997433 -0.049972
vn -0.051279 0.997433 -0.049972
vn -0.033423 0.999296 -0.017059
vn -0.033423 0.999296 -0.017059
vn -0.033423 0.999296 -0.017059
vn -0.033423 0.999296 -0.017059
vn 0.028153 0.999500 0.014383
vn 0.028153 0.999500 0.014383
vn 0.028153 0.999500 0.014383
vn 0.028153 0.999500 0.014383
vn 0.062000 0.996247 0.060396
vn 0.062000 0.996247 0.060396
vn 0.062000 0.996247 0.060396
vn 0.062000 0.996247 0.060396
vn -0.028661 0.998642 0.043504
vn -0.028661 0.998642 0.043504
vn -0.028661 0.998642 0.043504
vn -0.028661 0.998642 0.043504
vn -0.014235 0.999405 0.031406
vn 0.010630 0.999899 0.009402
vn 0.010630 0.999899 0.009402
vn -0.013748 0.999426 0.030975
vn -0.008397 0.999399 -0.033644
vn -0.019587 0.996707 -0.078683
vn -0.019587 0.996707 -0.078683
vn -0.008740 0.999348 -0.035025
vn -0.058359 0.998080 0.020759
vn -0.119327 0.992672 0.019071
vn -0.119327 0.992672 0.019071
vn -0.056461 0.998188 0.020810
vn 0.008487 0.999213 -0.038739
vn 0.011244 0.999781 -0.017652
vn 0.011244 0.999781 -0.017652
vn 0.006716 0.998611 -0.052256
vn -0.057372 0.993319 0.100130
vn -0.057372 0.993319 0.100130
vn -0.057372 0.993319 0.100130
vn -0.057372 0.993319 0.100130
vn 0.101179 0.994251 -0.035025
vn 0.101179 0.994251 -0.035025
vn 0.101179 0.994251 -0.035025
vn 0.101179 0.994251 -0.035025
vn 0.083667 0.996431 0.011151
vn 0.083667 0.996431 0.011151
vn 0.083667 0.996431 0.011151
vn 0.083667 0.996431 0.011151
vn -0.014338 0.995649 0.092070
vn -0.014338 0.995649 0.092070
vn -0.027481 0.998692 0.043120
vn -0.027481 0.998692 0.043120
vn 0.002262 0.999955 0.009256
vn 0.002262 0.999955 0.009256
vn 0.016596 0.999604 0.022719
vn 0.016596 0.999604 0.022719
vn 0.004802 0.997752 -0.066848
vn 0.004802 0.997752 -0.066848
vn -0.193134 0.000000 0.981172
vn -0.379895 0.000000 0.925030
vn -0.375890 0.000000 0.926664
vn -0.193134 0.000000 0.981172
vn -0.799343 0.000000 0.600874
vn -0.601074 0.000000 0.799194
vn -0.916823 0.000000 0.399294
vn -0.925140 0.000000 0.379627
vn -0.986252 0.000000 0.165251
vn -0.999353 0.000000 0.035967
vn -1.000000 0.000000 0.000003
vn -1.000000 0.000000 0.000004
vn -1.000000 0.000000 0.000000
vn -1.000000 0.000000 0.000000
vn 1.000000 0.000000 0.000000
vn 1.000000 0.000000 0.000000
vn 1.000000 0.000000 0.000000
vn 1.000000 0.000000 0.000000
vn 1.000000 0.000000 0.000000
vn 1.000000 0.000000 0.000000
vn 1.000000 0.000000 -0.000001
vn 1.000000 0.000000 -0.000002
vn 0.994292 0.000000 -0.106691
vn 0.999974 0.000000 -0.007243
vn 0.899409 0.000000 -0.437109
vn 0.924750 0.000000 -0.380574
vn 0.815718 0.000000 -0.578450
vn 0.576455 0.000000 -0.817129
vn 0.000000 0.000000 1.000000
vn 0.000000 0.000000 1.000000
vn 0.000000 0.000000 1.000000
vn -0.999998 0.000000 0.001994
vn -0.006949 -0.999886 -0.013381
vn 0.036731 -0.999325 -0.000229
vn 0.038582 -0.999244 -0.004796
vn -0.015344 -0.999875 0.003677
vn -0.999998 0.000000 0.001994
vn -0.999998 0.000000 0.001994
vn -0.999998 0.000000 0.001994
vn -0.999998 0.000000 0.001994
vn -0.000001 0.000000 1.000000
vn -0.000001 0.000000 1.000000
vn 0.000000 0.000000 1.000000
vn 0.000000 0.000000 1.000000
vn 0.991568 0.000000 -0.129585
vn 1.000000 0.000000 -0.000005
vn 1.000000 0.000000 -0.000005
vn 0.991552 0.000000 -0.129709
vn 0.006567 -0.999975 0.002712
vn 0.002250 -0.999997 -0.000574
vn 0.001530 -0.999999 0.000000
vn -0.005521 -0.999984 -0.001484
vn 0.003468 -0.999941 0.010252
vn 0.008211 -0.999950 -0.005616
vn -0.016451 -0.999824 0.009049
vn 0.008063 -0.999797 -0.018469
vn -0.046429 -0.998914 0.003980
vn -0.031202 -0.999183 -0.025685
vn 0.001812 -0.999997 -0.001388
vn -0.024131 -0.999358 -0.026476
vn 0.068578 -0.997515 0.016139
vn 0.028948 -0.999366 -0.020751
vn 0.017140 -0.999811 0.009206
vn 0.015718 -0.999871 -0.003390
vn -0.002191 -0.999997 -0.000416
vn -0.001619 -0.999999 -0.000000
vn -0.999417 0.000000 0.034135
vn -0.999686 0.000000 0.025052
vn -1.000000 0.000000 0.000001
vn -1.000000 0.000000 0.000001
vn 1.000000 0.000000 0.000000
vn 1.000000 0.000000 0.000000
vn 1.000000 0.000000 0.000000
vn 1.000000 0.000000 0.000000
vn 0.005254 -0.999972 -0.005306
vn -0.000701 -0.999999 -0.001165
vn -0.002931 -0.999996 0.000000
vn 0.010339 -0.999945 0.001486
vn 0.026080 -0.999577 -0.012885
vn 0.010832 -0.999913 0.007555
vn -0.005385 -0.999984 -0.001925
vn -0.028305 -0.999475 0.015742
vn -0.036381 -0.999270 0.011679
vn -0.050271 -0.998716 0.006321
vn -0.017270 -0.999517 0.025853
vn -0.002906 -0.999995 0.001486
vn 0.018259 -0.999782 0.010167
vn 0.042102 -0.999113 0.000158
vn 0.010882 -0.999941 -0.000168
vn 0.012753 -0.999918 0.000740
vn 0.000742 -0.999999 -0.001165
vn 0.004278 -0.999991 0.000579
vn -1.000000 0.000000 0.000000
vn -1.000000 0.000000 0.000000
vn -1.000000 0.000000 0.000000
vn 1.000000 0.000000 0.000000
vn 1.000000 0.000000 0.000000
vn -0.002931 -0.999994 0.001531
vn 0.007493 -0.999957 0.005444
vn 0.000000 -0.999956 0.009357
vn -0.020092 -0.999798 -0.000920
vn -0.035836 -0.998922 -0.029511
vn -0.000000 -0.998855 -0.047835
vn 0.036466 -0.998862 -0.030729
vn 0.012903 -0.999910 -0.003675
vn 0.005452 -0.999982 0.002689
vn -1.000000 0.000000 0.000000
vn 0.721152 0.000000 -0.692777
vn 0.923073 0.000000 -0.384626
vn 0.922924 0.000000 -0.384983
vn 0.720819 0.000000 -0.693124
vn 0.000057 -0.999998 -0.002214
vn 0.000219 -0.999998 0.001804
vn 0.002866 -0.999995 -0.001094
vn 0.015663 -0.999854 -0.006806
vn -0.010806 -0.999930 -0.004843
vn -0.005722 -0.999979 0.002894
vn -0.033256 -0.998990 0.030198
vn -0.055008 -0.998403 0.012840
vn 0.002400 -0.999969 -0.007473
vn -0.033605 -0.999424 -0.004619
vn 0.061195 -0.996871 -0.050044
vn 0.035383 -0.999346 0.007482
vn 0.005299 -0.999259 -0.038132
vn 0.030370 -0.999486 0.010227
vn -0.023766 -0.999712 -0.003337
vn -0.013118 -0.999646 0.023155
vn 0.002278 -0.999990 0.003920
vn -0.002461 -0.999997 -0.000546
vn -0.718259 0.000000 0.695776
vn -0.669085 0.000000 0.743186
vn -0.922171 0.000000 0.386782
vn -0.923104 0.000000 0.384550
vn 1.000000 0.000000 0.000000
vn 1.000000 0.000000 0.000000
vn 1.000000 0.000000 0.000000
vn 1.000000 0.000000 -0.000005
vn 0.991551 0.000000 -0.129716
vn 0.926565 0.000000 -0.376134
vn 0.802271 0.000000 -0.596960
vn -0.380452 0.000000 0.924801
vn -0.193134 0.000000 0.981172
vn -0.827293 0.000000 0.561771
vn -0.927470 0.000000 0.373898
vn -0.999183 0.000000 0.040423
vn -1.000000 0.000000 0.000001
vn -1.000000 0.000000 0.000000
s 1
g pCube4
usemtl initialShadingGroup
f 1/366/1 201/367/2 202/368/3 3/369/4
s 2
f 17/1/5 49/2/6 50/3/7 26/4/8
s 3
f 5/372/9 192/373/10 193/374/11 7/375/12
s 4
f 28/301/13 200/302/14 201/303/15 1/304/16
s 5
f 2/382/17 29/383/18 30/384/19 4/385/20
s 6
f 28/5/21 1/6/22 3/7/23 27/8/24
s off
f 67/33/25 68/34/26 69/35/27 70/36/28
s 6
f 7/28/29 118/27/30 119/26/31 5/29/32
s 4
f 7/321/33 193/322/34 194/323/35 118/324/36
s 5
f 116/400/37 117/399/38 8/401/39 6/402/40
s off
f 94/61/41 95/62/42 13/63/43 77/64/44
s 6
f 11/22/45 123/19/46 80/18/47 10/23/48
s 4
f 11/328/49 195/327/50 196/331/51 123/332/52
s 5
f 13/387/53 16/386/54 124/390/55 77/391/56
s 1
f 42/67/57 169/68/58 4/69/59 18/70/60
s 5
f 4/385/20 30/384/19 25/388/61 18/389/62
s 12
f 51/406/63 115/407/64 14/408/65 20/409/66
s 6
f 27/8/24 3/7/23 17/9/67 26/10/68
s 13
f 60/55/69 91/54/70 9/56/71 21/57/72
s 5
f 52/403/73 116/400/37 6/402/40 23/405/74
s 3
f 72/376/75 192/373/10 5/372/9 24/377/76
s 6
f 5/29/32 119/26/31 53/30/77 24/32/78
s 2
f 26/348/8 50/349/7 51/350/79 20/351/80
s 6
f 14/12/81 27/8/24 26/10/68 20/13/82
f 15/11/83 28/5/21 27/8/24 14/12/81
s 4
f 15/305/84 199/306/85 200/302/14 28/301/13
s 5
f 30/384/19 29/383/18 16/386/54 13/387/53
f 25/388/61 30/384/19 13/387/53 19/392/86
s 14
f 41/75/87 42/67/88 18/70/89 25/76/90
f 40/102/91 41/103/87 25/104/90 19/105/92
s 15
f 33/94/93 32/95/94 44/90/95 45/89/96
f 32/141/94 31/142/97 43/143/98 44/144/95
s 16
f 47/145/99 48/146/100 31/142/101 32/141/102
f 46/412/103 47/413/99 32/414/102 33/415/104
s 17
f 34/84/105 35/80/106 41/75/107 40/85/108
f 35/80/106 36/71/109 42/67/110 41/75/107
s 18
f 44/144/111 43/143/112 36/147/113 35/148/114
f 45/89/115 44/90/111 35/80/114 34/84/116
s 19
f 39/125/117 38/133/118 47/134/119 46/119/120
f 38/416/118 37/417/121 48/418/122 47/419/119
s 20
f 50/100/123 49/96/124 37/91/125 38/101/126
f 51/132/127 50/138/123 38/133/126 39/125/128
s off
f 66/41/129 67/33/130 70/36/131 71/42/132
f 64/149/133 65/150/134 57/151/135 58/152/136
f 63/155/137 64/156/138 58/157/139 59/158/140
f 58/58/141 57/52/142 60/55/143 61/59/144
f 59/159/145 58/160/146 61/161/147 62/162/148
f 61/59/149 60/55/150 21/57/151 52/60/152
f 62/162/153 61/161/154 52/163/155 23/164/156
f 56/44/157 55/40/158 64/47/159 63/48/160
f 55/153/161 54/154/162 65/150/163 64/149/164
f 72/376/165 73/379/166 67/380/167 66/381/168
f 73/186/169 74/187/170 68/188/171 67/189/172
f 70/36/173 69/35/174 54/39/175 55/40/176
f 71/42/177 70/36/178 55/40/179 56/44/180
f 53/378/181 73/379/182 72/376/183 24/377/184
f 22/450/185 74/451/186 73/452/187 53/453/188
f 92/128/189 93/121/190 75/127/191 79/135/192
f 93/121/193 94/120/194 77/126/195 75/127/196
f 91/139/197 92/128/198 79/135/199 9/140/200
f 108/190/201 109/191/202 82/192/203 81/193/204
f 109/191/205 110/196/206 83/197/207 82/192/208
s 21
f 110/213/209 106/214/210 84/210/211 83/209/212
s off
f 106/201/213 107/202/214 85/203/215 84/204/216
f 96/45/217 97/50/218 87/53/219 86/51/220
f 97/122/221 98/116/222 88/117/223 87/123/224
f 98/116/225 99/112/226 89/113/227 88/117/228
f 99/112/229 100/110/230 90/108/231 89/113/232
f 86/352/233 87/353/234 92/354/235 91/355/236
f 87/123/237 88/117/238 93/121/239 92/128/240
f 88/117/241 89/113/242 94/120/243 93/121/244
f 89/65/245 90/66/246 95/62/247 94/61/248
f 81/43/249 82/49/250 97/50/251 96/45/252
f 82/129/253 83/130/254 98/116/255 97/122/256
f 83/209/257 84/210/258 99/211/259 98/212/260
f 84/204/261 85/203/262 100/207/263 99/208/264
s 22
f 112/198/265 102/195/266 101/194/267 111/199/268
s 23
f 113/420/269 103/421/270 102/422/271 112/423/272
s 24
f 114/215/273 104/216/274 103/217/275 113/218/276
s 25
f 115/131/277 105/124/278 104/136/279 114/137/280
s off
f 104/205/281 105/206/282 107/202/283 106/201/284
f 101/194/285 102/195/286 109/191/287 108/190/288
f 102/195/289 103/200/290 110/196/291 109/191/292
s 21
f 103/424/293 104/425/294 106/426/210 110/427/209
s 22
f 80/18/295 112/24/265 111/25/268 10/23/296
s 23
f 76/356/297 113/357/269 112/358/272 80/359/298
s 24
f 78/360/299 114/361/273 113/357/276 76/356/300
s 25
f 14/408/301 115/407/277 114/410/280 78/411/302
s 13
f 10/428/303 111/429/304 74/430/305 22/431/306
f 74/430/305 111/429/304 101/432/307 68/433/308
f 68/34/308 101/37/307 108/38/309 69/35/310
f 69/35/310 108/38/309 81/43/311 54/39/312
f 54/39/312 81/43/311 96/45/313 65/46/314
f 65/46/314 96/45/313 86/51/315 57/52/316
f 57/52/316 86/51/315 91/54/70 60/55/69
s 12
f 13/106/317 95/107/318 40/102/319 19/105/320
f 40/102/319 95/107/318 90/108/321 34/109/322
f 34/109/322 90/108/321 100/110/323 45/111/324
f 45/111/324 100/110/323 85/114/325 33/115/326
f 33/115/326 85/114/325 107/118/327 46/119/328
f 46/119/328 107/118/327 105/124/329 39/125/330
f 39/125/330 105/124/329 115/131/64 51/132/63
s 5
f 9/398/331 116/400/37 52/403/73 21/404/332
f 9/398/331 12/397/333 117/399/38 116/400/37
s 4
f 118/324/36 194/323/35 195/327/50 11/328/49
s 6
f 119/26/31 118/27/30 11/22/45 10/23/48
f 53/30/77 119/26/31 10/23/48 22/31/334
s 4
f 121/17/335 197/20/336 198/21/337 125/15/338
f 123/332/52 196/331/51 197/335/336 121/336/335
f 125/434/338 198/435/337 199/436/85 15/437/84
s 6
f 78/14/339 125/15/340 15/11/83 14/12/81
f 76/16/341 121/17/342 125/15/340 78/14/339
f 80/18/47 123/19/46 121/17/342 76/16/341
s 5
f 77/391/56 124/390/55 120/393/343 75/394/344
f 75/394/344 120/393/343 122/395/345 79/396/346
f 79/396/346 122/395/345 12/397/333 9/398/331
s 3
f 126/174/347 148/170/348 149/173/349 127/176/350
s 4
f 128/334/351 127/333/352 149/337/353 150/338/354
f 129/341/355 128/334/351 150/338/354 151/342/356
f 130/283/357 129/284/355 151/280/356 152/279/358
f 131/219/359 130/220/357 152/221/358 153/222/360
f 132/227/361 131/219/359 153/222/360 154/228/362
f 133/249/363 132/250/361 154/251/362 155/252/364
f 134/261/365 133/262/363 155/263/364 156/264/366
f 135/312/367 134/311/365 156/313/366 157/314/368
s 1
f 136/82/369 135/88/370 157/83/371 158/78/372
s 3
f 137/166/373 159/165/374 160/168/375 138/169/376
s 4
f 139/340/377 138/339/378 160/343/379 161/344/380
f 140/273/381 139/274/377 161/275/380 162/276/382
f 141/362/383 140/363/381 162/364/382 163/365/384
f 142/226/385 141/225/383 163/233/384 164/234/386
f 143/235/387 142/226/385 164/234/386 165/239/388
f 144/265/389 143/269/387 165/270/388 166/267/390
f 145/266/391 144/265/389 166/267/390 167/268/392
f 146/316/393 145/315/391 167/317/392 168/318/394
s 1
f 147/72/395 146/79/396 168/73/397 169/68/58
s 3
f 148/170/348 137/166/373 138/169/376 149/173/349
s 4
f 150/338/354 149/337/353 138/339/378 139/340/377
f 151/342/356 150/338/354 139/340/377 140/345/381
f 152/279/358 151/280/356 140/281/381 141/282/383
f 153/222/360 152/221/358 141/225/383 142/226/385
f 154/228/362 153/222/360 142/226/385 143/235/387
f 155/240/364 154/228/362 143/235/387 144/241/389
f 156/264/366 155/263/364 144/265/389 145/266/391
f 157/314/368 156/313/366 145/315/391 146/316/393
s 1
f 158/78/372 157/83/371 146/79/396 147/72/395
s 3
f 159/165/374 6/167/398 8/172/399 160/168/375
s 4
f 161/344/380 160/343/379 8/346/400 117/347/401
f 162/276/382 161/275/380 117/277/401 12/278/402
f 163/233/384 162/244/382 12/245/402 122/237/403
f 164/234/386 163/233/384 122/237/403 120/238/404
f 165/239/388 164/234/386 120/238/404 124/246/405
f 166/285/390 165/286/388 124/287/405 16/288/406
f 167/268/392 166/267/390 16/271/406 29/272/407
f 168/318/394 167/317/392 29/319/407 2/320/408
s 1
f 169/68/58 168/73/397 2/74/409 4/69/59
s 3
f 170/180/410 181/177/411 182/179/412 171/182/413
s 4
f 172/326/414 171/325/415 182/329/416 183/330/417
f 173/289/418 172/290/414 183/291/417 184/292/419
f 174/230/420 173/236/418 184/231/419 185/224/421
f 175/229/422 174/230/420 185/224/421 186/223/423
f 176/438/424 175/439/422 186/440/423 187/441/425
f 177/255/426 176/256/424 187/254/425 188/253/427
f 178/295/428 177/296/426 188/297/427 189/298/429
f 179/308/430 178/307/428 189/309/429 190/310/431
s 1
f 180/92/432 179/98/433 190/93/434 191/87/435
s 3
f 181/177/411 126/174/347 127/176/350 182/179/412
s 4
f 183/330/417 182/329/416 127/333/352 128/334/351
f 184/292/419 183/291/417 128/293/351 129/294/355
f 185/224/421 184/231/419 129/232/355 130/220/357
f 186/223/423 185/224/421 130/220/357 131/219/359
f 187/454/425 186/455/423 131/456/359 132/457/361
f 188/253/427 187/254/425 132/250/361 133/249/363
f 189/442/429 188/443/427 133/444/363 134/445/365
f 190/310/431 189/309/429 134/311/365 135/312/367
s 1
f 191/87/435 190/93/434 135/88/370 136/82/369
s 3
f 192/183/10 170/180/410 171/182/413 193/185/11
s 4
f 194/323/35 193/322/34 171/325/415 172/326/414
f 195/243/50 194/247/35 172/248/414 173/236/418
f 196/242/51 195/243/50 173/236/418 174/230/420
f 197/446/336 196/447/51 174/448/420 175/449/422
f 198/258/337 197/259/336 175/260/422 176/256/424
f 199/257/85 198/258/337 176/256/424 177/255/426
f 200/299/14 199/300/85 177/296/426 178/295/428
f 201/303/15 200/302/14 178/307/428 179/308/430
s 1
f 202/97/3 201/99/2 179/98/433 180/92/432
s 3
f 6/167/398 159/165/374 62/162/436 23/164/437
f 62/162/436 159/165/374 137/166/373 59/159/438
f 59/159/438 137/166/373 148/170/348 63/171/439
f 63/171/439 148/170/348 126/174/347 56/175/440
f 56/175/440 126/174/347 181/177/411 71/178/441
f 71/178/441 181/177/411 170/180/410 66/181/442
f 66/181/442 170/180/410 192/183/10 72/184/75
s 1
f 3/369/4 202/368/3 49/370/443 17/371/444
f 49/96/443 202/97/3 180/92/432 37/91/445
f 37/91/445 180/92/432 191/87/435 48/86/446
f 48/86/446 191/87/435 136/82/369 31/81/447
f 31/81/447 136/82/369 158/78/372 43/77/448
f 43/77/448 158/78/372 147/72/395 36/71/449
f 36/71/449 147/72/395 169/68/58 42/67/57
