newmtl anisotropic1SG
illum 4
Kd 0.50 0.50 0.50
Ka 0.00 0.00 0.00
Tf 1.00 1.00 1.00
Ni 1.00
Ks 0.50 0.50 0.50
newmtl blinn1SG
illum 4
Kd 0.50 0.50 0.50
Ka 0.00 0.00 0.00
Tf 1.00 1.00 1.00
Ni 1.00
Ks 0.50 0.50 0.50
newmtl blinn3SG
illum 4
Kd 0.50 0.50 0.50
Ka 0.00 0.00 0.00
Tf 1.00 1.00 1.00
Ni 1.00
Ks 0.50 0.50 0.50
newmtl blinn4SG
illum 4
Kd 0.50 0.50 0.50
Ka 0.00 0.00 0.00
Tf 1.00 1.00 1.00
Ni 1.00
Ks 0.50 0.50 0.50
newmtl blinn5SG
illum 4
Kd 0.50 0.50 0.50
Ka 0.00 0.00 0.00
Tf 1.00 1.00 1.00
Ni 1.00
Ks 0.50 0.50 0.50
newmtl blinn6SG
illum 4
Kd 0.50 0.50 0.50
Ka 0.00 0.00 0.00
Tf 1.00 1.00 1.00
Ni 1.00
Ks 0.50 0.50 0.50
newmtl blinn7SG
illum 4
Kd 0.50 0.50 0.50
Ka 0.00 0.00 0.00
Tf 1.00 1.00 1.00
Ni 1.00
Ks 0.50 0.50 0.50
newmtl blinn8SG
illum 4
Kd 0.50 0.50 0.50
Ka 0.00 0.00 0.00
Tf 1.00 1.00 1.00
Ni 1.00
Ks 0.50 0.50 0.50
newmtl blinn9SG
illum 4
Kd 0.50 0.50 0.50
Ka 0.00 0.00 0.00
Tf 1.00 1.00 1.00
Ni 1.00
Ks 0.50 0.50 0.50
newmtl blinn10SG
illum 4
Kd 0.50 0.50 0.50
Ka 0.00 0.00 0.00
Tf 1.00 1.00 1.00
Ni 1.00
Ks 0.50 0.50 0.50
newmtl blinn11SG
illum 4
Kd 0.50 0.50 0.50
Ka 0.00 0.00 0.00
Tf 1.00 1.00 1.00
Ni 1.00
Ks 0.50 0.50 0.50
newmtl blinn12SG
illum 4
Kd 0.50 0.50 0.50
Ka 0.00 0.00 0.00
Tf 1.00 1.00 1.00
Ni 1.00
Ks 0.50 0.50 0.50
newmtl blinn13SG
illum 4
Kd 0.50 0.50 0.50
Ka 0.00 0.00 0.00
Tf 1.00 1.00 1.00
Ni 1.00
Ks 0.50 0.50 0.50
newmtl blinn14SG
illum 4
Kd 0.50 0.50 0.50
Ka 0.00 0.00 0.00
Tf 1.00 1.00 1.00
Ni 1.00
Ks 0.50 0.50 0.50
newmtl blinn15SG
illum 4
Kd 0.50 0.50 0.50
Ka 0.00 0.00 0.00
Tf 1.00 1.00 1.00
Ni 1.00
Ks 0.50 0.50 0.50
newmtl blinn16SG
illum 4
Kd 0.50 0.50 0.50
Ka 0.00 0.00 0.00
Tf 1.00 1.00 1.00
Ni 1.00
Ks 0.50 0.50 0.50
newmtl blinn17SG
illum 4
Kd 0.50 0.50 0.50
Ka 0.00 0.00 0.00
Tf 1.00 1.00 1.00
Ni 1.00
Ks 0.50 0.50 0.50
newmtl initialShadingGroup
illum 4
Kd 0.50 0.50 0.50
Ka 0.00 0.00 0.00
Tf 1.00 1.00 1.00
Ni 1.00
newmtl lambert2SG
illum 4
Kd 0.50 0.50 0.50
Ka 0.00 0.00 0.00
Tf 1.00 1.00 1.00
Ni 1.00
newmtl lambert3SG
illum 4
Kd 0.50 0.50 0.50
Ka 0.00 0.00 0.00
Tf 1.00 1.00 1.00
Ni 1.00
newmtl lambert4SG
illum 4
Kd 0.50 0.50 0.50
Ka 0.00 0.00 0.00
Tf 1.00 1.00 1.00
Ni 1.00
newmtl lambert5SG
illum 4
Kd 0.50 0.50 0.50
Ka 0.00 0.00 0.00
Tf 1.00 1.00 1.00
Ni 1.00
newmtl lambert6SG
illum 4
Kd 0.50 0.50 0.50
Ka 0.00 0.00 0.00
Tf 1.00 1.00 1.00
Ni 1.00
newmtl lambert8SG
illum 4
Kd 0.50 0.50 0.50
Ka 0.00 0.00 0.00
Tf 1.00 1.00 1.00
Ni 1.00
newmtl lambert9SG
illum 4
Kd 0.50 0.50 0.50
Ka 0.00 0.00 0.00
Tf 1.00 1.00 1.00
Ni 1.00
newmtl lambert10SG
illum 4
Kd 0.50 0.50 0.50
Ka 0.00 0.00 0.00
Tf 1.00 1.00 1.00
Ni 1.00
newmtl lambert11SG
illum 4
Kd 0.50 0.50 0.50
Ka 0.00 0.00 0.00
Tf 1.00 1.00 1.00
Ni 1.00
newmtl lambert12SG
illum 4
Kd 0.50 0.50 0.50
Ka 0.00 0.00 0.00
Tf 1.00 1.00 1.00
Ni 1.00
newmtl lambert13SG
illum 4
Kd 0.50 0.50 0.50
Ka 0.00 0.00 0.00
Tf 1.00 1.00 1.00
Ni 1.00
newmtl phong1SG
illum 4
Kd 0.50 0.50 0.50
Ka 0.00 0.00 0.00
Tf 1.00 1.00 1.00
Ni 1.00
Ks 0.50 0.50 0.50
Ns 18.00
newmtl phong2SG
illum 4
Kd 0.50 0.50 0.50
Ka 0.00 0.00 0.00
Tf 1.00 1.00 1.00
Ni 1.00
Ks 0.50 0.50 0.50
Ns 18.00
newmtl phong3SG
illum 4
Kd 0.50 0.50 0.50
Ka 0.00 0.00 0.00
Tf 1.00 1.00 1.00
Ni 1.00
Ks 0.50 0.50 0.50
Ns 18.00
newmtl phong4SG
illum 4
Kd 0.50 0.50 0.50
Ka 0.00 0.00 0.00
Tf 1.00 1.00 1.00
Ni 1.00
Ks 0.50 0.50 0.50
Ns 18.00
newmtl phong5SG
illum 4
Kd 0.50 0.50 0.50
Ka 0.00 0.00 0.00
Tf 1.00 1.00 1.00
Ni 1.00
Ks 0.50 0.50 0.50
Ns 18.00
newmtl phong6SG
illum 4
Kd 0.50 0.50 0.50
Ka 0.00 0.00 0.00
Tf 1.00 1.00 1.00
Ni 1.00
Ks 0.50 0.50 0.50
Ns 18.00
newmtl phong8SG
illum 4
Kd 0.50 0.50 0.50
Ka 0.00 0.00 0.00
Tf 1.00 1.00 1.00
Ni 1.00
Ks 0.50 0.50 0.50
Ns 18.00
newmtl phongE1SG
illum 4
Kd 0.50 0.50 0.50
Ka 0.00 0.00 0.00
Tf 1.00 1.00 1.00
Ni 1.00
Ks 0.50 0.50 0.50
newmtl phongE2SG
illum 4
Kd 0.50 0.50 0.50
Ka 0.00 0.00 0.00
Tf 1.00 1.00 1.00
Ni 1.00
Ks 0.50 0.50 0.50
