%YAML 1.1
%TAG !u! tag:unity3d.com,2011:
--- !u!114 &11400000
MonoBehaviour:
  m_ObjectHideFlags: 0
  m_PrefabParentObject: {fileID: 0}
  m_PrefabInternal: {fileID: 0}
  m_GameObject: {fileID: 0}
  m_Enabled: 1
  m_EditorHideFlags: 0
  m_Script: {fileID: 11500000, guid: a8c2fc43ae88e794eb4499b35a97844b, type: 3}
  m_Name: Quest Item
  m_EditorClassIdentifier: 
  ItemName: 
  ItemDescription: 
  IsUseable: 1
  ItemSprite: {fileID: 21300000, guid: 28b41fef228d6814f90e541deaf9f262, type: 3}
  Type: 1
