# This file uses centimeters as units for non-parametric coordinates.

mtllib NE-02.mtl
g default
v 0.302763 3.342167 -21.345762
v 0.302763 3.342167 -21.218580
v 0.302763 5.579900 -21.345762
v 0.302763 5.579900 -21.218580
v 1.657678 5.579900 -21.345762
v 1.657678 5.579900 -21.218580
v 1.657678 3.342167 -21.345762
v 1.657678 3.342167 -21.218580
v 1.555659 3.430608 -21.218580
v 0.404781 3.430608 -21.218580
v 1.555659 5.491458 -21.218580
v 0.404781 5.491458 -21.218580
v 1.555659 3.430608 -21.327530
v 0.404781 3.430608 -21.327530
v 1.555659 5.491458 -21.327530
v 0.404781 5.491458 -21.327530
v 0.533576 4.410780 -21.237766
v 0.533576 4.396070 -21.237766
v 0.517560 4.388714 -21.237766
v 0.501544 4.396070 -21.237766
v 0.501544 4.410780 -21.237766
v 0.517560 4.418136 -21.237766
v 0.545300 4.416165 -21.251526
v 0.545300 4.390685 -21.251526
v 0.517560 4.377945 -21.251526
v 0.489820 4.390685 -21.251526
v 0.489820 4.416165 -21.251526
v 0.517560 4.428905 -21.251526
v 0.549592 4.418136 -21.270323
v 0.549592 4.388714 -21.270323
v 0.517560 4.374003 -21.270323
v 0.485529 4.388714 -21.270323
v 0.485529 4.418136 -21.270323
v 0.517560 4.432847 -21.270323
v 0.545300 4.416165 -21.289120
v 0.545300 4.390685 -21.289120
v 0.517560 4.377945 -21.289120
v 0.489820 4.390685 -21.289120
v 0.489820 4.416165 -21.289120
v 0.517560 4.428905 -21.289120
v 0.533576 4.410780 -21.302879
v 0.533576 4.396070 -21.302879
v 0.517560 4.388714 -21.302879
v 0.501544 4.396070 -21.302879
v 0.501544 4.410780 -21.302879
v 0.517560 4.418136 -21.302879
v 0.517560 4.403425 -21.232729
v 0.517560 4.403425 -21.307917
v 0.561992 4.422832 -21.299646
v 0.561992 4.381165 -21.299646
v 0.516629 4.360332 -21.299646
v 0.471266 4.381165 -21.299646
v 0.471266 4.422832 -21.299646
v 0.516629 4.443666 -21.299646
v 0.561992 4.422832 -21.329718
v 0.561992 4.381165 -21.329718
v 0.516629 4.360332 -21.329718
v 0.471266 4.381165 -21.329718
v 0.471266 4.422832 -21.329718
v 0.516629 4.443666 -21.329718
v 0.516629 4.401999 -21.299646
v 0.516629 4.401999 -21.329718
vt 0.001845 0.001992
vt 0.031205 0.001992
vt 0.031205 0.518568
vt 0.001845 0.518568
vt 0.067500 0.518568
vt 0.038141 0.518568
vt 0.038141 0.001992
vt 0.067500 0.001992
vt 0.653299 0.522266
vt 0.653299 0.998008
vt 0.628148 0.998008
vt 0.628148 0.522266
vt 0.597313 0.998008
vt 0.597313 0.522266
vt 0.622464 0.522266
vt 0.622464 0.998008
vt 0.384318 0.534121
vt 0.378436 0.534121
vt 0.377981 0.529782
vt 0.384773 0.529782
vt 0.383075 0.537297
vt 0.379679 0.537297
vt 0.378436 0.525442
vt 0.384318 0.525442
vt 0.379679 0.522266
vt 0.383075 0.522266
vt 0.345487 0.525442
vt 0.351369 0.525442
vt 0.351824 0.529782
vt 0.345032 0.529782
vt 0.346730 0.522266
vt 0.350126 0.522266
vt 0.351369 0.534121
vt 0.345487 0.534121
vt 0.350126 0.537297
vt 0.346730 0.537297
vt 0.311933 0.531884
vt 0.311933 0.522266
vt 0.318875 0.522266
vt 0.318875 0.531884
vt 0.306249 0.522266
vt 0.306249 0.531884
vt 0.299307 0.531884
vt 0.299307 0.522266
vt 0.591628 0.835045
vt 0.562269 0.835045
vt 0.562269 0.522266
vt 0.591628 0.522266
vt 0.527225 0.522266
vt 0.556584 0.522266
vt 0.556584 0.835045
vt 0.527225 0.835045
vt 0.496389 0.787943
vt 0.496389 0.522266
vt 0.521540 0.522266
vt 0.521540 0.787943
vt 0.490705 0.522266
vt 0.490705 0.787943
vt 0.465554 0.787943
vt 0.465554 0.522266
vt 0.371307 0.534121
vt 0.364903 0.534121
vt 0.364903 0.529781
vt 0.372297 0.529781
vt 0.368600 0.537297
vt 0.364903 0.537297
vt 0.358499 0.534121
vt 0.357508 0.529781
vt 0.364903 0.525442
vt 0.371307 0.525442
vt 0.361206 0.537297
vt 0.358499 0.525442
vt 0.364903 0.522266
vt 0.368600 0.522266
vt 0.361206 0.522266
vt 0.325550 0.525442
vt 0.331954 0.525442
vt 0.331954 0.529781
vt 0.324559 0.529781
vt 0.328256 0.522266
vt 0.331954 0.522266
vt 0.338357 0.525442
vt 0.339348 0.529781
vt 0.331954 0.534121
vt 0.325550 0.534121
vt 0.335651 0.522266
vt 0.338357 0.534121
vt 0.331954 0.537297
vt 0.328256 0.537297
vt 0.335651 0.537297
vt 0.459870 0.522266
vt 0.459870 0.532738
vt 0.452928 0.532738
vt 0.452928 0.522266
vt 0.459870 0.543209
vt 0.452928 0.543209
vt 0.440302 0.543209
vt 0.440302 0.532738
vt 0.447243 0.532738
vt 0.447243 0.543209
vt 0.440302 0.522266
vt 0.447243 0.522266
vt 0.658983 0.522266
vt 0.924660 0.522266
vt 0.924660 0.998008
vt 0.658983 0.998008
vt 0.387034 0.518568
vt 0.074255 0.518568
vt 0.074255 0.001992
vt 0.387034 0.001992
vt 0.393867 0.001992
vt 0.706646 0.001992
vt 0.683095 0.022409
vt 0.417417 0.022409
vt 0.706646 0.518568
vt 0.683095 0.498151
vt 0.393867 0.518568
vt 0.417417 0.498151
vt 0.288529 0.522266
vt 0.291925 0.522266
vt 0.290227 0.525963
vt 0.293623 0.525963
vt 0.286831 0.525963
vt 0.291925 0.529660
vt 0.288529 0.529660
vt 0.276053 0.522266
vt 0.279449 0.522266
vt 0.277751 0.525963
vt 0.281147 0.525963
vt 0.274355 0.525963
vt 0.279449 0.529660
vt 0.276053 0.529660
vt 0.420189 0.522266
vt 0.429808 0.522266
vt 0.424998 0.532737
vt 0.434617 0.532737
vt 0.415380 0.532737
vt 0.429808 0.543209
vt 0.420189 0.543209
vt 0.395267 0.522266
vt 0.404886 0.522266
vt 0.400077 0.532738
vt 0.409695 0.532738
vt 0.390458 0.532738
vt 0.404886 0.543209
vt 0.395267 0.543209
vn -1.000000 0.000000 0.000000
vn -1.000000 0.000000 0.000000
vn -1.000000 0.000000 0.000000
vn -1.000000 0.000000 0.000000
vn 0.000000 1.000000 0.000000
vn 0.000000 1.000000 0.000000
vn 0.000000 1.000000 0.000000
vn 0.000000 1.000000 0.000000
vn 1.000000 0.000000 0.000000
vn 1.000000 0.000000 0.000000
vn 1.000000 0.000000 0.000000
vn 1.000000 0.000000 0.000000
vn 0.000000 -1.000000 0.000000
vn 0.000000 -1.000000 0.000000
vn 0.000000 -1.000000 0.000000
vn 0.000000 -1.000000 0.000000
vn 0.000000 0.000000 1.000000
vn 0.000000 0.000000 1.000000
vn 0.000000 0.000000 1.000000
vn 0.000000 0.000000 1.000000
vn 0.000000 0.000000 -1.000000
vn 0.000000 0.000000 -1.000000
vn 0.000000 0.000000 -1.000000
vn 0.000000 0.000000 -1.000000
vn 0.000000 0.000000 1.000000
vn 0.000000 0.000000 1.000000
vn 0.000000 0.000000 1.000000
vn 0.000000 0.000000 1.000000
vn 0.000008 0.000000 1.000000
vn 0.000008 0.000000 1.000000
vn 0.000008 0.000000 1.000000
vn 0.000008 0.000000 1.000000
vn 0.000000 0.000000 1.000000
vn 0.000000 0.000000 1.000000
vn 0.000000 0.000000 1.000000
vn 0.000000 0.000000 1.000000
vn 0.000003 0.000000 1.000000
vn 0.000003 0.000000 1.000000
vn 0.000003 0.000000 1.000000
vn 0.000003 0.000000 1.000000
vn 0.000000 1.000000 0.000000
vn 0.000000 1.000000 0.000000
vn 0.000000 1.000000 0.000000
vn 0.000000 1.000000 0.000000
vn -1.000000 0.000000 0.000000
vn -1.000000 0.000000 0.000000
vn -1.000000 0.000000 0.000000
vn -1.000000 0.000000 0.000000
vn 0.000000 -1.000000 0.000000
vn 0.000000 -1.000000 0.000000
vn 0.000000 -1.000000 0.000000
vn 0.000000 -1.000000 0.000000
vn 1.000000 0.000000 0.000000
vn 1.000000 0.000000 0.000000
vn 1.000000 0.000000 0.000000
vn 1.000000 0.000000 0.000000
vn 0.761134 0.000000 0.648595
vn 0.761134 0.000000 0.648595
vn 0.761134 0.000000 0.648595
vn 0.761134 0.000000 0.648595
vn 0.340075 -0.740558 0.579589
vn 0.340075 -0.740558 0.579589
vn 0.340075 -0.740558 0.579589
vn 0.340075 -0.740558 0.579589
vn -0.340077 -0.740561 0.579583
vn -0.340077 -0.740561 0.579583
vn -0.340077 -0.740561 0.579583
vn -0.340077 -0.740561 0.579583
vn -0.761134 0.000000 0.648595
vn -0.761134 0.000000 0.648595
vn -0.761134 0.000000 0.648595
vn -0.761134 0.000000 0.648595
vn -0.340075 0.740557 0.579589
vn -0.340075 0.740557 0.579589
vn -0.340075 0.740557 0.579589
vn -0.340075 0.740557 0.579589
vn 0.340073 0.740554 0.579595
vn 0.340073 0.740554 0.579595
vn 0.340073 0.740554 0.579595
vn 0.340073 0.740554 0.579595
vn 0.974921 0.000000 0.222553
vn 0.974921 0.000000 0.222553
vn 0.974921 0.000000 0.222553
vn 0.974921 0.000000 0.222553
vn 0.409999 -0.892668 0.187205
vn 0.409999 -0.892668 0.187205
vn 0.409999 -0.892668 0.187205
vn 0.409999 -0.892668 0.187205
vn -0.409998 -0.892668 0.187204
vn -0.409998 -0.892668 0.187204
vn -0.409998 -0.892668 0.187204
vn -0.409998 -0.892668 0.187204
vn -0.974921 0.000000 0.222553
vn -0.974921 0.000000 0.222553
vn -0.974921 0.000000 0.222553
vn -0.974921 0.000000 0.222553
vn -0.409998 0.892668 0.187204
vn -0.409998 0.892668 0.187204
vn -0.409998 0.892668 0.187204
vn -0.409998 0.892668 0.187204
vn 0.409999 0.892668 0.187205
vn 0.409999 0.892668 0.187205
vn 0.409999 0.892668 0.187205
vn 0.409999 0.892668 0.187205
vn 0.974915 0.000000 -0.222579
vn 0.974915 0.000000 -0.222579
vn 0.974915 0.000000 -0.222579
vn 0.974915 0.000000 -0.222579
vn 0.409964 -0.892683 -0.187208
vn 0.409964 -0.892683 -0.187208
vn 0.409964 -0.892683 -0.187208
vn 0.409964 -0.892683 -0.187208
vn -0.409988 -0.892672 -0.187205
vn -0.409988 -0.892672 -0.187205
vn -0.409988 -0.892672 -0.187205
vn -0.409988 -0.892672 -0.187205
vn -0.974915 0.000000 -0.222579
vn -0.974915 0.000000 -0.222579
vn -0.974915 0.000000 -0.222579
vn -0.974915 0.000000 -0.222579
vn -0.409964 0.892683 -0.187208
vn -0.409964 0.892683 -0.187208
vn -0.409964 0.892683 -0.187208
vn -0.409964 0.892683 -0.187208
vn 0.409989 0.892672 -0.187206
vn 0.409989 0.892672 -0.187206
vn 0.409989 0.892672 -0.187206
vn 0.409989 0.892672 -0.187206
vn 0.761169 0.000000 -0.648554
vn 0.761169 0.000000 -0.648554
vn 0.761169 0.000000 -0.648554
vn 0.761169 0.000000 -0.648554
vn 0.340075 -0.740558 -0.579589
vn 0.340075 -0.740558 -0.579589
vn 0.340075 -0.740558 -0.579589
vn 0.340075 -0.740558 -0.579589
vn -0.340110 -0.740552 -0.579576
vn -0.340110 -0.740552 -0.579576
vn -0.340110 -0.740552 -0.579576
vn -0.340110 -0.740552 -0.579576
vn -0.761169 0.000000 -0.648554
vn -0.761169 0.000000 -0.648554
vn -0.761169 0.000000 -0.648554
vn -0.761169 0.000000 -0.648554
vn -0.340075 0.740557 -0.579589
vn -0.340075 0.740557 -0.579589
vn -0.340075 0.740557 -0.579589
vn -0.340075 0.740557 -0.579589
vn 0.340106 0.740545 -0.579587
vn 0.340106 0.740545 -0.579587
vn 0.340106 0.740545 -0.579587
vn 0.340106 0.740545 -0.579587
vn 0.299797 0.000000 0.954003
vn 0.299797 0.000000 0.954003
vn 0.299797 0.000000 0.954003
vn 0.147242 -0.320410 0.935766
vn 0.147242 -0.320410 0.935766
vn 0.147242 -0.320410 0.935766
vn -0.147242 -0.320412 0.935765
vn -0.147242 -0.320412 0.935765
vn -0.147242 -0.320412 0.935765
vn -0.299797 0.000000 0.954003
vn -0.299797 0.000000 0.954003
vn -0.299797 0.000000 0.954003
vn -0.147242 0.320412 0.935765
vn -0.147242 0.320412 0.935765
vn -0.147242 0.320412 0.935765
vn 0.147242 0.320410 0.935766
vn 0.147242 0.320410 0.935766
vn 0.147242 0.320410 0.935766
vn 0.300016 0.000000 -0.953934
vn 0.300016 0.000000 -0.953934
vn 0.300016 0.000000 -0.953934
vn 0.147126 -0.320416 -0.935782
vn 0.147126 -0.320416 -0.935782
vn 0.147126 -0.320416 -0.935782
vn -0.147010 -0.320423 -0.935798
vn -0.147010 -0.320423 -0.935798
vn -0.147010 -0.320423 -0.935798
vn -0.300016 0.000000 -0.953934
vn -0.300016 0.000000 -0.953934
vn -0.300016 0.000000 -0.953934
vn -0.147126 0.320417 -0.935781
vn -0.147126 0.320417 -0.935781
vn -0.147126 0.320417 -0.935781
vn 0.147010 0.320421 -0.935798
vn 0.147010 0.320421 -0.935798
vn 0.147010 0.320421 -0.935798
vn 1.000000 0.000000 0.000000
vn 1.000000 0.000000 0.000000
vn 1.000000 0.000000 0.000000
vn 1.000000 0.000000 0.000000
vn 0.417346 -0.908748 0.000000
vn 0.417346 -0.908748 0.000000
vn 0.417346 -0.908748 0.000000
vn 0.417346 -0.908748 0.000000
vn -0.417346 -0.908748 0.000000
vn -0.417346 -0.908748 0.000000
vn -0.417346 -0.908748 0.000000
vn -0.417346 -0.908748 0.000000
vn -1.000000 0.000000 0.000000
vn -1.000000 0.000000 0.000000
vn -1.000000 0.000000 0.000000
vn -1.000000 0.000000 0.000000
vn -0.417346 0.908748 0.000000
vn -0.417346 0.908748 0.000000
vn -0.417346 0.908748 0.000000
vn -0.417346 0.908748 0.000000
vn 0.417346 0.908748 0.000000
vn 0.417346 0.908748 0.000000
vn 0.417346 0.908748 0.000000
vn 0.417346 0.908748 0.000000
vn 0.000000 0.000000 1.000000
vn 0.000000 0.000000 1.000000
vn 0.000000 0.000000 1.000000
vn 0.000000 0.000000 1.000000
vn 0.000000 0.000000 1.000000
vn 0.000000 0.000000 1.000000
vn 0.000000 0.000000 1.000000
vn 0.000000 0.000000 1.000000
vn 0.000000 0.000000 1.000000
vn 0.000000 0.000000 1.000000
vn 0.000000 0.000000 1.000000
vn 0.000000 0.000000 1.000000
vn 0.000000 0.000000 1.000000
vn 0.000000 0.000000 1.000000
vn 0.000000 0.000000 1.000000
vn 0.000000 0.000000 1.000000
vn 0.000000 0.000000 1.000000
vn 0.000000 0.000000 1.000000
vn 0.000000 0.000000 -1.000000
vn 0.000000 0.000000 -1.000000
vn 0.000000 0.000000 -1.000000
vn 0.000000 0.000000 -1.000000
vn 0.000000 0.000000 -1.000000
vn 0.000000 0.000000 -1.000000
vn 0.000000 0.000000 -1.000000
vn 0.000000 0.000000 -1.000000
vn 0.000000 0.000000 -1.000000
vn 0.000000 0.000000 -1.000000
vn 0.000000 0.000000 -1.000000
vn 0.000000 0.000000 -1.000000
vn 0.000000 0.000000 -1.000000
vn 0.000000 0.000000 -1.000000
vn 0.000000 0.000000 -1.000000
vn 0.000000 0.000000 -1.000000
vn 0.000000 0.000000 -1.000000
vn 0.000000 0.000000 -1.000000
s off
g polySurface88
usemtl blinn12SG
f 1/1/1 2/2/2 4/3/3 3/4/4
f 3/45/5 4/46/6 6/47/7 5/48/8
f 5/5/9 6/6/10 8/7/11 7/8/12
f 7/49/13 8/50/14 2/51/15 1/52/16
f 14/103/17 13/104/18 15/105/19 16/106/20
f 7/107/21 1/108/22 3/109/23 5/110/24
f 2/111/25 8/112/26 9/113/27 10/114/28
f 8/112/29 6/115/30 11/116/31 9/113/32
f 6/115/33 4/117/34 12/118/35 11/116/36
f 4/117/37 2/111/38 10/114/39 12/118/40
f 10/53/41 9/54/42 13/55/43 14/56/44
f 9/9/45 11/10/46 15/11/47 13/12/48
f 11/57/49 12/58/50 16/59/51 15/60/52
f 12/13/53 10/14/54 14/15/55 16/16/56
f 17/21/57 18/22/58 24/18/59 23/17/60
f 18/65/61 19/66/62 25/62/63 24/61/64
f 19/66/65 20/71/66 26/67/67 25/62/68
f 20/31/69 21/32/70 27/28/71 26/27/72
f 21/80/73 22/81/74 28/77/75 27/76/76
f 22/81/77 17/86/78 23/82/79 28/77/80
f 23/17/81 24/18/82 30/19/83 29/20/84
f 24/61/85 25/62/86 31/63/87 30/64/88
f 25/62/89 26/67/90 32/68/91 31/63/92
f 26/27/93 27/28/94 33/29/95 32/30/96
f 27/76/97 28/77/98 34/78/99 33/79/100
f 28/77/101 23/82/102 29/83/103 34/78/104
f 29/20/105 30/19/106 36/23/107 35/24/108
f 30/64/109 31/63/110 37/69/111 36/70/112
f 31/63/113 32/68/114 38/72/115 37/69/116
f 32/30/117 33/29/118 39/33/119 38/34/120
f 33/79/121 34/78/122 40/84/123 39/85/124
f 34/78/125 29/83/126 35/87/127 40/84/128
f 35/24/129 36/23/130 42/25/131 41/26/132
f 36/70/133 37/69/134 43/73/135 42/74/136
f 37/69/137 38/72/138 44/75/139 43/73/140
f 38/34/141 39/33/142 45/35/143 44/36/144
f 39/85/145 40/84/146 46/88/147 45/89/148
f 40/84/149 35/87/150 41/90/151 46/88/152
f 18/119/153 17/120/154 47/121/155
f 19/123/156 18/119/157 47/121/158
f 20/125/159 19/123/160 47/121/161
f 21/124/162 20/125/163 47/121/164
f 22/122/165 21/124/166 47/121/167
f 17/120/168 22/122/169 47/121/170
f 41/126/171 42/127/172 48/128/173
f 42/127/174 43/129/175 48/128/176
f 43/129/177 44/131/178 48/128/179
f 44/131/180 45/132/181 48/128/182
f 45/132/183 46/130/184 48/128/185
f 46/130/186 41/126/187 48/128/188
f 49/37/189 50/38/190 56/39/191 55/40/192
f 50/91/193 51/92/194 57/93/195 56/94/196
f 51/92/197 52/95/198 58/96/199 57/93/200
f 52/41/201 53/42/202 59/43/203 58/44/204
f 53/97/205 54/98/206 60/99/207 59/100/208
f 54/98/209 49/101/210 55/102/211 60/99/212
f 50/133/213 49/134/214 61/135/215
f 51/137/216 50/133/217 61/135/218
f 52/139/219 51/137/220 61/135/221
f 53/138/222 52/139/223 61/135/224
f 54/136/225 53/138/226 61/135/227
f 49/134/228 54/136/229 61/135/230
f 55/140/231 56/141/232 62/142/233
f 56/141/234 57/143/235 62/142/236
f 57/143/237 58/145/238 62/142/239
f 58/145/240 59/146/241 62/142/242
f 59/146/243 60/144/244 62/142/245
f 60/144/246 55/140/247 62/142/248
g default
v -3.387975 5.764096 -19.974737
v 5.254070 5.764096 -19.974737
v -3.387975 5.920109 -19.974737
v 5.254070 5.920109 -19.974737
v -3.387975 5.920109 -25.802618
v 5.254070 5.920109 -25.802618
v -3.387975 5.764096 -25.802618
v 5.254070 5.764096 -25.802618
v 5.254070 7.083123 -22.888678
v -3.387975 7.083123 -22.888678
v -3.387975 6.927110 -22.888678
v 5.254070 6.927110 -22.888678
v -3.387975 3.177167 -19.974735
v -3.054802 3.177167 -19.974735
v -3.054802 3.333180 -19.974735
v -3.387975 3.333180 -19.974735
v -3.387975 3.177167 -20.224461
v -3.387975 3.333180 -20.224461
v -3.054802 3.177167 -20.224461
v -2.715118 3.177167 -19.974735
v -2.715118 3.333180 -19.974735
v -3.054802 3.333180 -20.224461
v -3.387975 3.333180 -20.546938
v -3.387975 3.177167 -20.546938
v -3.054802 3.177167 -20.546938
v -2.715118 3.177167 -20.224461
v -2.715118 3.333180 -20.224461
v 0.286005 3.177167 -19.974735
v 0.286005 3.333180 -19.974735
v -3.054802 3.333180 -20.546938
v -3.387975 3.177167 -21.247334
v -3.387975 3.333180 -21.247334
v -3.054802 3.177167 -21.247334
v -3.054802 2.495385 -20.546938
v -3.054802 2.495385 -20.224461
v -2.715118 2.495385 -20.224461
v 0.286005 3.177167 -20.224461
v 0.286005 3.333180 -20.224461
v -2.715118 5.967006 -20.232450
v -3.054802 5.967006 -20.232450
v 0.286005 2.390014 -18.806904
v 0.286005 2.546028 -18.806904
v -3.054802 6.045472 -20.538948
v -3.054802 3.333180 -21.247334
v -3.387975 3.177167 -22.841948
v -3.387975 3.333180 -22.841948
v -3.054802 3.177167 -22.841948
v -2.715118 3.177167 -20.546938
v -2.715118 3.177167 -21.247334
v -2.715118 2.495385 -20.546938
v 0.286005 3.177167 -20.546938
v 1.660330 3.177167 -19.974735
v 1.660330 3.177167 -20.224461
v 1.660330 3.333180 -19.974735
v 1.660330 3.333180 -20.224461
v 0.286005 3.333180 -20.546938
v -2.715118 3.333180 -20.546938
v -2.715118 6.045472 -20.538948
v 1.660330 2.546028 -18.806904
v 1.660330 2.390014 -18.806904
v -2.715118 3.333180 -21.247334
v -3.054802 3.333180 -22.841948
v -3.387975 3.177167 -25.299074
v -3.387975 3.333180 -25.299074
v -3.054802 3.177167 -25.299074
v -2.715118 3.177167 -22.841948
v 0.286005 3.177167 -21.247334
v 1.660330 3.177167 -20.546938
v 4.661454 3.177167 -20.224461
v 4.661454 3.177167 -19.974735
v 1.660330 3.333180 -20.546938
v 4.661454 3.333180 -19.974735
v 4.661454 3.333180 -20.224461
v 0.286005 3.333180 -21.247334
v -2.715118 3.333180 -22.841948
v -3.054802 3.333180 -25.299074
v -3.387975 3.177167 -25.566011
v -3.387975 3.333180 -25.566011
v -3.054802 3.177167 -25.566011
v -2.715118 3.177167 -25.299074
v 0.286005 3.177167 -22.841948
v 1.660330 3.177167 -21.247334
v 4.661454 3.177167 -20.546938
v 4.959999 3.177167 -20.224461
v 4.959999 3.177167 -19.974735
v 4.661454 3.333180 -20.546938
v 1.660330 3.333180 -21.247334
v 4.959999 3.333180 -19.974735
v 4.959999 3.333180 -20.224461
v -0.057851 5.389143 -21.247334
v -0.057851 4.182480 -21.247334
v -2.355547 4.182480 -21.247334
v 0.286005 5.595498 -21.247334
v -2.715118 5.595498 -21.247334
v -2.715118 5.595502 -22.877813
v -2.715118 5.389143 -22.874542
v -2.715118 5.389143 -22.200867
v -2.715118 4.182480 -22.200867
v -2.715118 4.182480 -22.855412
v -2.715118 3.333180 -25.299074
v -3.054802 3.333180 -25.566011
v -3.387975 3.177167 -25.802618
v -3.387975 3.333180 -25.802618
v -3.054802 3.177167 -25.802618
v -3.054802 2.495385 -25.566011
v -3.054802 2.495385 -25.299074
v 0.286005 3.177167 -25.299074
v -2.715118 2.495385 -25.299074
v 1.660330 3.177167 -22.841948
v 4.661454 3.177167 -21.247334
v 4.661454 2.495385 -20.546938
v 4.661454 2.495385 -20.224461
v 4.959999 2.495385 -20.224461
v 5.254070 3.177167 -20.224461
v 5.254070 3.177167 -19.974735
v 4.661454 3.333180 -21.247334
v 4.661454 5.967007 -20.232450
v 4.661454 6.045473 -20.538946
v 1.660330 3.333180 -21.393757
v 0.286005 3.333180 -21.393757
v 5.254070 3.333180 -19.974735
v 5.254070 3.333180 -20.224461
v 4.959999 5.967007 -20.232450
v -2.355547 5.389143 -21.247334
v -0.057851 5.389143 -21.406466
v -0.057851 4.182480 -21.406466
v -2.355547 4.182480 -21.406466
v 0.286005 5.595498 -21.393757
v -2.715118 4.182480 -24.148857
v -2.715118 5.389143 -24.148857
v -2.715118 5.595496 -25.299074
v -2.715118 6.338513 -21.247334
v -2.715118 6.926909 -22.889931
v -2.715118 3.333180 -25.566011
v -3.054802 3.333180 -25.802618
v -2.715118 3.177167 -25.566011
v -2.715118 3.177167 -25.802618
v -2.715118 2.495385 -25.566011
v 1.660330 3.177167 -25.299074
v 0.286005 3.177167 -25.566011
v 4.661454 3.177167 -22.841948
v 4.959999 3.177167 -20.546938
v 4.959999 3.177167 -21.247334
v 4.959999 2.495385 -20.546938
v 5.254070 3.177167 -20.546938
v 4.206773 5.389143 -21.247334
v 4.206773 4.182480 -21.247334
v 1.909078 4.182480 -21.247334
v 4.661454 5.595498 -21.247334
v 4.959999 3.333180 -20.546938
v 4.959999 3.333180 -21.247334
v 4.959999 6.045473 -20.538946
v 1.660330 5.595498 -21.247334
v 1.660330 5.595498 -21.393757
v 5.254070 3.333180 -20.546938
v -2.355547 5.389143 -21.406466
v 0.286005 6.338513 -21.247334
v 0.286005 3.333180 -25.299074
v 0.286005 5.595496 -25.299074
v -2.715118 6.060597 -25.299074
v 0.286005 6.926909 -22.889931
v 0.286005 3.333180 -25.566011
v -2.715118 3.333180 -25.802618
v 0.286005 3.177167 -25.802618
v 4.661454 3.177167 -25.299074
v 1.660330 3.177167 -25.566011
v 4.959999 3.177167 -22.841948
v 5.254070 3.177167 -21.247334
v 1.909078 5.389143 -21.247334
v 4.206773 5.389143 -21.406466
v 4.206773 4.182480 -21.406466
v 1.909078 4.182480 -21.406466
v 4.661454 3.333180 -22.841948
v 4.661454 4.182480 -22.855412
v 4.661454 4.182480 -22.200867
v 4.661454 5.389143 -22.200867
v 4.661454 5.389143 -22.874542
v 4.661454 5.595502 -22.877813
v 5.254070 3.333180 -21.247334
v 4.959999 3.333180 -22.841948
v 1.660330 6.338513 -21.247334
v 1.660330 3.333180 -25.299074
v 1.660330 5.595496 -25.299074
v 0.286005 6.060597 -25.299074
v 1.660330 6.926909 -22.889931
v 1.660330 3.333180 -25.566011
v 0.286005 3.333180 -25.802618
v 1.660330 3.177167 -25.802618
v 4.959999 3.177167 -25.299074
v 4.661454 3.177167 -25.566011
v 5.254070 3.177167 -22.841948
v 1.909078 5.389143 -21.406466
v 4.661454 6.338513 -21.247334
v 4.661454 5.389143 -24.148857
v 4.661454 4.182480 -24.148857
v 4.661454 3.333180 -25.299074
v 4.661454 5.595496 -25.299074
v 4.492631 4.182480 -24.148857
v 4.492631 4.182480 -22.200867
v 4.492631 5.389143 -22.200867
v 4.492631 5.389143 -24.148857
v 4.661454 6.926909 -22.889931
v 5.254070 3.333180 -22.841948
v 4.959999 3.333180 -25.299074
v 1.660330 6.060597 -25.299074
v 1.660330 3.333180 -25.802618
v 4.661454 3.333180 -25.566011
v 4.661454 3.177167 -25.802618
v 5.254070 3.177167 -25.299074
v 4.661454 2.495385 -25.299074
v 4.959999 2.495385 -25.299074
v 4.661454 2.495385 -25.566011
v 4.661454 6.060597 -25.299074
v 5.254070 3.333180 -25.299074
v 4.959999 3.333180 -25.566011
v 4.661454 3.333180 -25.802618
v 4.959999 3.177167 -25.566011
v 4.959999 3.177167 -25.802618
v 5.254070 3.177167 -25.566011
v 4.959999 2.495385 -25.566011
v 5.254070 3.333180 -25.566011
v 4.959999 3.333180 -25.802618
v 5.254070 3.177167 -25.802618
v 5.254070 3.333180 -25.802618
v -2.520161 5.389143 -22.200867
v -2.520161 4.182480 -22.200867
v -2.520161 4.182480 -24.148857
v -2.520161 5.389143 -24.148857
vt 0.170978 0.637024
vt 0.221712 0.509909
vt 0.228518 0.509909
vt 0.177784 0.637024
vt 0.170978 0.382793
vt 0.177784 0.382793
vt 0.158037 0.509909
vt 0.107302 0.382793
vt 0.114108 0.382793
vt 0.164842 0.509909
vt 0.107302 0.637024
vt 0.114108 0.637024
vt 0.094361 0.393687
vt 0.094361 0.382793
vt 0.101167 0.382793
vt 0.101167 0.393687
vt 0.101167 0.407754
vt 0.094361 0.407754
vt 0.094361 0.438308
vt 0.101167 0.438308
vt 0.094361 0.507870
vt 0.101167 0.507870
vt 0.094361 0.615058
vt 0.101167 0.615058
vt 0.094361 0.626703
vt 0.101167 0.626703
vt 0.094361 0.637024
vt 0.101167 0.637024
vt 0.794861 0.896202
vt 0.780793 0.896202
vt 0.780793 0.866460
vt 0.794861 0.866460
vt 0.889419 0.903693
vt 0.882614 0.903693
vt 0.848275 0.852748
vt 0.855081 0.852748
vt 0.356896 0.708575
vt 0.370964 0.708575
vt 0.370615 0.823471
vt 0.357245 0.826894
vt 0.732751 0.896202
vt 0.718684 0.896202
vt 0.718684 0.866460
vt 0.732751 0.866460
vt 0.378335 0.708575
vt 0.392402 0.708575
vt 0.392054 0.826894
vt 0.378683 0.823471
vt 0.835334 0.852748
vt 0.842140 0.852748
vt 0.807802 0.903693
vt 0.800996 0.903693
vt 0.001992 0.710578
vt 0.001992 0.641016
vt 0.100682 0.641016
vt 0.100682 0.712143
vt 0.091680 0.712000
vt 0.091680 0.682612
vt 0.039041 0.682612
vt 0.039041 0.711165
vt 0.133095 0.641016
vt 0.158762 0.712671
vt 0.001992 0.817766
vt 0.039041 0.767590
vt 0.091680 0.767590
vt 0.100682 0.817766
vt 0.120971 0.817766
vt 0.712548 0.896202
vt 0.700903 0.896202
vt 0.700903 0.866460
vt 0.712548 0.866460
vt 0.673815 0.897745
vt 0.659747 0.897745
vt 0.659747 0.868003
vt 0.673815 0.868003
vt 0.421212 0.708575
vt 0.435279 0.708575
vt 0.434931 0.823471
vt 0.421560 0.826894
vt 0.998008 0.827723
vt 0.998008 0.880362
vt 0.991066 0.880362
vt 0.991066 0.827723
vt 0.699912 0.862469
vt 0.699912 0.763779
vt 0.706299 0.763779
vt 0.706299 0.862469
vt 0.613500 0.842541
vt 0.601855 0.842541
vt 0.601855 0.812799
vt 0.613500 0.812799
vt 0.576561 0.842541
vt 0.562494 0.842541
vt 0.562494 0.812799
vt 0.576561 0.812799
vt 0.081420 0.637024
vt 0.081420 0.626131
vt 0.088226 0.626131
vt 0.088226 0.637024
vt 0.081420 0.612063
vt 0.088226 0.612063
vt 0.081420 0.581509
vt 0.088226 0.581509
vt 0.081420 0.511947
vt 0.088226 0.511947
vt 0.081420 0.404759
vt 0.088226 0.404759
vt 0.081420 0.393115
vt 0.088226 0.393115
vt 0.081420 0.382793
vt 0.088226 0.382793
vt 0.719942 0.763779
vt 0.719942 0.862469
vt 0.713554 0.862469
vt 0.713554 0.763779
vt 0.462140 0.708575
vt 0.476207 0.708575
vt 0.475859 0.826894
vt 0.462488 0.823471
vt 0.977989 0.880362
vt 0.977989 0.827723
vt 0.984931 0.827723
vt 0.984931 0.880362
vt 0.971853 0.852748
vt 0.971853 0.905387
vt 0.964912 0.905387
vt 0.964912 0.852748
vt 0.165899 0.885325
vt 0.165899 0.815763
vt 0.202948 0.815175
vt 0.202948 0.843729
vt 0.255587 0.843729
vt 0.255587 0.814341
vt 0.264589 0.814198
vt 0.264589 0.885325
vt 0.255587 0.758751
vt 0.202948 0.758751
vt 0.165899 0.708575
vt 0.264589 0.708575
vt 0.322669 0.813670
vt 0.297001 0.885325
vt 0.284878 0.708575
vt 0.951835 0.905387
vt 0.951835 0.852748
vt 0.958776 0.852748
vt 0.958776 0.905387
vt 0.537199 0.842541
vt 0.525555 0.842541
vt 0.525555 0.812799
vt 0.537199 0.812799
vt 0.820747 0.763779
vt 0.873385 0.763779
vt 0.873385 0.848757
vt 0.820747 0.848757
vt 0.519419 0.857204
vt 0.507775 0.857204
vt 0.507775 0.827462
vt 0.519419 0.827462
vt 0.896756 0.763779
vt 0.949395 0.763779
vt 0.949395 0.848757
vt 0.896756 0.848757
vt 0.015830 0.378802
vt 0.015830 0.001807
vt 0.142945 0.001807
vt 0.142945 0.378802
vt 0.270061 0.001807
vt 0.270061 0.378802
vt 0.417747 0.378801
vt 0.417747 0.001807
vt 0.544863 0.001807
vt 0.544863 0.378801
vt 0.290632 0.378801
vt 0.290632 0.001807
vt 0.795129 0.378802
vt 0.795129 0.364267
vt 0.806023 0.364267
vt 0.806023 0.378802
vt 0.781061 0.378802
vt 0.781061 0.364267
vt 0.795129 0.349449
vt 0.806023 0.349449
vt 0.750508 0.378802
vt 0.750508 0.364267
vt 0.795129 0.218530
vt 0.806023 0.218530
vt 0.680946 0.378802
vt 0.680946 0.364267
vt 0.781061 0.349449
vt 0.750508 0.349449
vt 0.781061 0.218530
vt 0.806023 0.158578
vt 0.795129 0.158578
vt 0.573758 0.378802
vt 0.573758 0.364267
vt 0.680946 0.349449
vt 0.750508 0.218530
vt 0.781061 0.158578
vt 0.856967 0.158578
vt 0.856967 0.218530
vt 0.795129 0.027659
vt 0.806023 0.027659
vt 0.562113 0.378802
vt 0.562113 0.364267
vt 0.573758 0.349449
vt 0.680946 0.218530
vt 0.750508 0.158578
vt 0.781061 0.027659
vt 0.795129 0.014636
vt 0.806023 0.014636
vt 0.551791 0.378802
vt 0.551791 0.364267
vt 0.573758 0.218530
vt 0.680946 0.158578
vt 0.750508 0.027659
vt 0.795129 0.001807
vt 0.806023 0.001807
vt 0.562113 0.349449
vt 0.551791 0.349449
vt 0.562113 0.218530
vt 0.573758 0.158578
vt 0.680946 0.027659
vt 0.781061 0.014636
vt 0.750508 0.014636
vt 0.781061 0.001807
vt 0.551791 0.218530
vt 0.562113 0.158578
vt 0.573758 0.027659
vt 0.680946 0.014636
vt 0.750508 0.001807
vt 0.551791 0.158578
vt 0.562113 0.027659
vt 0.573758 0.014636
vt 0.680946 0.001807
vt 0.551791 0.027659
vt 0.573758 0.001807
vt 0.562113 0.014636
vt 0.551791 0.014636
vt 0.562113 0.001807
vt 0.551791 0.001807
vt 0.743777 0.759787
vt 0.743777 0.745253
vt 0.754671 0.745253
vt 0.754671 0.759787
vt 0.743777 0.730435
vt 0.754671 0.730435
vt 0.768738 0.745253
vt 0.768738 0.759787
vt 0.743777 0.599516
vt 0.754671 0.599516
vt 0.799292 0.745253
vt 0.799292 0.759787
vt 0.743777 0.539564
vt 0.754671 0.539564
vt 0.768738 0.599516
vt 0.768738 0.730435
vt 0.799292 0.730435
vt 0.868854 0.745253
vt 0.868854 0.759787
vt 0.692832 0.599516
vt 0.692832 0.539564
vt 0.743777 0.408645
vt 0.754671 0.408645
vt 0.768738 0.539564
vt 0.799292 0.599516
vt 0.868854 0.730435
vt 0.976042 0.745253
vt 0.976042 0.759787
vt 0.743777 0.395621
vt 0.754671 0.395621
vt 0.768738 0.408645
vt 0.799292 0.539564
vt 0.976042 0.730435
vt 0.987686 0.745253
vt 0.987686 0.759787
vt 0.743777 0.382793
vt 0.754671 0.382793
vt 0.799292 0.408645
vt 0.805679 0.539564
vt 0.805679 0.599516
vt 0.987686 0.730435
vt 0.998008 0.745253
vt 0.998008 0.759787
vt 0.768738 0.382793
vt 0.768738 0.395621
vt 0.799292 0.395621
vt 0.976042 0.599516
vt 0.987686 0.599516
vt 0.998008 0.730435
vt 0.799292 0.382793
vt 0.868854 0.395621
vt 0.868854 0.408645
vt 0.976042 0.539564
vt 0.987686 0.539564
vt 0.998008 0.599516
vt 0.868854 0.382793
vt 0.976042 0.395621
vt 0.976042 0.408645
vt 0.987686 0.408645
vt 0.998008 0.539564
vt 0.976042 0.382793
vt 0.987686 0.395621
vt 0.998008 0.408645
vt 0.987686 0.382793
vt 0.998008 0.395621
vt 0.998008 0.382793
vt 0.482481 0.830885
vt 0.482481 0.845703
vt 0.468413 0.845703
vt 0.468413 0.830885
vt 0.448908 0.845703
vt 0.448908 0.830885
vt 0.462278 0.830885
vt 0.462278 0.845703
vt 0.524506 0.808808
vt 0.524506 0.708575
vt 0.531448 0.708575
vt 0.531448 0.808808
vt 0.442772 0.830885
vt 0.442772 0.845703
vt 0.431128 0.845703
vt 0.431128 0.830885
vt 0.424992 0.844953
vt 0.411969 0.844953
vt 0.411969 0.830885
vt 0.424992 0.830885
vt 0.392810 0.830885
vt 0.405834 0.830885
vt 0.405834 0.844256
vt 0.392810 0.844256
vt 0.545091 0.708575
vt 0.545091 0.808808
vt 0.538149 0.808808
vt 0.538149 0.708575
vt 0.992795 0.763779
vt 0.992795 0.823731
vt 0.986408 0.823731
vt 0.986408 0.763779
vt 0.234653 0.704583
vt 0.234653 0.573665
vt 0.306309 0.573665
vt 0.306309 0.704583
vt 0.234653 0.513712
vt 0.306309 0.513712
vt 0.411404 0.573665
vt 0.411404 0.704583
vt 0.234653 0.382793
vt 0.306309 0.382793
vt 0.411404 0.513712
vt 0.411404 0.382793
vt 0.612209 0.808808
vt 0.612209 0.708575
vt 0.619151 0.708575
vt 0.619151 0.808808
vt 0.632793 0.708575
vt 0.632793 0.808808
vt 0.625852 0.808808
vt 0.625852 0.708575
vt 0.793461 0.848757
vt 0.793461 0.763779
vt 0.800826 0.763779
vt 0.800826 0.792332
vt 0.800826 0.848757
vt 0.807104 0.848756
vt 0.807104 0.763779
vt 0.814469 0.763779
vt 0.814469 0.819369
vt 0.814469 0.848756
vt 0.386675 0.830885
vt 0.386675 0.843909
vt 0.375030 0.843909
vt 0.375030 0.830885
vt 0.881164 0.848757
vt 0.881164 0.792332
vt 0.881164 0.763779
vt 0.889669 0.763779
vt 0.889669 0.848757
vt 0.957174 0.848756
vt 0.957174 0.819369
vt 0.957174 0.763779
vt 0.965678 0.763779
vt 0.965678 0.848756
vt 0.001992 0.378801
vt 0.001992 0.001807
vt 0.008798 0.001807
vt 0.008798 0.378801
vt 0.276989 0.378802
vt 0.276989 0.001807
vt 0.283795 0.001807
vt 0.283795 0.378802
vt 0.329611 0.868846
vt 0.329611 0.854312
vt 0.336417 0.854312
vt 0.336417 0.868846
vt 0.329611 0.839494
vt 0.336417 0.839494
vt 0.329611 0.708575
vt 0.336417 0.708575
vt 0.774658 0.896202
vt 0.759840 0.896202
vt 0.759840 0.866460
vt 0.774658 0.866460
vt 0.483578 0.708575
vt 0.498396 0.708575
vt 0.498396 0.823471
vt 0.483578 0.823471
vt 0.738886 0.866460
vt 0.753704 0.866460
vt 0.753704 0.896202
vt 0.738886 0.896202
vt 0.979571 0.763779
vt 0.979571 0.823731
vt 0.972765 0.823731
vt 0.972765 0.763779
vt 0.414591 0.826894
vt 0.399773 0.826894
vt 0.399773 0.708575
vt 0.414591 0.708575
vt 0.350059 0.865345
vt 0.343254 0.865345
vt 0.343254 0.734427
vt 0.350059 0.734427
vt 0.343254 0.721403
vt 0.350059 0.721403
vt 0.343254 0.708575
vt 0.350059 0.708575
vt 0.632341 0.588665
vt 0.579702 0.588665
vt 0.579702 0.688898
vt 0.542653 0.704583
vt 0.542653 0.573664
vt 0.641343 0.573664
vt 0.632341 0.688898
vt 0.641343 0.704583
vt 0.673756 0.573664
vt 0.673756 0.704583
vt 0.641343 0.513712
vt 0.673756 0.513712
vt 0.641343 0.382793
vt 0.673756 0.382793
vt 0.542653 0.513712
vt 0.579702 0.502861
vt 0.632341 0.502861
vt 0.632341 0.402628
vt 0.579702 0.402628
vt 0.542653 0.382793
vt 0.694768 0.897745
vt 0.679950 0.897745
vt 0.679950 0.868003
vt 0.694768 0.868003
vt 0.653612 0.897745
vt 0.640588 0.897745
vt 0.640588 0.868003
vt 0.653612 0.868003
vt 0.505017 0.708575
vt 0.518040 0.708575
vt 0.518040 0.823471
vt 0.505017 0.823471
vt 0.679891 0.759787
vt 0.679891 0.745253
vt 0.686697 0.745253
vt 0.686697 0.759787
vt 0.679891 0.730435
vt 0.686697 0.730435
vt 0.679891 0.599516
vt 0.686697 0.599516
vt 0.686697 0.539564
vt 0.679891 0.539564
vt 0.679891 0.408645
vt 0.686697 0.408645
vt 0.679891 0.395621
vt 0.686697 0.395621
vt 0.679891 0.382793
vt 0.686697 0.382793
vt 0.619635 0.812799
vt 0.634453 0.812799
vt 0.634453 0.842541
vt 0.619635 0.842541
vt 0.582696 0.812799
vt 0.595720 0.812799
vt 0.595720 0.842541
vt 0.582696 0.842541
vt 0.455674 0.826894
vt 0.442650 0.826894
vt 0.442650 0.708575
vt 0.455674 0.708575
vt 0.727197 0.763779
vt 0.787150 0.763779
vt 0.787150 0.862469
vt 0.727197 0.862469
vt 0.604430 0.808808
vt 0.551791 0.808808
vt 0.551791 0.708575
vt 0.604430 0.708575
vt 0.536518 0.573664
vt 0.536518 0.704583
vt 0.437828 0.704583
vt 0.437828 0.573664
vt 0.417539 0.704583
vt 0.417539 0.573664
vt 0.536518 0.513712
vt 0.437828 0.513712
vt 0.417539 0.513712
vt 0.536518 0.382793
vt 0.437828 0.382793
vt 0.417539 0.382793
vt 0.692133 0.864012
vt 0.639494 0.864012
vt 0.639494 0.763779
vt 0.692133 0.763779
vt 0.945699 0.852748
vt 0.945699 0.905387
vt 0.938335 0.905387
vt 0.938335 0.852748
vt 0.556358 0.842541
vt 0.543335 0.842541
vt 0.543335 0.812799
vt 0.556358 0.812799
vt 0.932199 0.852748
vt 0.932199 0.905387
vt 0.924835 0.905387
vt 0.924835 0.852748
vt 0.488616 0.827462
vt 0.501640 0.827462
vt 0.501640 0.857204
vt 0.488616 0.857204
vt 0.910195 0.905387
vt 0.910195 0.852748
vt 0.918700 0.852748
vt 0.918700 0.905387
vt 0.895555 0.905387
vt 0.895555 0.852748
vt 0.904060 0.852748
vt 0.904060 0.905387
vn 0.000000 0.000000 1.000000
vn 0.000000 0.000000 1.000000
vn 0.000000 0.000000 1.000000
vn 0.000000 0.000000 1.000000
vn 0.000000 0.928758 0.370687
vn 0.000000 0.928758 0.370687
vn 0.000000 0.928758 0.370687
vn 0.000000 0.928758 0.370687
vn 0.000000 0.000000 -1.000000
vn 0.000000 0.000000 -1.000000
vn 0.000000 0.000000 -1.000000
vn 0.000000 0.000000 -1.000000
vn 0.000000 -0.928758 -0.370687
vn 0.000000 -0.928758 -0.370687
vn 0.000000 -0.928758 -0.370687
vn 0.000000 -0.928758 -0.370687
vn 1.000000 0.000000 0.000000
vn 1.000000 0.000000 0.000000
vn 1.000000 0.000000 0.000000
vn 1.000000 0.000000 0.000000
vn -1.000000 0.000000 0.000000
vn -1.000000 0.000000 0.000000
vn -1.000000 0.000000 0.000000
vn -1.000000 0.000000 0.000000
vn 0.000000 0.928758 -0.370687
vn 0.000000 0.928758 -0.370687
vn 0.000000 0.928758 -0.370687
vn 0.000000 0.928758 -0.370687
vn -1.000000 0.000000 0.000000
vn -1.000000 0.000000 0.000000
vn -1.000000 0.000000 0.000000
vn -1.000000 0.000000 0.000000
vn 0.000000 -0.928758 0.370687
vn 0.000000 -0.928758 0.370687
vn 0.000000 -0.928758 0.370687
vn 0.000000 -0.928758 0.370687
vn 1.000000 0.000000 0.000000
vn 1.000000 0.000000 0.000000
vn 1.000000 0.000000 0.000000
vn 1.000000 0.000000 0.000000
vn 0.000000 0.000000 1.000000
vn 0.000000 0.000000 1.000000
vn 0.000000 0.000000 1.000000
vn 0.000000 0.000000 1.000000
vn -1.000000 0.000000 0.000000
vn -1.000000 0.000000 0.000000
vn -1.000000 0.000000 0.000000
vn -1.000000 0.000000 0.000000
vn 0.000000 -1.000000 0.000000
vn 0.000000 -1.000000 0.000000
vn 0.000000 -1.000000 0.000000
vn 0.000000 -1.000000 0.000000
vn 0.000000 0.000000 1.000000
vn 0.000000 0.000000 1.000000
vn 0.000000 0.000000 1.000000
vn 0.000000 0.000000 1.000000
vn 0.000000 1.000000 0.000000
vn 0.000000 1.000000 0.000000
vn 0.000000 1.000000 0.000000
vn 0.000000 1.000000 0.000000
vn -1.000000 0.000000 0.000000
vn -1.000000 0.000000 0.000000
vn -1.000000 0.000000 0.000000
vn -1.000000 0.000000 0.000000
vn 0.000000 -1.000000 0.000000
vn 0.000000 -1.000000 0.000000
vn 0.000000 -1.000000 0.000000
vn 0.000000 -1.000000 0.000000
vn 0.000000 -1.000000 0.000000
vn 0.000000 -1.000000 0.000000
vn 0.000000 -1.000000 0.000000
vn 0.000000 -1.000000 0.000000
vn 0.000000 1.000000 0.000000
vn 0.000000 1.000000 0.000000
vn 0.000000 1.000000 0.000000
vn 0.000000 1.000000 0.000000
vn 0.000000 0.000000 1.000000
vn 0.000000 0.000000 1.000000
vn 0.000000 0.000000 1.000000
vn 0.000000 0.000000 1.000000
vn 0.000000 1.000000 0.000000
vn 0.000000 1.000000 0.000000
vn 0.000000 1.000000 0.000000
vn 0.000000 1.000000 0.000000
vn -1.000000 0.000000 0.000000
vn -1.000000 0.000000 0.000000
vn -1.000000 0.000000 0.000000
vn -1.000000 0.000000 0.000000
vn 0.000000 -1.000000 0.000000
vn 0.000000 -1.000000 0.000000
vn 0.000000 -1.000000 0.000000
vn 0.000000 -1.000000 0.000000
vn -1.000000 0.000000 0.000000
vn -1.000000 0.000000 0.000000
vn -1.000000 0.000000 0.000000
vn -1.000000 0.000000 0.000000
vn 0.000000 0.000000 1.000000
vn 0.000000 0.000000 1.000000
vn 0.000000 0.000000 1.000000
vn 0.000000 0.000000 1.000000
vn 0.000000 -1.000000 0.000000
vn 0.000000 -1.000000 0.000000
vn 0.000000 -1.000000 0.000000
vn 0.000000 -1.000000 0.000000
vn 0.000000 1.000000 0.000000
vn 0.000000 1.000000 0.000000
vn 0.000000 1.000000 0.000000
vn 0.000000 1.000000 0.000000
vn 0.000000 0.003034 0.999995
vn 0.000000 0.003034 0.999995
vn 0.000000 0.003034 0.999995
vn 0.000000 0.003034 0.999995
vn -1.000000 0.000000 0.000000
vn -1.000000 0.000000 0.000000
vn -1.000000 0.000000 0.000000
vn -1.000000 0.000000 0.000000
vn -1.000000 -0.000000 0.000000
vn -1.000000 -0.000000 0.000000
vn -1.000000 -0.000000 0.000000
vn -1.000000 -0.000000 0.000000
vn 0.000000 1.000000 0.000000
vn 0.000000 1.000000 0.000000
vn 0.000000 1.000000 0.000000
vn 0.000000 1.000000 0.000000
vn -1.000000 0.000000 0.000000
vn -1.000000 0.000000 0.000000
vn -1.000000 0.000000 0.000000
vn -1.000000 0.000000 0.000000
vn 0.000000 -1.000000 0.000000
vn 0.000000 -1.000000 0.000000
vn 0.000000 -1.000000 0.000000
vn 0.000000 -1.000000 0.000000
vn 0.000000 -1.000000 0.000000
vn 0.000000 -1.000000 0.000000
vn 0.000000 -1.000000 0.000000
vn 0.000000 -1.000000 0.000000
vn 0.000000 0.000000 -1.000000
vn 0.000000 0.000000 -1.000000
vn 0.000000 0.000000 -1.000000
vn 0.000000 0.000000 -1.000000
vn 0.000000 -1.000000 0.000000
vn 0.000000 -1.000000 0.000000
vn 0.000000 -1.000000 0.000000
vn 0.000000 -1.000000 0.000000
vn 1.000000 0.000000 0.000000
vn 1.000000 0.000000 0.000000
vn 1.000000 0.000000 0.000000
vn 1.000000 0.000000 0.000000
vn 0.000000 -1.000000 0.000000
vn 0.000000 -1.000000 0.000000
vn 0.000000 -1.000000 0.000000
vn 0.000000 -1.000000 0.000000
vn 0.000000 -1.000000 0.000000
vn 0.000000 -1.000000 0.000000
vn 0.000000 -1.000000 0.000000
vn 0.000000 -1.000000 0.000000
vn 0.000000 1.000000 0.000000
vn 0.000000 1.000000 0.000000
vn 0.000000 1.000000 0.000000
vn 0.000000 1.000000 0.000000
vn 0.000000 1.000000 0.000000
vn 0.000000 1.000000 0.000000
vn 0.000000 1.000000 0.000000
vn 0.000000 1.000000 0.000000
vn 1.000000 0.000000 0.000000
vn 1.000000 0.000000 0.000000
vn 1.000000 0.000000 0.000000
vn 1.000000 0.000000 0.000000
vn 0.000000 0.968758 0.248007
vn 0.000000 0.968758 0.248007
vn 0.000000 0.968758 0.248007
vn 0.000000 0.968758 0.248007
vn 0.000000 0.829222 0.558920
vn 0.000000 0.829222 0.558920
vn 0.000000 0.829222 0.558920
vn 0.000000 0.829222 0.558920
vn 0.000000 -0.829222 -0.558920
vn 0.000000 -0.829222 -0.558920
vn 0.000000 -0.829222 -0.558920
vn 0.000000 -0.829222 -0.558920
vn 0.000000 0.000000 1.000000
vn 0.000000 0.000000 1.000000
vn 0.000000 0.000000 1.000000
vn 0.000000 0.000000 1.000000
vn 0.000000 0.002946 -0.999996
vn 0.000000 0.002946 -0.999996
vn 0.000000 0.002946 -0.999996
vn 0.000000 0.002946 -0.999996
vn 0.000000 1.000000 0.000000
vn 0.000000 1.000000 0.000000
vn 0.000000 1.000000 0.000000
vn 0.000000 1.000000 0.000000
vn 0.000000 1.000000 0.000000
vn 0.000000 1.000000 0.000000
vn 0.000000 1.000000 0.000000
vn 0.000000 1.000000 0.000000
vn -1.000000 0.000000 0.000000
vn -1.000000 0.000000 0.000000
vn -1.000000 0.000000 0.000000
vn -1.000000 0.000000 0.000000
vn 0.000000 -1.000000 0.000000
vn 0.000000 -1.000000 0.000000
vn 0.000000 -1.000000 0.000000
vn 0.000000 -1.000000 0.000000
vn 0.000000 -1.000000 0.000000
vn 0.000000 -1.000000 0.000000
vn 0.000000 -1.000000 0.000000
vn 0.000000 -1.000000 0.000000
vn 0.000000 -1.000000 0.000000
vn 0.000000 -1.000000 0.000000
vn 0.000000 -1.000000 0.000000
vn 0.000000 -1.000000 0.000000
vn 0.000000 -1.000000 0.000000
vn 0.000000 -1.000000 0.000000
vn 0.000000 -1.000000 0.000000
vn 0.000000 -1.000000 0.000000
vn 0.000000 -1.000000 0.000000
vn 0.000000 -1.000000 0.000000
vn 0.000000 -1.000000 0.000000
vn 0.000000 -1.000000 0.000000
vn 0.000000 1.000000 0.000000
vn 0.000000 1.000000 0.000000
vn 0.000000 1.000000 0.000000
vn 0.000000 1.000000 0.000000
vn 0.000000 1.000000 0.000000
vn 0.000000 1.000000 0.000000
vn 0.000000 1.000000 0.000000
vn 0.000000 1.000000 0.000000
vn 0.000000 1.000000 0.000000
vn 0.000000 1.000000 0.000000
vn 0.000000 1.000000 0.000000
vn 0.000000 1.000000 0.000000
vn 1.000000 0.000000 0.000000
vn 1.000000 0.000000 0.000000
vn 1.000000 0.000000 0.000000
vn 1.000000 0.000000 0.000000
vn 0.000000 1.000000 0.000000
vn 0.000000 1.000000 0.000000
vn 0.000000 1.000000 0.000000
vn 0.000000 1.000000 0.000000
vn 0.000000 1.000000 0.000000
vn 0.000000 1.000000 0.000000
vn 0.000000 1.000000 0.000000
vn 0.000000 1.000000 0.000000
vn -1.000000 0.000000 0.000000
vn -1.000000 0.000000 0.000000
vn -1.000000 0.000000 0.000000
vn -1.000000 0.000000 0.000000
vn 0.000000 -1.000000 0.000000
vn 0.000000 -1.000000 0.000000
vn 0.000000 -1.000000 0.000000
vn 0.000000 -1.000000 0.000000
vn 0.000000 -1.000000 0.000000
vn 0.000000 -1.000000 0.000000
vn 0.000000 -1.000000 0.000000
vn 0.000000 -1.000000 0.000000
vn 0.000000 -1.000000 0.000000
vn 0.000000 -1.000000 0.000000
vn 0.000000 -1.000000 0.000000
vn 0.000000 -1.000000 0.000000
vn 0.000000 -1.000000 0.000000
vn 0.000000 -1.000000 0.000000
vn 0.000000 -1.000000 0.000000
vn 0.000000 -1.000000 0.000000
vn 0.000000 -1.000000 0.000000
vn 0.000000 -1.000000 0.000000
vn 0.000000 -1.000000 0.000000
vn 0.000000 -1.000000 0.000000
vn 0.000000 0.000000 1.000000
vn 0.000000 0.000000 1.000000
vn 0.000000 0.000000 1.000000
vn 0.000000 0.000000 1.000000
vn 0.000000 -1.000000 0.000000
vn 0.000000 -1.000000 0.000000
vn 0.000000 -1.000000 0.000000
vn 0.000000 -1.000000 0.000000
vn 0.000000 1.000000 0.000000
vn 0.000000 1.000000 0.000000
vn 0.000000 1.000000 0.000000
vn 0.000000 1.000000 0.000000
vn 0.000000 1.000000 0.000000
vn 0.000000 1.000000 0.000000
vn 0.000000 1.000000 0.000000
vn 0.000000 1.000000 0.000000
vn 0.000000 1.000000 0.000000
vn 0.000000 1.000000 0.000000
vn 0.000000 1.000000 0.000000
vn 0.000000 1.000000 0.000000
vn -0.000001 0.000000 1.000000
vn -0.000001 0.000000 1.000000
vn -0.000001 0.000000 1.000000
vn -0.000001 0.000000 1.000000
vn -0.000001 0.000000 1.000000
vn -0.000001 0.000000 1.000000
vn -1.000000 0.000000 0.000000
vn -1.000000 0.000000 0.000000
vn -1.000000 0.000000 0.000000
vn -1.000000 0.000000 0.000000
vn -1.000000 0.000000 0.000000
vn -1.000000 0.000000 0.000000
vn -1.000000 0.000000 0.000000
vn -1.000000 0.000000 0.000000
vn 0.000000 1.000000 0.000000
vn 0.000000 1.000000 0.000000
vn 0.000000 1.000000 0.000000
vn 0.000000 1.000000 0.000000
vn 0.000000 1.000000 0.000000
vn 0.000000 1.000000 0.000000
vn 0.000000 1.000000 0.000000
vn 0.000000 1.000000 0.000000
vn -1.000000 0.000000 0.000000
vn -1.000000 0.000000 0.000000
vn -1.000000 0.000000 0.000000
vn -1.000000 0.000000 0.000000
vn 0.000000 -1.000000 0.000000
vn 0.000000 -1.000000 0.000000
vn 0.000000 -1.000000 0.000000
vn 0.000000 -1.000000 0.000000
vn -1.000000 0.000000 0.000000
vn -1.000000 0.000000 0.000000
vn -1.000000 0.000000 0.000000
vn -1.000000 0.000000 0.000000
vn 0.000000 -1.000000 0.000000
vn 0.000000 -1.000000 0.000000
vn 0.000000 -1.000000 0.000000
vn 0.000000 -1.000000 0.000000
vn 0.000000 0.000000 1.000000
vn 0.000000 0.000000 1.000000
vn 0.000000 0.000000 1.000000
vn 0.000000 0.000000 1.000000
vn 0.000000 -1.000000 0.000000
vn 0.000000 -1.000000 0.000000
vn 0.000000 -1.000000 0.000000
vn 0.000000 -1.000000 0.000000
vn 0.000000 -1.000000 0.000000
vn 0.000000 -1.000000 0.000000
vn 0.000000 -1.000000 0.000000
vn 0.000000 -1.000000 0.000000
vn -1.000000 0.000000 0.000000
vn -1.000000 0.000000 0.000000
vn -1.000000 0.000000 0.000000
vn -1.000000 0.000000 0.000000
vn 0.000000 0.000000 1.000000
vn 0.000000 0.000000 1.000000
vn 0.000000 0.000000 1.000000
vn 0.000000 0.000000 1.000000
vn 0.000000 0.000000 1.000000
vn 0.000000 0.000000 1.000000
vn 0.000000 0.000000 1.000000
vn 0.000000 0.000000 1.000000
vn 0.000000 -1.000000 0.000000
vn 0.000000 -1.000000 0.000000
vn 0.000000 -1.000000 0.000000
vn 0.000000 -1.000000 0.000000
vn 0.000000 1.000000 0.000000
vn 0.000000 1.000000 0.000000
vn 0.000000 1.000000 0.000000
vn 0.000000 1.000000 0.000000
vn -1.000000 -0.000000 0.000000
vn -1.000000 -0.000000 0.000000
vn -1.000000 -0.000000 0.000000
vn -1.000000 -0.000000 0.000000
vn 0.000000 1.000000 0.000000
vn 0.000000 1.000000 0.000000
vn 0.000000 1.000000 0.000000
vn 0.000000 1.000000 0.000000
vn 0.000000 1.000000 0.000000
vn 0.000000 1.000000 0.000000
vn 0.000000 1.000000 0.000000
vn 0.000000 1.000000 0.000000
vn 0.000000 0.003034 0.999995
vn 0.000000 0.003034 0.999995
vn 0.000000 0.003034 0.999995
vn 0.000000 0.003034 0.999995
vn 0.000000 0.000000 1.000000
vn 0.000000 0.000000 1.000000
vn 0.000000 0.000000 1.000000
vn 0.000000 0.000000 1.000000
vn 0.000000 0.000000 1.000000
vn 0.000000 0.000000 1.000000
vn -1.000000 0.000000 0.000000
vn -1.000000 0.000000 0.000000
vn -1.000000 0.000000 0.000000
vn -1.000000 0.000000 0.000000
vn 0.000000 1.000000 0.000000
vn 0.000000 1.000000 0.000000
vn 0.000000 1.000000 0.000000
vn 0.000000 1.000000 0.000000
vn 1.000000 0.000000 0.000000
vn 1.000000 0.000000 0.000000
vn 1.000000 0.000000 0.000000
vn 1.000000 0.000000 0.000000
vn -1.000000 0.000000 0.000000
vn -1.000000 0.000000 0.000000
vn -1.000000 0.000000 0.000000
vn -1.000000 0.000000 0.000000
vn -1.000000 0.000000 0.000000
vn -1.000000 0.000000 0.000000
vn -1.000000 0.000000 0.000000
vn -1.000000 0.000000 0.000000
vn -1.000000 -0.000000 0.000000
vn -1.000000 -0.000000 0.000000
vn -1.000000 -0.000000 0.000000
vn -1.000000 -0.000000 0.000000
vn 0.000000 1.000000 0.000000
vn 0.000000 1.000000 0.000000
vn 0.000000 1.000000 0.000000
vn 0.000000 1.000000 0.000000
vn 0.000000 1.000000 0.000000
vn 0.000000 1.000000 0.000000
vn 0.000000 1.000000 0.000000
vn 0.000000 1.000000 0.000000
vn 0.000000 0.000000 -1.000000
vn 0.000000 0.000000 -1.000000
vn 0.000000 0.000000 -1.000000
vn 0.000000 0.000000 -1.000000
vn 0.000000 -1.000000 0.000000
vn 0.000000 -1.000000 0.000000
vn 0.000000 -1.000000 0.000000
vn 0.000000 -1.000000 0.000000
vn 0.000000 0.000000 -1.000000
vn 0.000000 0.000000 -1.000000
vn 0.000000 0.000000 -1.000000
vn 0.000000 0.000000 -1.000000
vn 0.000000 -1.000000 0.000000
vn 0.000000 -1.000000 0.000000
vn 0.000000 -1.000000 0.000000
vn 0.000000 -1.000000 0.000000
vn 0.000000 -1.000000 0.000000
vn 0.000000 -1.000000 0.000000
vn 0.000000 -1.000000 0.000000
vn 0.000000 -1.000000 0.000000
vn 0.000000 -1.000000 0.000000
vn 0.000000 -1.000000 0.000000
vn 0.000000 -1.000000 0.000000
vn 0.000000 -1.000000 0.000000
vn 1.000000 0.000000 0.000000
vn 1.000000 0.000000 0.000000
vn 1.000000 0.000000 0.000000
vn 1.000000 0.000000 0.000000
vn 0.000000 -1.000000 0.000000
vn 0.000000 -1.000000 0.000000
vn 0.000000 -1.000000 0.000000
vn 0.000000 -1.000000 0.000000
vn 0.000000 -1.000000 0.000000
vn 0.000000 -1.000000 0.000000
vn 0.000000 -1.000000 0.000000
vn 0.000000 -1.000000 0.000000
vn 0.000000 0.000000 -1.000000
vn 0.000000 0.000000 -1.000000
vn 0.000000 0.000000 -1.000000
vn 0.000000 0.000000 -1.000000
vn 0.000000 -1.000000 0.000000
vn 0.000000 -1.000000 0.000000
vn 0.000000 -1.000000 0.000000
vn 0.000000 -1.000000 0.000000
vn 0.000000 0.000000 1.000000
vn 0.000000 0.000000 1.000000
vn 0.000000 0.000000 1.000000
vn 0.000000 0.000000 1.000000
vn 1.000000 0.000000 0.000000
vn 1.000000 0.000000 0.000000
vn 1.000000 0.000000 0.000000
vn 1.000000 0.000000 0.000000
vn 0.000000 -1.000000 0.000000
vn 0.000000 -1.000000 0.000000
vn 0.000000 -1.000000 0.000000
vn 0.000000 -1.000000 0.000000
vn 1.000000 0.000000 0.000000
vn 1.000000 0.000000 0.000000
vn 1.000000 0.000000 0.000000
vn 1.000000 0.000000 0.000000
vn -0.000001 0.000000 1.000000
vn -0.000001 0.000000 1.000000
vn -0.000001 0.000000 1.000000
vn -0.000001 0.000000 1.000000
vn -0.000001 0.000000 1.000000
vn -0.000001 0.000000 1.000000
vn 0.000000 1.000000 0.000000
vn 0.000000 1.000000 0.000000
vn 0.000000 1.000000 0.000000
vn 0.000000 1.000000 0.000000
vn 0.000000 0.002946 -0.999996
vn 0.000000 0.002946 -0.999996
vn 0.000000 0.002946 -0.999996
vn 0.000000 0.002946 -0.999996
vn 0.000000 0.968757 0.248011
vn 0.000000 0.968757 0.248011
vn 0.000000 0.968757 0.248011
vn 0.000000 0.968757 0.248011
vn -1.000000 0.000000 0.000000
vn -1.000000 0.000000 0.000000
vn -1.000000 0.000000 0.000000
vn -1.000000 0.000000 0.000000
vn 0.000000 0.000000 1.000000
vn 0.000000 0.000000 1.000000
vn 0.000000 0.000000 1.000000
vn 0.000000 0.000000 1.000000
vn 0.000000 1.000000 0.000000
vn 0.000000 1.000000 0.000000
vn 0.000000 1.000000 0.000000
vn 0.000000 1.000000 0.000000
vn 1.000000 0.000000 0.000000
vn 1.000000 0.000000 0.000000
vn 1.000000 0.000000 0.000000
vn 1.000000 0.000000 0.000000
vn 1.000000 0.000000 0.000000
vn 1.000000 0.000000 0.000000
vn 1.000000 0.000000 0.000000
vn 1.000000 0.000000 0.000000
vn 0.000000 -1.000000 0.000000
vn 0.000000 -1.000000 0.000000
vn 0.000000 -1.000000 0.000000
vn 0.000000 -1.000000 0.000000
vn 0.000000 0.000000 1.000000
vn 0.000000 0.000000 1.000000
vn 0.000000 0.000000 1.000000
vn 0.000000 0.000000 1.000000
vn 0.000000 0.000000 1.000000
vn 0.000000 0.000000 1.000000
vn 0.000000 0.000000 1.000000
vn 0.000000 0.000000 1.000000
vn 0.000000 -1.000000 0.000000
vn 0.000000 -1.000000 0.000000
vn 0.000000 -1.000000 0.000000
vn 0.000000 -1.000000 0.000000
vn 0.000000 0.000000 -1.000000
vn 0.000000 0.000000 -1.000000
vn 0.000000 0.000000 -1.000000
vn 0.000000 0.000000 -1.000000
vn -1.000000 0.000000 0.000000
vn -1.000000 0.000000 0.000000
vn -1.000000 0.000000 0.000000
vn -1.000000 0.000000 0.000000
vn 0.000000 0.941423 0.337228
vn 0.000000 0.941423 0.337228
vn 0.000000 0.941423 0.337228
vn 0.000000 0.941423 0.337228
vn 0.000000 1.000000 0.000000
vn 0.000000 1.000000 0.000000
vn 0.000000 1.000000 0.000000
vn 0.000000 1.000000 0.000000
vn 0.000000 1.000000 0.000000
vn 0.000000 1.000000 0.000000
vn 0.000000 1.000000 0.000000
vn 0.000000 1.000000 0.000000
vn 0.000000 0.000000 -1.000000
vn 0.000000 0.000000 -1.000000
vn 0.000000 0.000000 -1.000000
vn 0.000000 0.000000 -1.000000
vn 0.000000 -1.000000 0.000000
vn 0.000000 -1.000000 0.000000
vn 0.000000 -1.000000 0.000000
vn 0.000000 -1.000000 0.000000
vn 0.000000 -1.000000 0.000000
vn 0.000000 -1.000000 0.000000
vn 0.000000 -1.000000 0.000000
vn 0.000000 -1.000000 0.000000
vn 0.000000 -1.000000 0.000000
vn 0.000000 -1.000000 0.000000
vn 0.000000 -1.000000 0.000000
vn 0.000000 -1.000000 0.000000
vn 0.000000 -1.000000 0.000000
vn 0.000000 -1.000000 0.000000
vn 0.000000 -1.000000 0.000000
vn 0.000000 -1.000000 0.000000
vn 0.000000 -1.000000 0.000000
vn 0.000000 -1.000000 0.000000
vn 0.000000 -1.000000 0.000000
vn 0.000000 -1.000000 0.000000
vn 1.000000 0.000000 0.000000
vn 1.000000 0.000000 0.000000
vn 1.000000 0.000000 0.000000
vn 1.000000 0.000000 0.000000
vn 0.000000 0.000000 1.000000
vn 0.000000 0.000000 1.000000
vn 0.000000 0.000000 1.000000
vn 0.000000 0.000000 1.000000
vn 0.000000 0.000000 1.000000
vn 0.000000 0.000000 1.000000
vn -1.000000 0.000000 0.000000
vn -1.000000 0.000000 0.000000
vn -1.000000 0.000000 0.000000
vn -1.000000 0.000000 0.000000
vn 0.000000 1.000000 0.000000
vn 0.000000 1.000000 0.000000
vn 0.000000 1.000000 0.000000
vn 0.000000 1.000000 0.000000
vn 1.000000 0.000000 0.000000
vn 1.000000 0.000000 0.000000
vn 1.000000 0.000000 0.000000
vn 1.000000 0.000000 0.000000
vn 1.000000 0.000000 0.000000
vn 1.000000 0.000000 0.000000
vn 1.000000 0.000000 0.000000
vn 1.000000 0.000000 0.000000
vn 0.000000 1.000000 0.000000
vn 0.000000 1.000000 0.000000
vn 0.000000 1.000000 0.000000
vn 0.000000 1.000000 0.000000
vn 0.000000 1.000000 0.000000
vn 0.000000 1.000000 0.000000
vn 0.000000 1.000000 0.000000
vn 0.000000 1.000000 0.000000
vn 0.000000 0.000000 1.000000
vn 0.000000 0.000000 1.000000
vn 0.000000 0.000000 1.000000
vn 0.000000 0.000000 1.000000
vn 0.000000 0.000000 -1.000000
vn 0.000000 0.000000 -1.000000
vn 0.000000 0.000000 -1.000000
vn 0.000000 0.000000 -1.000000
vn 0.000000 0.000000 -1.000000
vn 0.000000 0.000000 -1.000000
vn 0.000000 0.000000 -1.000000
vn 0.000000 0.000000 -1.000000
vn 0.000000 0.941009 -0.338381
vn 0.000000 0.941009 -0.338381
vn 0.000000 0.941009 -0.338381
vn 0.000000 0.941009 -0.338381
vn 0.000000 0.941423 0.337228
vn 0.000000 0.941423 0.337228
vn 0.000000 0.941423 0.337228
vn 0.000000 0.941423 0.337228
vn 0.000000 1.000000 0.000000
vn 0.000000 1.000000 0.000000
vn 0.000000 1.000000 0.000000
vn 0.000000 1.000000 0.000000
vn 0.000000 1.000000 0.000000
vn 0.000000 1.000000 0.000000
vn 0.000000 1.000000 0.000000
vn 0.000000 1.000000 0.000000
vn 0.000000 0.000000 -1.000000
vn 0.000000 0.000000 -1.000000
vn 0.000000 0.000000 -1.000000
vn 0.000000 0.000000 -1.000000
vn 0.000000 -1.000000 0.000000
vn 0.000000 -1.000000 0.000000
vn 0.000000 -1.000000 0.000000
vn 0.000000 -1.000000 0.000000
vn 0.000000 -1.000000 0.000000
vn 0.000000 -1.000000 0.000000
vn 0.000000 -1.000000 0.000000
vn 0.000000 -1.000000 0.000000
vn 0.000000 -1.000000 0.000000
vn 0.000000 -1.000000 0.000000
vn 0.000000 -1.000000 0.000000
vn 0.000000 -1.000000 0.000000
vn 0.000000 -1.000000 0.000000
vn 0.000000 -1.000000 0.000000
vn 0.000000 -1.000000 0.000000
vn 0.000000 -1.000000 0.000000
vn 1.000000 0.000000 0.000000
vn 1.000000 0.000000 0.000000
vn 1.000000 0.000000 0.000000
vn 1.000000 0.000000 0.000000
vn 1.000000 0.000000 0.000000
vn 1.000000 0.000000 0.000000
vn 1.000000 0.000000 0.000000
vn 1.000000 0.000000 0.000000
vn 0.000000 -1.000000 0.000000
vn 0.000000 -1.000000 0.000000
vn 0.000000 -1.000000 0.000000
vn 0.000000 -1.000000 0.000000
vn 0.000000 0.000000 1.000000
vn 0.000000 0.000000 1.000000
vn 0.000000 0.000000 1.000000
vn 0.000000 0.000000 1.000000
vn 0.000000 0.000000 1.000000
vn 0.000000 0.000000 1.000000
vn 0.000000 0.000000 1.000000
vn 0.000000 0.000000 1.000000
vn 1.000000 0.000000 0.000000
vn 1.000000 0.000000 0.000000
vn 1.000000 0.000000 0.000000
vn 1.000000 0.000000 0.000000
vn 1.000000 0.000000 0.000000
vn 1.000000 0.000000 0.000000
vn 1.000000 0.000000 0.000000
vn 1.000000 0.000000 0.000000
vn 0.000000 1.000000 0.000000
vn 0.000000 1.000000 0.000000
vn 0.000000 1.000000 0.000000
vn 0.000000 1.000000 0.000000
vn 0.000000 1.000000 0.000000
vn 0.000000 0.000000 -1.000000
vn 0.000000 0.000000 -1.000000
vn 0.000000 0.000000 -1.000000
vn 0.000000 0.000000 -1.000000
vn 0.000000 -1.000000 0.000000
vn 0.000000 -1.000000 0.000000
vn 0.000000 -1.000000 0.000000
vn 0.000000 -1.000000 0.000000
vn 0.000000 -1.000000 0.000000
vn 1.000000 0.000000 0.000000
vn 1.000000 0.000000 0.000000
vn 1.000000 0.000000 0.000000
vn 1.000000 0.000000 0.000000
vn 0.000000 1.000000 0.000000
vn 0.000000 1.000000 0.000000
vn 0.000000 1.000000 0.000000
vn 0.000000 1.000000 0.000000
vn 0.000000 1.000000 0.000000
vn 0.000000 1.000000 0.000000
vn 0.000000 1.000000 0.000000
vn 0.000000 1.000000 0.000000
vn 0.000000 0.000000 -1.000000
vn 0.000000 0.000000 -1.000000
vn 0.000000 0.000000 -1.000000
vn 0.000000 0.000000 -1.000000
vn 0.000000 0.000000 -1.000000
vn 0.000000 0.000000 -1.000000
vn 0.000000 0.000000 -1.000000
vn 0.000000 0.000000 -1.000000
vn 0.000000 0.941009 -0.338381
vn 0.000000 0.941009 -0.338381
vn 0.000000 0.941009 -0.338381
vn 0.000000 0.941009 -0.338381
vn 0.000000 0.941423 0.337228
vn 0.000000 0.941423 0.337228
vn 0.000000 0.941423 0.337228
vn 0.000000 0.941423 0.337228
vn 0.000000 1.000000 0.000000
vn 0.000000 1.000000 0.000000
vn 0.000000 1.000000 0.000000
vn 0.000000 1.000000 0.000000
vn 0.000000 1.000000 0.000000
vn 0.000000 1.000000 0.000000
vn 0.000000 1.000000 0.000000
vn 0.000000 1.000000 0.000000
vn 0.000000 0.000000 -1.000000
vn 0.000000 0.000000 -1.000000
vn 0.000000 0.000000 -1.000000
vn 0.000000 0.000000 -1.000000
vn 0.000000 -1.000000 0.000000
vn 0.000000 -1.000000 0.000000
vn 0.000000 -1.000000 0.000000
vn 0.000000 -1.000000 0.000000
vn 0.000000 -1.000000 0.000000
vn 0.000000 -1.000000 0.000000
vn 0.000000 -1.000000 0.000000
vn 0.000000 -1.000000 0.000000
vn 0.000000 0.000000 1.000000
vn 0.000000 0.000000 1.000000
vn 0.000000 0.000000 1.000000
vn 0.000000 0.000000 1.000000
vn -1.000000 0.000000 0.000000
vn -1.000000 0.000000 0.000000
vn -1.000000 0.000000 0.000000
vn -1.000000 0.000000 0.000000
vn 1.000000 0.000000 0.000000
vn 1.000000 0.000000 0.000000
vn 1.000000 0.000000 0.000000
vn 1.000000 0.000000 0.000000
vn 1.000000 0.000000 0.000000
vn 1.000000 0.000000 0.000000
vn 1.000000 0.000000 0.000000
vn 1.000000 0.000000 0.000000
vn 0.000000 0.000000 1.000000
vn 0.000000 0.000000 1.000000
vn 0.000000 0.000000 1.000000
vn 0.000000 0.000000 1.000000
vn 1.000000 0.000000 0.000000
vn 1.000000 0.000000 0.000000
vn 1.000000 0.000000 0.000000
vn 1.000000 0.000000 0.000000
vn 0.000000 1.000000 0.000000
vn 0.000000 1.000000 0.000000
vn 0.000000 1.000000 0.000000
vn 0.000000 1.000000 0.000000
vn 0.000000 1.000000 0.000000
vn 0.000000 1.000000 0.000000
vn 0.000000 1.000000 0.000000
vn 0.000000 1.000000 0.000000
vn 0.000000 0.000000 -1.000000
vn 0.000000 0.000000 -1.000000
vn 0.000000 0.000000 -1.000000
vn 0.000000 0.000000 -1.000000
vn 0.000000 0.941009 -0.338381
vn 0.000000 0.941009 -0.338381
vn 0.000000 0.941009 -0.338381
vn 0.000000 0.941009 -0.338381
vn 0.000000 1.000000 0.000000
vn 0.000000 1.000000 0.000000
vn 0.000000 1.000000 0.000000
vn 0.000000 1.000000 0.000000
vn 0.000000 0.000000 -1.000000
vn 0.000000 0.000000 -1.000000
vn 0.000000 0.000000 -1.000000
vn 0.000000 0.000000 -1.000000
vn 0.000000 -1.000000 0.000000
vn 0.000000 -1.000000 0.000000
vn 0.000000 -1.000000 0.000000
vn 0.000000 -1.000000 0.000000
vn 1.000000 0.000000 0.000000
vn 1.000000 0.000000 0.000000
vn 1.000000 0.000000 0.000000
vn 1.000000 0.000000 0.000000
vn 0.000000 -1.000000 0.000000
vn 0.000000 -1.000000 0.000000
vn 0.000000 -1.000000 0.000000
vn 0.000000 -1.000000 0.000000
vn 1.000000 0.000000 0.000000
vn 1.000000 0.000000 0.000000
vn 1.000000 0.000000 0.000000
vn 1.000000 0.000000 0.000000
vn 0.000000 -1.000000 0.000000
vn 0.000000 -1.000000 0.000000
vn 0.000000 -1.000000 0.000000
vn 0.000000 -1.000000 0.000000
vn 0.000000 0.000000 -1.000000
vn 0.000000 0.000000 -1.000000
vn 0.000000 0.000000 -1.000000
vn 0.000000 0.000000 -1.000000
vn 0.000000 1.000000 0.000000
vn 0.000000 1.000000 0.000000
vn 0.000000 1.000000 0.000000
vn 0.000000 1.000000 0.000000
vn 0.000000 1.000000 0.000000
vn 0.000000 1.000000 0.000000
vn 0.000000 1.000000 0.000000
vn 0.000000 1.000000 0.000000
vn 0.000000 0.000000 -1.000000
vn 0.000000 0.000000 -1.000000
vn 0.000000 0.000000 -1.000000
vn 0.000000 0.000000 -1.000000
vn 0.000000 -1.000000 0.000000
vn 0.000000 -1.000000 0.000000
vn 0.000000 -1.000000 0.000000
vn 0.000000 -1.000000 0.000000
vn 1.000000 0.000000 0.000000
vn 1.000000 0.000000 0.000000
vn 1.000000 0.000000 0.000000
vn 1.000000 0.000000 0.000000
vn 0.000000 1.000000 0.000000
vn 0.000000 1.000000 0.000000
vn 0.000000 1.000000 0.000000
vn 0.000000 1.000000 0.000000
vn 0.000000 0.000000 -1.000000
vn 0.000000 0.000000 -1.000000
vn 0.000000 0.000000 -1.000000
vn 0.000000 0.000000 -1.000000
vn 1.000000 0.000000 0.000000
vn 1.000000 0.000000 0.000000
vn 1.000000 0.000000 0.000000
vn 1.000000 0.000000 0.000000
vn 0.000000 0.000000 -1.000000
vn 0.000000 0.000000 -1.000000
vn 0.000000 0.000000 -1.000000
vn 0.000000 0.000000 -1.000000
vn 0.000000 1.000000 0.000000
vn 0.000000 1.000000 0.000000
vn 0.000000 1.000000 0.000000
vn 0.000000 1.000000 0.000000
vn 0.000000 1.000000 0.000000
vn -1.000000 0.000000 0.000000
vn -1.000000 0.000000 0.000000
vn -1.000000 0.000000 0.000000
vn -1.000000 0.000000 0.000000
vn 0.000000 -1.000000 0.000000
vn 0.000000 -1.000000 0.000000
vn 0.000000 -1.000000 0.000000
vn 0.000000 -1.000000 0.000000
vn 0.000000 -1.000000 0.000000
vn 0.000000 0.000000 1.000000
vn 0.000000 0.000000 1.000000
vn 0.000000 0.000000 1.000000
vn 0.000000 0.000000 1.000000
s off
g polySurface89
usemtl lambert11SG
f 63/529/249 64/530/250 66/531/251 65/532/252
f 65/309/253 66/310/254 71/311/255 72/312/256
f 67/533/257 68/534/258 70/535/259 69/536/260
f 73/315/261 74/316/262 64/317/263 63/318/264
f 64/147/265 74/148/266 71/149/267 66/150/268
f 73/153/269 63/154/270 65/155/271 72/156/272
f 72/312/273 71/311/274 68/313/275 67/314/276
f 69/157/277 73/153/278 72/156/279 67/158/280
f 69/319/281 70/320/282 74/316/283 73/315/284
f 71/149/285 74/148/286 70/151/287 68/152/288
f 75/537/289 76/538/290 77/539/291 78/540/292
f 79/159/293 75/160/294 78/161/295 80/162/296
f 79/321/297 81/322/298 76/323/299 75/324/300
f 77/539/301 76/538/302 82/541/303 83/542/304
f 78/387/305 77/388/306 84/389/307 80/390/308
f 85/163/309 86/164/310 79/159/311 80/162/312
f 86/325/313 87/326/314 81/322/315 79/321/316
f 76/323/317 81/322/318 88/327/319 82/328/320
f 77/388/321 83/391/322 89/392/323 84/389/324
f 83/542/325 82/541/326 90/543/327 91/544/328
f 80/390/329 84/389/330 92/393/331 85/394/332
f 93/165/333 86/164/334 85/163/335 94/166/336
f 93/329/337 95/330/338 87/326/339 86/325/340
f 81/175/341 87/176/342 96/177/343 97/178/344
f 88/545/345 81/546/346 97/547/347 98/548/348
f 82/328/349 88/327/350 99/331/351 90/332/352
f 83/391/353 91/395/354 100/396/355 89/392/356
f 84/549/357 89/550/358 101/551/359 102/552/360
f 91/179/361 90/180/362 103/181/363 104/182/364
f 92/183/365 84/184/366 102/185/367 105/186/368
f 85/394/369 92/393/370 106/397/371 94/398/372
f 107/167/373 93/165/374 94/166/375 108/168/376
f 107/333/377 109/334/378 95/330/379 93/329/380
f 110/335/381 87/326/382 95/330/383 111/336/384
f 87/553/385 110/554/386 112/555/387 96/556/388
f 98/453/389 97/454/390 96/455/391 112/456/392
f 110/187/393 88/188/394 98/189/395 112/190/396
f 99/331/397 88/327/398 110/335/399 113/337/400
f 114/338/401 90/332/402 99/331/403 115/339/404
f 100/396/405 91/395/406 116/399/407 117/400/408
f 89/392/409 100/396/410 118/401/411 119/402/412
f 89/191/413 119/192/414 120/193/415 101/194/416
f 102/457/417 101/458/418 120/459/419 105/460/420
f 116/399/421 91/395/422 104/406/423 121/407/424
f 90/332/425 114/338/426 122/345/427 103/346/428
f 121/557/429 104/558/430 103/559/431 122/560/432
f 119/561/433 92/562/434 105/563/435 120/564/436
f 92/393/437 119/402/438 123/403/439 106/397/440
f 94/398/441 106/397/442 124/404/443 108/405/444
f 125/169/445 107/167/446 108/168/447 126/170/448
f 125/340/449 127/341/450 109/334/451 107/333/452
f 111/336/453 95/330/454 109/334/455 128/342/456
f 113/337/457 110/335/458 111/336/459 129/343/460
f 115/339/461 99/331/462 113/337/463 130/344/464
f 114/338/465 115/339/466 131/347/467 132/348/468
f 133/410/469 118/401/470 100/396/471 117/400/472
f 117/400/473 116/399/474 134/408/475 135/409/476
f 119/402/477 118/401/478 136/411/479 123/403/480
f 114/195/481 116/196/482 121/197/483 122/198/484
f 106/397/485 123/403/486 137/412/487 124/404/488
f 108/405/489 124/404/490 138/413/491 126/414/492
f 139/171/493 125/169/494 126/170/495 140/172/496
f 139/349/497 141/350/498 127/341/499 125/340/500
f 128/342/501 109/334/502 127/341/503 142/351/504
f 129/343/505 111/336/506 128/342/507 143/352/508
f 113/337/509 129/343/510 144/353/511 130/344/512
f 131/347/513 115/339/514 130/344/515 145/354/516
f 116/565/517 114/566/518 132/567/519 134/568/520
f 132/348/521 131/347/522 146/355/523 147/356/524
f 133/410/525 117/400/526 135/409/527 148/417/528
f 136/411/529 118/401/530 133/410/531 149/418/532
f 134/408/533 150/415/534 151/416/535 135/409/536
f 152/573/537 153/574/538 154/575/539 123/576/540 136/577/541 155/578/542
f 137/199/543 123/200/544 156/201/545 157/202/546 158/203/547 159/204/548 160/205/549 161/206/550
f 124/404/551 137/412/552 162/419/553 138/413/554
f 126/414/555 138/413/556 163/420/557 140/421/558
f 164/173/559 139/171/560 140/172/561 165/174/562
f 164/357/563 166/358/564 141/350/565 139/349/566
f 127/214/567 141/215/568 167/216/569 168/217/570
f 143/352/571 128/342/572 142/351/573 169/359/574
f 142/593/575 127/594/576 168/595/577 170/596/578
f 144/353/579 129/343/580 143/352/581 171/360/582
f 145/354/583 130/344/584 144/353/585 172/361/586
f 131/218/587 145/219/588 173/220/589 174/221/590
f 134/568/591 132/567/592 147/569/593 150/570/594
f 146/597/595 131/598/596 174/599/597 175/600/598
f 147/356/599 146/355/600 176/362/601 177/363/602
f 149/418/603 133/410/604 148/417/605 178/424/606
f 148/222/607 135/223/608 179/224/609 180/225/610
f 136/411/611 149/418/612 181/425/613 182/426/614
f 150/415/615 183/422/616 184/423/617 151/416/618
f 135/601/619 151/602/620 185/603/621 179/604/622
f 123/576/623 154/575/624 186/579/625 152/573/626 155/578/627 156/580/628
f 153/226/629 152/227/630 187/228/631 188/229/632
f 154/461/633 153/462/634 188/463/635 189/464/636
f 155/230/637 136/231/638 182/232/639 190/233/640
f 162/209/641 137/199/642 161/206/643 191/210/644 192/211/645 158/203/646 157/202/647 193/212/648
f 157/202/649 156/201/650 194/207/651 195/208/652
f 138/413/653 162/419/654 196/427/655 163/420/656
f 140/421/657 163/420/658 197/428/659 165/429/660
f 165/605/661 197/606/662 166/607/663 164/608/664
f 198/364/665 141/350/666 166/358/667 199/365/668
f 141/621/669 198/622/670 200/623/671 167/624/672
f 170/465/673 168/466/674 167/467/675 200/468/676
f 171/360/677 143/352/678 169/359/679 201/367/680
f 169/359/681 142/351/682 198/364/683 202/366/684
f 198/234/685 142/235/686 170/236/687 200/237/688
f 172/361/689 144/353/690 171/360/691 203/368/692
f 204/369/693 145/354/694 172/361/695 205/370/696
f 145/625/697 204/626/698 206/627/699 173/628/700
f 175/469/701 174/470/702 173/471/703 206/472/704
f 150/570/705 147/569/706 177/571/707 183/572/708
f 204/238/709 146/239/710 175/240/711 206/241/712
f 176/362/713 146/355/714 204/369/715 207/371/716
f 177/242/717 176/243/718 184/244/719 183/245/720
f 208/590/721 209/591/722 210/588/723 149/587/724 178/592/725 211/585/726
f 148/417/727 212/431/728 213/432/729 178/424/730
f 212/629/731 148/630/732 180/631/733 214/632/734
f 179/473/735 185/474/736 214/475/737 180/476/738
f 149/258/739 215/259/740 216/260/741 181/261/742
f 182/633/743 181/634/744 216/635/745 190/636/746
f 151/416/747 184/423/748 217/430/749 212/431/750
f 151/262/751 212/263/752 214/264/753 185/265/754
f 186/266/755 154/267/756 189/268/757 218/269/758
f 152/477/759 186/478/760 218/479/761 187/480/762
f 156/580/763 155/578/764 219/581/765 194/582/766
f 218/637/767 189/638/768 188/639/769 187/640/770
f 215/481/771 155/482/772 190/483/773 216/484/774
f 220/641/775 162/642/776 193/643/777 221/644/778
f 193/212/779 157/202/780 195/208/781 222/213/782
f 194/485/783 219/486/784 223/487/785 195/488/786
f 162/419/787 220/433/788 224/434/789 196/427/790
f 163/420/791 196/427/792 225/435/793 197/428/794
f 166/607/795 197/606/796 225/609/797 199/610/798
f 202/366/799 198/364/800 199/365/801 226/372/802
f 203/368/803 171/360/804 201/367/805 227/374/806
f 201/367/807 169/359/808 202/366/809 228/373/810
f 205/370/811 172/361/812 203/368/813 229/375/814
f 207/371/815 204/369/816 205/370/817 230/376/818
f 184/244/819 176/243/820 207/246/821 217/247/822
f 149/587/823 210/588/824 231/589/825 208/590/826 211/585/827 215/583/828
f 209/270/829 208/271/830 232/272/831 233/273/832
f 210/497/833 209/498/834 233/499/835 234/500/836
f 178/274/837 235/275/838 236/276/839 237/277/840 238/278/841 239/279/842 240/280/843 211/281/844
f 212/431/845 217/430/846 241/436/847 213/432/848
f 178/424/849 213/432/850 242/437/851 235/438/852
f 155/578/853 215/583/854 243/584/855 219/581/856
f 244/647/857 220/641/858 221/644/859 245/648/860
f 221/644/861 193/643/862 222/645/863 246/646/864
f 195/488/865 223/487/866 246/491/867 222/492/868
f 223/487/869 219/486/870 243/489/871 247/490/872
f 224/434/873 220/433/874 244/439/875 248/440/876
f 196/427/877 224/434/878 249/441/879 225/435/880
f 199/610/881 225/609/882 249/611/883 226/612/884
f 228/373/885 202/366/886 226/372/887 250/377/888
f 229/375/889 203/368/890 227/374/891 251/379/892
f 227/374/893 201/367/894 228/373/895 252/378/896
f 230/376/897 205/370/898 229/375/899 253/380/900
f 217/247/901 207/246/902 230/248/903 241/249/904
f 231/289/905 210/290/906 234/291/907 254/292/908
f 208/501/909 231/502/910 254/503/911 232/504/912
f 215/583/913 211/585/914 255/586/915 243/584/916
f 254/653/917 234/654/918 233/655/919 232/656/920
f 240/280/921 239/279/922 256/282/923 257/283/924 236/276/925 235/275/926 258/284/927 259/285/928
f 260/505/929 261/506/930 237/507/931 236/508/932 257/509/933
f 238/657/934 237/658/935 261/659/936 262/660/937
f 262/510/938 263/511/939 256/512/940 239/513/941 238/514/942
f 211/281/943 240/280/944 264/286/945 255/287/946
f 213/432/947 241/436/948 265/442/949 242/437/950
f 235/438/951 242/437/952 266/443/953 258/444/954
f 258/650/955 244/647/956 245/648/957 259/651/958
f 245/648/959 221/644/960 246/646/961 267/649/962
f 246/491/963 223/487/964 247/490/965 267/495/966
f 247/490/967 243/489/968 255/493/969 264/494/970
f 268/446/971 249/441/972 224/434/973 248/440/974
f 248/440/975 244/439/976 258/444/977 269/445/978
f 250/613/979 226/612/980 249/611/981 268/614/982
f 252/378/983 228/373/984 250/377/985 270/381/986
f 253/380/987 229/375/988 251/379/989 271/382/990
f 251/661/991 227/662/992 272/663/993 273/664/994
f 227/293/995 252/294/996 274/295/997 272/296/998
f 241/249/999 230/248/1000 253/250/1001 265/251/1002
f 264/286/1003 240/280/1004 259/285/1005 275/288/1006
f 257/665/1007 256/666/1008 263/667/1009 260/668/1010
f 260/297/1011 263/298/1012 262/299/1013 261/300/1014
f 242/437/1015 265/442/1016 276/447/1017 266/443/1018
f 258/444/1019 266/443/1020 277/448/1021 269/445/1022
f 259/651/1023 245/648/1024 267/649/1025 275/652/1026
f 267/495/1027 247/490/1028 264/494/1029 275/496/1030
f 268/446/1031 248/440/1032 269/445/1033 278/449/1034
f 250/613/1035 268/614/1036 278/615/1037 270/616/1038
f 279/383/1039 252/378/1040 270/381/1041 280/384/1042
f 265/251/1043 253/250/1044 271/252/1045 276/253/1046
f 271/382/1047 251/379/1048 279/383/1049 281/385/1050
f 279/301/1051 251/302/1052 273/303/1053 282/304/1054
f 273/515/1055 272/516/1056 274/517/1057 282/518/1058
f 252/669/1059 279/670/1060 282/671/1061 274/672/1062
f 266/443/1063 276/447/1064 283/450/1065 277/448/1066
f 269/445/1067 277/448/1068 284/451/1069 278/449/1070
f 270/616/1071 278/615/1072 284/617/1073 280/618/1074
f 281/385/1075 279/383/1076 280/384/1077 285/386/1078
f 276/253/1079 271/252/1080 281/254/1081 283/255/1082
f 277/448/1083 283/450/1084 286/452/1085 284/451/1086
f 280/618/1087 284/617/1088 286/619/1089 285/620/1090
f 283/255/1091 281/254/1092 285/256/1093 286/257/1094
f 160/673/1095 159/674/1096 287/675/1097 288/676/1098
f 191/519/1099 161/520/1100 160/521/1101 288/522/1102 289/523/1103
f 288/305/1104 287/306/1105 290/307/1106 289/308/1107
f 159/524/1108 158/525/1109 192/526/1110 290/527/1111 287/528/1112
f 192/677/1113 191/678/1114 289/679/1115 290/680/1116
g default
v 0.339242 3.206893 -19.590349
v 1.615152 3.206893 -19.590349
v 0.339242 3.287212 -19.590349
v 1.615152 3.287212 -19.590349
v 0.339242 3.287212 -19.951555
v 1.615152 3.287212 -19.951555
v 0.339242 3.206893 -19.951555
v 1.615152 3.206893 -19.951555
v 0.339242 3.029596 -19.318699
v 1.615152 3.029596 -19.318699
v 0.339242 3.109915 -19.318699
v 1.615152 3.109915 -19.318699
v 0.339242 3.109915 -19.679905
v 1.615152 3.109915 -19.679905
v 0.339242 3.029596 -19.679905
v 1.615152 3.029596 -19.679905
v 0.339242 2.852299 -19.047049
v 1.615152 2.852299 -19.047049
v 0.339242 2.932618 -19.047049
v 1.615152 2.932618 -19.047049
v 0.339242 2.932618 -19.408255
v 1.615152 2.932618 -19.408255
v 0.339242 2.852299 -19.408255
v 1.615152 2.852299 -19.408255
v 0.339242 2.675003 -18.775398
v 1.615152 2.675003 -18.775398
v 0.339242 2.755321 -18.775398
v 1.615152 2.755321 -18.775398
v 0.339242 2.755321 -19.136604
v 1.615152 2.755321 -19.136604
v 0.339242 2.675003 -19.136604
v 1.615152 2.675003 -19.136604
vt 0.156536 0.642303
vt 0.156536 0.501840
vt 0.187770 0.501840
vt 0.187770 0.642303
vt 0.119648 0.642303
vt 0.119648 0.501840
vt 0.150882 0.501840
vt 0.150882 0.642303
vt 0.193426 0.642304
vt 0.193426 0.501839
vt 0.224660 0.501839
vt 0.224660 0.642304
vt 0.082760 0.642304
vt 0.082760 0.501840
vt 0.113994 0.501840
vt 0.113994 0.642304
vt 0.045870 0.642303
vt 0.045870 0.501840
vt 0.077104 0.501840
vt 0.077104 0.642303
vt 0.008982 0.642303
vt 0.008982 0.501840
vt 0.040216 0.501840
vt 0.040216 0.642303
vt 0.001836 0.786445
vt 0.001836 0.645982
vt 0.033070 0.645982
vt 0.033070 0.786445
vt 0.039736 0.786445
vt 0.039736 0.645982
vt 0.070970 0.645982
vt 0.070970 0.786445
vt 0.039736 0.498160
vt 0.039736 0.001992
vt 0.180200 0.001992
vt 0.180200 0.498160
vt 0.224747 0.498160
vt 0.224747 0.001992
vt 0.365210 0.001992
vt 0.365210 0.498160
vt 0.409757 0.498160
vt 0.409757 0.001992
vt 0.550222 0.001992
vt 0.550222 0.498160
vt 0.594768 0.498160
vt 0.594768 0.001992
vt 0.735232 0.001992
vt 0.735232 0.498160
vt 0.779334 0.498160
vt 0.779334 0.001992
vt 0.919797 0.001992
vt 0.919797 0.498160
vt 0.596328 0.998008
vt 0.596328 0.501840
vt 0.736791 0.501840
vt 0.736791 0.998008
vt 0.413321 0.998008
vt 0.413321 0.501840
vt 0.553785 0.501840
vt 0.553785 0.998008
vt 0.230315 0.998007
vt 0.230315 0.501839
vt 0.370779 0.501839
vt 0.370779 0.998007
vt 0.001836 0.498160
vt 0.001836 0.001992
vt 0.033070 0.001992
vt 0.033070 0.498160
vt 0.187026 0.498160
vt 0.187026 0.001992
vt 0.218260 0.001992
vt 0.218260 0.498160
vt 0.372037 0.498160
vt 0.372037 0.001992
vt 0.403270 0.001992
vt 0.403270 0.498160
vt 0.557047 0.498160
vt 0.557047 0.001992
vt 0.588281 0.001992
vt 0.588281 0.498160
vt 0.742058 0.498160
vt 0.742058 0.001992
vt 0.773291 0.001992
vt 0.773291 0.498160
vt 0.742446 0.998007
vt 0.742446 0.501839
vt 0.773679 0.501839
vt 0.773679 0.998007
vt 0.559439 0.998007
vt 0.559439 0.501839
vt 0.590673 0.501839
vt 0.590673 0.998007
vt 0.376433 0.998008
vt 0.376433 0.501840
vt 0.407667 0.501840
vt 0.407667 0.998008
vn 0.000000 0.000000 1.000000
vn 0.000000 0.000000 1.000000
vn 0.000000 0.000000 1.000000
vn 0.000000 0.000000 1.000000
vn 0.000000 1.000000 0.000000
vn 0.000000 1.000000 0.000000
vn 0.000000 1.000000 0.000000
vn 0.000000 1.000000 0.000000
vn 0.000000 0.000000 -1.000000
vn 0.000000 0.000000 -1.000000
vn 0.000000 0.000000 -1.000000
vn 0.000000 0.000000 -1.000000
vn 0.000000 -1.000000 0.000000
vn 0.000000 -1.000000 0.000000
vn 0.000000 -1.000000 0.000000
vn 0.000000 -1.000000 0.000000
vn 1.000000 0.000000 0.000000
vn 1.000000 0.000000 0.000000
vn 1.000000 0.000000 0.000000
vn 1.000000 0.000000 0.000000
vn -1.000000 0.000000 0.000000
vn -1.000000 0.000000 0.000000
vn -1.000000 0.000000 0.000000
vn -1.000000 0.000000 0.000000
vn 0.000000 0.000000 1.000000
vn 0.000000 0.000000 1.000000
vn 0.000000 0.000000 1.000000
vn 0.000000 0.000000 1.000000
vn 0.000000 1.000000 0.000000
vn 0.000000 1.000000 0.000000
vn 0.000000 1.000000 0.000000
vn 0.000000 1.000000 0.000000
vn 0.000000 0.000000 -1.000000
vn 0.000000 0.000000 -1.000000
vn 0.000000 0.000000 -1.000000
vn 0.000000 0.000000 -1.000000
vn 0.000000 -1.000000 0.000000
vn 0.000000 -1.000000 0.000000
vn 0.000000 -1.000000 0.000000
vn 0.000000 -1.000000 0.000000
vn 1.000000 0.000000 0.000000
vn 1.000000 0.000000 0.000000
vn 1.000000 0.000000 0.000000
vn 1.000000 0.000000 0.000000
vn -1.000000 0.000000 0.000000
vn -1.000000 0.000000 0.000000
vn -1.000000 0.000000 0.000000
vn -1.000000 0.000000 0.000000
vn 0.000000 0.000000 1.000000
vn 0.000000 0.000000 1.000000
vn 0.000000 0.000000 1.000000
vn 0.000000 0.000000 1.000000
vn 0.000000 1.000000 0.000000
vn 0.000000 1.000000 0.000000
vn 0.000000 1.000000 0.000000
vn 0.000000 1.000000 0.000000
vn 0.000000 0.000000 -1.000000
vn 0.000000 0.000000 -1.000000
vn 0.000000 0.000000 -1.000000
vn 0.000000 0.000000 -1.000000
vn 0.000000 -1.000000 0.000000
vn 0.000000 -1.000000 0.000000
vn 0.000000 -1.000000 0.000000
vn 0.000000 -1.000000 0.000000
vn 1.000000 0.000000 0.000000
vn 1.000000 0.000000 0.000000
vn 1.000000 0.000000 0.000000
vn 1.000000 0.000000 0.000000
vn -1.000000 0.000000 0.000000
vn -1.000000 0.000000 0.000000
vn -1.000000 0.000000 0.000000
vn -1.000000 0.000000 0.000000
vn 0.000000 0.000000 1.000000
vn 0.000000 0.000000 1.000000
vn 0.000000 0.000000 1.000000
vn 0.000000 0.000000 1.000000
vn 0.000000 1.000000 0.000000
vn 0.000000 1.000000 0.000000
vn 0.000000 1.000000 0.000000
vn 0.000000 1.000000 0.000000
vn 0.000000 0.000000 -1.000000
vn 0.000000 0.000000 -1.000000
vn 0.000000 0.000000 -1.000000
vn 0.000000 0.000000 -1.000000
vn 0.000000 -1.000000 0.000000
vn 0.000000 -1.000000 0.000000
vn 0.000000 -1.000000 0.000000
vn 0.000000 -1.000000 0.000000
vn 1.000000 0.000000 0.000000
vn 1.000000 0.000000 0.000000
vn 1.000000 0.000000 0.000000
vn 1.000000 0.000000 0.000000
vn -1.000000 0.000000 0.000000
vn -1.000000 0.000000 0.000000
vn -1.000000 0.000000 0.000000
vn -1.000000 0.000000 0.000000
s off
g polySurface82
usemtl phong6SG
f 291/745/1117 292/746/1118 294/747/1119 293/748/1120
f 293/713/1121 294/714/1122 296/715/1123 295/716/1124
f 295/749/1125 296/750/1126 298/751/1127 297/752/1128
f 297/717/1129 298/718/1130 292/719/1131 291/720/1132
f 292/681/1133 298/682/1134 296/683/1135 294/684/1136
f 297/685/1137 291/686/1138 293/687/1139 295/688/1140
f 299/753/1141 300/754/1142 302/755/1143 301/756/1144
f 301/721/1145 302/722/1146 304/723/1147 303/724/1148
f 303/757/1149 304/758/1150 306/759/1151 305/760/1152
f 305/725/1153 306/726/1154 300/727/1155 299/728/1156
f 300/689/1157 306/690/1158 304/691/1159 302/692/1160
f 305/693/1161 299/694/1162 301/695/1163 303/696/1164
f 307/761/1165 308/762/1166 310/763/1167 309/764/1168
f 309/729/1169 310/730/1170 312/731/1171 311/732/1172
f 311/765/1173 312/766/1174 314/767/1175 313/768/1176
f 313/733/1177 314/734/1178 308/735/1179 307/736/1180
f 308/697/1181 314/698/1182 312/699/1183 310/700/1184
f 313/701/1185 307/702/1186 309/703/1187 311/704/1188
f 315/769/1189 316/770/1190 318/771/1191 317/772/1192
f 317/737/1193 318/738/1194 320/739/1195 319/740/1196
f 319/773/1197 320/774/1198 322/775/1199 321/776/1200
f 321/741/1201 322/742/1202 316/743/1203 315/744/1204
f 316/705/1205 322/706/1206 320/707/1207 318/708/1208
f 321/709/1209 315/710/1210 317/711/1211 319/712/1212
