# This file uses centimeters as units for non-parametric coordinates.

mtllib Trees.mtl
g default
v 0.653124 19.188747 -0.672224
v 0.651551 20.080151 -0.720652
v 2.407617 20.080107 -0.719209
v 2.417625 19.188747 -0.672224
v 0.921433 20.080057 0.030900
v 2.696987 20.080105 0.028290
v 0.923657 19.188747 -0.019100
v 2.688158 19.188747 -0.019100
v 4.379868 20.084425 -1.411976
v 4.376541 19.193199 -1.367285
v 4.100638 20.084469 -0.672569
v 4.096865 19.193199 -0.718024
v 6.676822 19.782164 -0.139177
v 6.687531 19.458363 -0.140992
v 6.569400 19.782164 0.110200
v 6.575430 19.458361 0.119226
v 0.922545 19.634403 0.055900
v 2.703691 19.416609 0.346999
v 4.101924 19.334370 -0.413348
v 6.548075 19.645176 0.111868
v 0.786492 20.080105 -0.344876
v 2.552302 20.276884 -0.345459
v 4.240252 20.264780 -1.042273
v 6.631368 19.786133 -0.010932
v 0.652338 19.634542 -0.746438
v 2.404251 19.634476 -0.983519
v 4.381603 19.488541 -1.601141
v 6.714773 19.645176 -0.122959
v 0.598121 24.162020 -0.748522
v 0.623271 25.470989 -0.697607
v 3.069497 25.067371 -1.718348
v 3.178170 23.776020 -1.923500
v 0.925940 25.467518 0.027217
v 3.152558 24.983356 -0.947429
v 0.942866 24.155075 0.072000
v 3.301832 23.687990 -1.056574
v 2.122349 23.921532 -0.492287
v 2.039249 25.225437 -0.460106
v 1.846384 25.269180 -1.207978
v 1.888146 23.969021 -1.336011
v 0.610696 24.816505 -0.723064
v 1.684006 24.619101 -1.576988
v 3.123834 24.421696 -1.820924
v 0.934403 24.811296 0.049608
v 2.215576 24.586874 -0.131056
v 3.227195 24.335674 -1.002002
v 0.774606 25.469254 -0.335195
v 1.942817 25.747309 -0.834042
v 3.111027 25.025364 -1.332889
v 0.000000 24.158302 0.882651
v 0.045353 25.470036 0.898540
v -0.881423 25.283567 3.221478
v -0.835795 24.365284 3.249058
v -0.680422 25.470081 0.597956
v -1.717285 25.283682 3.010048
v -0.637634 24.158302 0.618534
v -1.771546 24.365515 3.006037
v -1.409616 26.233105 5.294160
v -1.409616 25.362335 5.298312
v -2.150566 26.233105 5.113105
v -2.155542 25.362335 5.116041
v 0.069128 24.814257 0.909095
v -0.559209 24.824425 3.400542
v -1.334006 25.820448 5.302742
v -0.317534 25.470058 0.748248
v -1.299354 25.753782 3.115763
v -1.775049 26.278547 5.182997
v -0.704970 24.814323 0.588515
v -2.228582 24.824598 3.008043
v -2.223590 25.820728 5.087297
v 0.007082 10.021421 -1.009156
v -0.043554 11.704096 -0.988059
v 1.676263 11.282495 -4.606211
v 1.673928 10.421615 -4.696017
v 0.715953 11.704096 -0.673454
v 2.071340 11.282495 -4.494480
v 0.666431 10.021421 -0.655046
v 2.074708 10.421615 -4.474613
v 0.865138 10.221518 -2.852587
v 0.814008 11.513922 -2.832521
v 1.414055 11.513922 -2.583967
v 1.363310 10.221518 -2.564830
v -0.067114 10.862759 -0.998608
v 0.532369 10.646547 -2.842554
v 1.724005 10.872681 -4.686501
v 0.740070 10.862759 -0.664250
v 1.706525 11.138709 -2.574398
v 2.059519 10.872681 -4.484547
v 0.336199 11.704096 -0.830757
v 1.114032 11.798297 -2.708244
v 1.891832 11.282495 -4.585732
v 0.664188 10.606317 0.616014
v 0.763715 11.646210 0.881689
v 2.258742 11.378263 4.745617
v 2.210946 11.060127 4.737754
v -0.044120 11.704178 0.948538
v 1.772446 11.378263 4.947081
v 0.010792 10.606317 0.970147
v 1.832041 10.499863 4.978244
v 3.139589 12.536474 7.137694
v 3.134457 12.096419 7.144243
v 2.872906 12.536474 7.289374
v 2.883413 12.017148 7.331828
v 1.437567 10.458542 2.676884
v 1.487080 11.541220 2.689769
v 0.864163 11.541220 2.947809
v 0.921417 10.503490 2.974196
v 2.672702 11.560259 5.940999
v 2.718446 11.980040 5.943506
v 2.295790 11.980040 6.118624
v 2.357727 11.393291 6.155036
v 0.335650 11.704178 0.791229
v 1.175622 11.717408 2.818789
v 2.015594 11.631081 4.846349
v 2.507118 12.053801 6.031065
v 2.998642 12.531456 7.220536
v 0.739649 11.155247 0.624967
v 1.817340 10.999881 2.683327
v 2.464984 11.219194 4.741686
v 2.917144 11.626662 5.942252
v 3.130435 12.339119 7.142819
v -0.067583 11.155247 0.959342
v 0.667348 10.867599 2.961003
v 1.568894 11.095160 4.962663
v 2.114278 11.627371 6.136830
v 2.876069 12.232855 7.310997
v 2.345202 9.595579 -6.208344
v 2.354025 10.171329 -6.196958
v 3.072908 9.918063 -7.682488
v 3.085917 9.497479 -7.740277
v 2.702309 10.171329 -6.052693
v 3.254382 9.922763 -7.627932
v 2.709507 9.513297 -6.062896
v 3.269190 9.497479 -7.669816
v 2.715560 9.517620 -6.974310
v 2.682287 10.089497 -6.992320
v 3.032700 10.089497 -6.847166
v 2.999698 9.606390 -6.866356
v 2.532188 10.172957 -6.134532
v 2.841563 10.186519 -6.921463
v 3.182799 9.910460 -7.704954
v 2.701511 9.769920 -6.032339
v 3.117892 9.720587 -6.819730
v 3.256214 9.727837 -7.639670
v 2.368142 9.769920 -6.234250
v 2.591884 9.742752 -7.010565
v 3.077793 9.728841 -7.724506
vt 0.601868 0.443480
vt 0.652665 0.445528
vt 0.653452 0.638465
vt 0.617896 0.626734
vt 0.703448 0.444711
vt 0.689008 0.624599
vt 0.730584 0.785771
vt 0.695108 0.785429
vt 0.762540 0.785107
vt 0.725421 0.616412
vt 0.766059 0.776499
vt 0.873376 0.710667
vt 0.822594 0.711398
vt 0.823390 0.524030
vt 0.858941 0.523875
vt 0.771792 0.709073
vt 0.787838 0.524185
vt 0.900530 0.363012
vt 0.932464 0.361014
vt 0.865032 0.360787
vt 0.182383 0.655656
vt 0.215297 0.654879
vt 0.232808 0.797674
vt 0.197878 0.798411
vt 0.166887 0.512901
vt 0.232040 0.512084
vt 0.282466 0.654102
vt 0.264545 0.791456
vt 0.297193 0.511267
vt 0.418505 0.655059
vt 0.389448 0.655800
vt 0.368847 0.507879
vt 0.400583 0.507109
vt 0.433232 0.803009
vt 0.368079 0.803722
vt 0.318421 0.656541
vt 0.333917 0.508648
vt 0.400583 0.500043
vt 0.440527 0.645435
vt 0.302926 0.804435
vt 0.250214 0.341490
vt 0.198049 0.340468
vt 0.215671 0.185460
vt 0.237595 0.186667
vt 0.262833 0.496313
vt 0.220324 0.495477
vt 0.169852 0.339447
vt 0.169571 0.184253
vt 0.256885 0.094533
vt 0.284196 0.095942
vt 0.257173 0.194467
vt 0.263858 0.351481
vt 0.177815 0.494640
vt 0.238758 0.093123
vt 0.303774 0.003605
vt 0.327286 0.005280
vt 0.289908 0.102723
vt 0.287070 0.001992
vt 0.013305 0.001992
vt 0.055814 0.002685
vt 0.043782 0.162085
vt 0.001861 0.161586
vt 0.093834 0.022566
vt 0.085704 0.162584
vt 0.060766 0.321484
vt 0.048448 0.321179
vt 0.073084 0.321788
vt 0.099348 0.172575
vt 0.092663 0.329589
vt 0.092320 0.414455
vt 0.119686 0.414553
vt 0.147493 0.507427
vt 0.162776 0.507030
vt 0.087178 0.414358
vt 0.128698 0.507537
vt 0.642758 0.849699
vt 0.660192 0.852506
vt 0.659115 0.907794
vt 0.641199 0.909015
vt 0.648795 0.790382
vt 0.662296 0.792389
vt 0.687044 0.851093
vt 0.673769 0.904540
vt 0.693382 0.789501
vt 0.628774 0.853207
vt 0.600206 0.855331
vt 0.600767 0.791835
vt 0.615862 0.792744
vt 0.635111 0.914731
vt 0.604026 0.916307
vt 0.591362 0.851721
vt 0.582928 0.789501
vt 0.584153 0.913941
vt 0.474278 0.468588
vt 0.445178 0.458139
vt 0.445223 0.321395
vt 0.474167 0.332599
vt 0.416078 0.447689
vt 0.416280 0.310190
vt 0.499185 0.190680
vt 0.527814 0.179868
vt 0.470555 0.201492
vt 0.419318 0.005512
vt 0.429249 0.001992
vt 0.409937 0.010311
vt 0.557356 0.193540
vt 0.616238 0.301819
vt 0.587887 0.303022
vt 0.533762 0.193932
vt 0.593695 0.439751
vt 0.587887 0.439665
vt 0.598029 0.004110
vt 0.598599 0.001992
vt 0.151042 0.998008
vt 0.122977 0.986289
vt 0.161608 0.895822
vt 0.190565 0.903290
vt 0.094912 0.974569
vt 0.132650 0.888355
vt 0.200238 0.805356
vt 0.230088 0.808573
vt 0.170388 0.802140
vt 0.858595 0.333780
vt 0.830493 0.345419
vt 0.754461 0.162078
vt 0.786826 0.153892
vt 0.802391 0.357057
vt 0.722097 0.170265
vt 0.717623 0.001992
vt 0.688543 0.007404
vt 0.512669 0.639516
vt 0.535902 0.629892
vt 0.596135 0.775284
vt 0.579442 0.776870
vt 0.446259 0.496681
vt 0.475667 0.484499
vt 0.505075 0.472318
vt 0.559136 0.620268
vt 0.056290 0.819019
vt 0.039925 0.812238
vt 0.077988 0.720126
vt 0.088903 0.726541
vt 0.020691 0.911783
vt 0.001861 0.903983
vt 0.023560 0.805458
vt 0.068251 0.714795
vt 0.443361 0.968164
vt 0.410211 0.975169
vt 0.475259 0.818155
vt 0.499378 0.828147
vt 0.380802 0.962987
vt 0.451139 0.808164
vt 0.699469 0.789501
vt 0.719142 0.789805
vt 0.754157 0.882777
vt 0.735227 0.882680
vt 0.531869 0.853364
vt 0.544203 0.847877
vt 0.570628 0.908550
vt 0.562118 0.906811
vt 0.506448 0.791771
vt 0.520245 0.786937
vt 0.559004 0.842123
vt 0.576171 0.902586
vt 0.533419 0.780599
vt 0.402818 0.471406
vt 0.368296 0.471466
vt 0.368301 0.335798
vt 0.402818 0.334763
vt 0.333788 0.471527
vt 0.333792 0.335538
vt 0.379602 0.182672
vt 0.402474 0.183065
vt 0.333457 0.182807
vt 0.367473 0.001992
vt 0.381939 0.004102
vt 0.356864 0.004931
vt 0.680735 0.439370
vt 0.646224 0.439284
vt 0.629358 0.301352
vt 0.680739 0.301871
vt 0.622989 0.193073
vt 0.681077 0.193173
vt 0.647058 0.003643
vt 0.657666 0.001992
vt 0.374753 0.992153
vt 0.323935 0.991498
vt 0.306556 0.892284
vt 0.356006 0.905938
vt 0.273118 0.990842
vt 0.255032 0.899503
vt 0.287103 0.813944
vt 0.337260 0.819724
vt 0.236947 0.808164
vt 0.146209 0.611166
vt 0.095867 0.626975
vt 0.111154 0.515475
vt 0.161155 0.511267
vt 0.131263 0.711066
vt 0.080580 0.710092
vt 0.045525 0.614400
vt 0.061153 0.519682
vt 0.029897 0.709118
vn -0.061749 -0.396965 -0.915754
vn -0.067041 -0.055487 -0.996206
vn -0.211843 -0.041478 -0.976423
vn -0.171949 -0.490056 -0.854564
vn -0.054161 0.970594 -0.234549
vn -0.055494 0.997826 -0.035564
vn -0.025287 0.999448 0.021554
vn -0.109319 0.934603 -0.338478
vn -0.059284 0.295096 0.953627
vn -0.082548 -0.022007 0.996344
vn 0.174129 -0.031023 0.984234
vn 0.230556 0.332445 0.914508
vn -0.316787 -0.052318 -0.947053
vn -0.278070 -0.571217 -0.772262
vn 0.038638 0.994436 -0.097998
vn 0.100854 0.937470 -0.333135
vn 0.456540 -0.115475 0.882177
vn 0.442037 0.341591 0.829409
vn 0.490562 -0.383191 -0.782633
vn 0.521848 -0.019792 -0.852809
vn 0.521933 -0.027579 -0.852541
vn 0.490562 -0.383191 -0.782633
vn 0.154293 0.986217 0.059753
vn 0.274221 0.930576 -0.242551
vn -0.247449 0.278515 0.928008
vn -0.229524 -0.074617 0.970439
vn -0.235978 0.002144 0.971756
vn -0.247449 0.278515 0.928008
vn -0.101793 -0.543507 0.833210
vn 0.054619 -0.726082 0.685435
vn 0.218111 -0.857878 0.465267
vn -0.123754 -0.671062 0.731000
vn -0.123754 -0.671062 0.731000
vn -0.053155 0.960791 0.272131
vn 0.083909 0.926305 0.367312
vn 0.122550 0.904869 0.407668
vn 0.016637 0.933795 0.357422
vn -0.063731 0.309052 -0.948907
vn -0.185414 0.353435 -0.916900
vn -0.278357 0.383789 -0.880468
vn 0.502990 0.224214 -0.834703
vn 0.502990 0.224214 -0.834703
vn -0.534160 -0.213568 -0.817962
vn -0.503142 0.077278 -0.860742
vn -0.394569 0.073791 -0.915899
vn -0.407616 -0.185218 -0.894172
vn -0.227155 0.850739 -0.473966
vn -0.010497 0.999646 0.024438
vn 0.170423 0.985350 0.006385
vn -0.037192 0.864320 -0.501565
vn 0.309162 0.289962 0.905727
vn 0.286947 0.042862 0.956987
vn 0.415372 0.005080 0.909638
vn 0.423433 0.286755 0.859346
vn 0.534806 -0.060954 0.842774
vn 0.562328 0.276053 0.779476
vn 0.345904 0.935153 -0.076419
vn 0.113947 0.852440 -0.510257
vn -0.273614 0.062197 -0.959827
vn -0.308609 -0.161681 -0.937347
vn -0.444177 0.313367 -0.839350
vn -0.334184 0.333266 -0.881621
vn -0.206406 0.349787 -0.913808
vn 0.236265 -0.255520 0.937491
vn 0.383060 -0.266402 0.884475
vn 0.485004 -0.270248 0.831708
vn 0.210975 0.828752 0.518324
vn 0.375951 0.787109 0.488999
vn 0.505969 0.733970 0.453082
vn 0.901333 -0.325107 0.286190
vn 0.950498 0.000259 0.310730
vn 0.944085 -0.029535 0.328378
vn 0.873778 -0.345087 0.342678
vn 0.466304 0.867792 0.171751
vn 0.001189 0.999708 -0.024138
vn 0.019978 0.983689 -0.178766
vn 0.517575 0.854721 0.039599
vn -0.816910 0.396942 -0.418444
vn -0.886628 -0.000163 -0.462484
vn -0.958826 -0.040513 -0.281089
vn -0.805353 0.450741 -0.385019
vn 0.957271 0.152550 0.245683
vn 0.796545 -0.385072 0.466085
vn 0.081853 0.947221 -0.309954
vn 0.572092 0.806629 -0.148529
vn -0.963398 0.195798 -0.183107
vn -0.779769 0.533308 -0.327938
vn 0.895034 0.328971 0.301153
vn 0.903150 0.373608 0.211510
vn 0.899428 0.428725 0.084993
vn -0.453165 0.866570 -0.209040
vn -0.450254 0.845964 -0.285684
vn -0.442174 0.811012 -0.383070
vn -0.812237 -0.392784 -0.431268
vn -0.857513 -0.436126 -0.272884
vn -0.859473 -0.487397 0.154112
vn -0.836124 -0.259005 -0.483542
vn -0.836124 -0.259005 -0.483542
vn -0.836124 -0.259005 -0.483542
vn -0.836124 -0.259005 -0.483542
vn -0.377079 0.859422 -0.345262
vn -0.377079 0.859422 -0.345262
vn -0.377079 0.859421 -0.345262
vn -0.377079 0.859421 -0.345262
vn 0.921020 0.334236 0.200023
vn 0.921020 0.334236 0.200023
vn 0.921020 0.334236 0.200023
vn 0.921020 0.334236 0.200023
vn -0.892871 -0.281221 -0.351704
vn -0.892871 -0.281221 -0.351704
vn -0.892871 -0.281221 -0.351704
vn -0.892871 -0.281221 -0.351704
vn -0.321552 0.932347 -0.165329
vn -0.321552 0.932347 -0.165329
vn -0.321552 0.932347 -0.165329
vn -0.321552 0.932347 -0.165329
vn 0.888622 0.237306 0.392475
vn 0.888622 0.237306 0.392475
vn 0.888622 0.237306 0.392475
vn 0.888622 0.237306 0.392475
vn -0.910537 0.167189 -0.378113
vn -0.910537 0.167189 -0.378113
vn -0.910537 0.167189 -0.378113
vn -0.910537 0.167189 -0.378113
vn -0.853558 0.190607 -0.484880
vn -0.853558 0.190607 -0.484880
vn -0.853558 0.190607 -0.484880
vn -0.853558 0.190607 -0.484880
vn 0.905601 -0.210741 0.368069
vn 0.905601 -0.210741 0.368069
vn 0.905601 -0.210741 0.368069
vn 0.905601 -0.210741 0.368069
vn 0.938446 -0.221202 0.265308
vn 0.938446 -0.221202 0.265308
vn 0.938446 -0.221202 0.265308
vn 0.938446 -0.221202 0.265308
vn 0.344258 0.932348 0.110512
vn 0.344258 0.932348 0.110512
vn 0.344258 0.932348 0.110512
vn 0.344258 0.932348 0.110512
vn 0.503232 0.863915 0.020232
vn 0.503232 0.863915 0.020232
vn 0.503232 0.863915 0.020232
vn 0.503232 0.863915 0.020232
vn 0.736864 -0.665001 -0.121673
vn 0.736864 -0.665001 -0.121673
vn 0.636381 -0.771283 -0.011946
vn 0.697954 -0.712056 -0.076394
vn 0.557718 0.812325 -0.170527
vn 0.557718 0.812325 -0.170527
vn 0.557718 0.812325 -0.170527
vn 0.557718 0.812325 -0.170527
vn -0.849756 0.366987 0.378464
vn -0.849756 0.366987 0.378464
vn -0.854124 0.397545 0.335307
vn -0.856106 0.427759 0.290010
vn 0.785666 -0.611037 0.096757
vn 0.785666 -0.611037 0.096757
vn 0.785666 -0.611037 0.096757
vn 0.785666 -0.611037 0.096757
vn -0.011403 0.918918 -0.394283
vn -0.011403 0.918918 -0.394283
vn -0.011403 0.918918 -0.394283
vn -0.011403 0.918918 -0.394283
vn -0.888087 0.264170 0.376185
vn -0.888087 0.264170 0.376185
vn -0.888087 0.264170 0.376185
vn -0.888087 0.264170 0.376185
vn 0.845531 -0.347319 -0.405520
vn 0.845531 -0.347319 -0.405520
vn 0.845531 -0.347319 -0.405520
vn 0.845531 -0.347319 -0.405520
vn 0.295774 0.950236 -0.097818
vn 0.295774 0.950236 -0.097818
vn 0.295774 0.950237 -0.097818
vn 0.295774 0.950236 -0.097818
vn -0.904551 0.170651 0.390726
vn -0.904551 0.170651 0.390726
vn -0.904551 0.170651 0.390726
vn -0.904551 0.170651 0.390726
vn 0.403408 -0.896128 0.184974
vn 0.403409 -0.896128 0.184974
vn 0.367368 0.792197 -0.487304
vn 0.367368 0.792197 -0.487304
vn 0.367368 0.792197 -0.487304
vn 0.367368 0.792197 -0.487304
vn -0.844457 0.518580 0.134046
vn -0.844457 0.518580 0.134046
vn -0.197445 0.972707 0.121888
vn -0.197445 0.972707 0.121888
vn -0.197445 0.972707 0.121888
vn -0.197445 0.972707 0.121888
vn -0.514918 0.812325 0.273839
vn -0.514918 0.812325 0.273839
vn -0.514918 0.812325 0.273839
vn -0.514918 0.812325 0.273839
vn -0.604254 0.792326 -0.084245
vn -0.604254 0.792326 -0.084245
vn -0.604254 0.792326 -0.084245
vn -0.604254 0.792326 -0.084245
vn -0.307868 0.914811 -0.261415
vn -0.307868 0.914811 -0.261415
vn -0.307868 0.914811 -0.261415
vn -0.307868 0.914811 -0.261415
vn 0.857847 0.350305 -0.376011
vn 0.857847 0.350305 -0.376012
vn 0.857847 0.350305 -0.376012
vn 0.857847 0.350305 -0.376012
vn 0.738513 0.575976 -0.350499
vn 0.762218 0.587863 -0.271000
vn 0.762218 0.587863 -0.271000
vn 0.743625 0.578655 -0.334933
vn 0.682275 0.544083 -0.488339
vn 0.682275 0.544083 -0.488338
vn 0.872080 0.297407 -0.388621
vn 0.872080 0.297407 -0.388621
vn 0.872080 0.297407 -0.388621
vn 0.872080 0.297407 -0.388621
vn -0.888388 -0.314682 0.334277
vn -0.888388 -0.314682 0.334277
vn -0.888388 -0.314682 0.334277
vn -0.888388 -0.314682 0.334277
vn -0.778394 -0.423001 0.463868
vn -0.814511 -0.427335 0.392372
vn -0.814511 -0.427335 0.392372
vn -0.782785 -0.423635 0.455830
vn -0.709984 -0.410355 0.572304
vn -0.709984 -0.410355 0.572304
vn -0.728840 -0.355610 0.585093
vn -0.728840 -0.355610 0.585092
vn -0.728840 -0.355610 0.585092
vn -0.728840 -0.355610 0.585092
vn -0.837627 -0.263318 -0.478586
vn -0.837627 -0.263318 -0.478586
vn -0.837627 -0.263318 -0.478586
vn -0.837627 -0.263318 -0.478586
vn -0.227948 0.894410 -0.384799
vn -0.227948 0.894410 -0.384799
vn -0.227948 0.894410 -0.384799
vn -0.227948 0.894410 -0.384799
vn 0.967048 0.154884 0.202061
vn 0.967048 0.154884 0.202061
vn 0.967048 0.154884 0.202061
vn 0.967048 0.154884 0.202062
vn -0.902407 -0.278696 -0.328618
vn -0.902407 -0.278696 -0.328618
vn -0.902407 -0.278696 -0.328618
vn -0.902407 -0.278696 -0.328618
vn -0.228996 0.964177 -0.133883
vn -0.228996 0.964177 -0.133883
vn -0.228996 0.964177 -0.133883
vn -0.228996 0.964177 -0.133883
vn 0.901208 0.124490 0.415123
vn 0.901208 0.124489 0.415123
vn 0.901208 0.124490 0.415123
vn 0.901208 0.124489 0.415123
vn 0.240624 0.969030 0.055511
vn 0.240624 0.969030 0.055511
vn 0.240624 0.969030 0.055511
vn 0.240624 0.969030 0.055511
vn 0.370076 0.920236 -0.127318
vn 0.370076 0.920236 -0.127318
vn 0.370076 0.920236 -0.127318
vn 0.370076 0.920236 -0.127318
vn 0.864515 -0.334915 0.374761
vn 0.864515 -0.334915 0.374761
vn 0.864515 -0.334915 0.374761
vn 0.864515 -0.334915 0.374761
vn 0.909296 -0.333221 0.249290
vn 0.909296 -0.333221 0.249290
vn 0.909296 -0.333221 0.249290
vn 0.909296 -0.333221 0.249290
vn -0.934021 0.120209 -0.336384
vn -0.934021 0.120209 -0.336384
vn -0.934021 0.120209 -0.336384
vn -0.934021 0.120209 -0.336384
vn -0.821032 0.191473 -0.537815
vn -0.821032 0.191473 -0.537815
vn -0.821032 0.191473 -0.537815
vn -0.821032 0.191473 -0.537815
s 1
g polySurface7
usemtl lambert2SG
f 1/166/1 25/167/2 26/168/3 4/169/4
s 2
f 2/94/5 21/95/6 22/96/7 3/97/8
s 3
f 5/178/9 17/179/10 18/180/11 6/181/12
s 1
f 4/169/4 26/168/3 27/172/13 10/173/14
s 2
f 3/97/8 22/96/7 23/100/15 9/101/16
s 3
f 6/181/12 18/180/11 19/182/17 11/183/18
s 4
f 10/173/19 27/172/20 28/175/21 14/176/22
s 2
f 9/101/16 23/100/15 24/103/23 13/104/24
s 5
f 11/183/25 19/182/26 20/184/27 15/185/28
s 3
f 17/110/10 7/111/29 8/108/30 18/107/11
f 19/106/17 18/107/11 8/108/30 12/109/31
s 5
f 20/112/27 19/106/26 12/109/32 16/113/33
s 2
f 21/95/6 5/98/34 6/99/35 22/96/7
f 23/100/15 22/96/7 6/99/35 11/102/36
f 24/103/23 23/100/15 11/102/36 15/105/37
s 1
f 25/167/2 2/170/38 3/171/39 26/168/3
f 27/172/13 26/168/3 3/171/39 9/174/40
s 4
f 28/175/21 27/172/20 9/174/41 13/177/42
s 6
f 29/199/43 41/200/44 42/196/45 40/195/46
s 7
f 30/114/47 47/115/48 48/116/49 39/117/50
s 8
f 33/186/51 44/187/52 45/188/53 38/189/54
f 38/189/54 45/188/53 46/192/55 34/193/56
s 7
f 39/117/50 48/116/49 49/120/57 31/121/58
s 6
f 40/195/46 42/196/45 43/197/59 32/198/60
f 41/200/44 30/203/61 39/201/62 42/196/45
f 43/197/59 42/196/45 39/201/62 31/202/63
s 8
f 44/187/52 35/190/64 37/191/65 45/188/53
f 46/192/55 45/188/53 37/191/65 36/194/66
s 7
f 47/115/48 33/118/67 38/119/68 48/116/49
f 49/120/57 48/116/49 38/119/68 34/122/69
s 9
f 50/1/70 62/2/71 63/3/72 53/4/73
s 10
f 51/123/74 65/124/75 66/125/76 52/126/77
s 11
f 54/12/78 68/13/79 69/14/80 55/15/81
s 9
f 53/4/73 63/3/72 64/7/82 59/8/83
s 10
f 52/6/77 66/10/76 67/11/84 58/9/85
s 11
f 55/15/81 69/14/80 70/18/86 60/19/87
s 9
f 62/2/71 51/5/88 52/6/89 63/3/72
f 64/7/82 63/3/72 52/6/89 58/9/90
s 10
f 65/124/75 54/127/91 55/128/92 66/125/76
f 67/129/84 66/125/76 55/128/92 60/130/93
s 11
f 68/13/79 56/16/94 57/17/95 69/14/80
f 70/18/86 69/14/80 57/17/95 61/20/96
s off
f 79/21/97 84/22/98 85/23/99 74/24/100
f 80/131/101 90/132/102 91/133/103 73/134/104
f 81/30/105 87/31/106 88/32/107 76/33/108
f 71/25/109 83/26/110 84/22/111 79/21/112
f 72/135/113 89/136/114 90/132/115 80/131/116
f 75/34/117 86/35/118 87/31/119 81/30/120
f 84/22/121 83/26/122 72/29/123 80/27/124
f 85/23/125 84/22/126 80/27/127 73/28/128
f 87/31/129 86/35/130 77/40/131 82/36/132
f 88/32/133 87/31/134 82/36/135 78/37/136
f 90/132/137 89/136/138 75/137/139 81/138/140
f 91/38/141 90/39/142 81/30/143 76/33/144
s 12
f 104/62/145 118/61/146 119/65/147 95/66/148
s off
f 105/64/149 113/68/150 114/69/151 94/67/152
s 13
f 106/41/153 123/42/154 124/43/155 97/44/156
s off
f 108/74/157 120/70/158 121/72/159 101/75/160
f 109/139/161 115/140/162 116/141/163 100/142/164
f 110/50/165 125/49/166 126/55/167 102/56/168
f 92/59/169 117/60/170 118/61/171 104/62/172
f 93/147/173 112/148/174 113/149/175 105/150/176
f 96/45/177 122/46/178 123/42/179 106/41/180
s 12
f 95/153/148 119/154/147 120/155/181 108/156/182
s off
f 94/143/183 114/144/184 115/140/185 109/139/186
s 13
f 97/44/156 124/43/155 125/49/187 110/50/188
s off
f 113/149/189 112/148/190 96/151/191 106/152/192
f 114/51/193 113/52/194 106/41/195 97/44/196
f 115/57/197 114/51/198 97/44/199 110/50/200
f 116/141/201 115/140/202 110/145/203 102/146/204
f 118/61/205 117/60/206 93/63/207 105/64/208
s 14
f 119/65/209 118/61/210 105/64/211 94/67/212
f 120/70/213 119/65/209 94/67/212 109/71/214
s off
f 121/72/215 120/70/216 109/71/217 100/73/218
f 123/42/219 122/46/220 98/53/221 107/47/222
s 15
f 124/43/223 123/42/224 107/47/225 99/48/226
f 125/49/227 124/43/223 99/48/226 111/54/228
s off
f 126/55/229 125/49/230 111/54/231 103/58/232
f 135/76/233 146/77/234 147/78/235 130/79/236
f 136/157/237 140/158/238 141/159/239 129/160/240
f 137/85/241 143/86/242 144/87/243 132/88/244
f 127/80/245 145/81/246 146/77/247 135/76/248
f 128/161/249 139/162/250 140/158/251 136/157/252
f 131/89/253 142/90/254 143/86/255 137/85/256
f 140/158/257 139/162/258 131/165/259 137/163/260
f 141/159/261 140/158/262 137/163/263 132/164/264
f 143/86/265 142/90/266 133/93/267 138/91/268
f 144/87/269 143/86/270 138/91/271 134/92/272
f 146/77/273 145/81/274 128/84/275 136/82/276
f 147/78/277 146/77/278 136/82/279 129/83/280
g default
v 0.874660 0.073044 -1.116601
v -0.138164 0.073044 -1.536126
v -1.150989 0.073044 -1.116601
v -1.570514 0.073044 -0.103777
v -1.150989 0.073044 0.909047
v -0.138164 0.073044 1.328573
v 0.874660 0.073044 0.909047
v 1.294185 0.073044 -0.103777
v 0.349314 40.047554 -0.368414
v 0.000000 40.047554 -0.513105
v -0.349314 40.047554 -0.368414
v -0.494005 40.047554 -0.019100
v -0.349314 40.047554 0.330214
v 0.000000 40.047554 0.474904
v 0.349314 40.047554 0.330214
v 0.494005 40.047554 -0.019100
v -0.138164 0.073044 -0.103777
v 0.000000 40.047554 -0.019100
v 0.651551 20.030058 -0.670652
v 0.921433 20.030058 -0.019100
v 0.651551 20.030058 0.632451
v 0.000000 20.030058 0.902333
v -0.651551 20.030058 0.632451
v -0.921433 20.030058 -0.019100
v -0.651551 20.030058 -0.670652
v 0.000000 20.030058 -0.940533
v 0.670257 10.021310 -0.689357
v 0.947886 10.021310 -0.019100
v 0.670257 10.021310 0.651157
v 0.000000 10.021310 0.928786
v -0.670257 10.021310 0.651157
v -0.947886 10.021310 -0.019100
v -0.670257 10.021310 -0.689357
v 0.000000 10.021310 -0.966987
v 0.617810 30.038807 -0.636910
v 0.873715 30.038807 -0.019100
v 0.617810 30.038807 0.598710
v 0.000000 30.038807 0.854615
v -0.617810 30.038807 0.598710
v -0.873715 30.038807 -0.019100
v -0.617810 30.038807 -0.636910
v 0.000000 30.038807 -0.892815
v 0.572258 35.043179 -0.591358
v 0.809295 35.043179 -0.019100
v 0.572258 35.043179 0.553158
v 0.000000 35.043179 0.790194
v -0.572258 35.043179 0.553157
v -0.809295 35.043179 -0.019100
v -0.572258 35.043179 -0.591358
v 0.000000 35.043179 -0.828395
v 0.515111 37.815338 -0.534211
v 0.728477 37.815338 -0.019100
v 0.515111 37.815338 0.496011
v 0.000000 37.815338 0.709377
v -0.515111 37.815338 0.496011
v -0.728477 37.815338 -0.019100
v -0.515111 37.815338 -0.534211
v 0.000000 37.815338 -0.747577
v -0.940824 12.693284 -0.019100
v -0.665263 12.693284 -0.684363
v 0.000000 12.693284 -0.959924
v 0.665263 12.693284 -0.684363
v 0.940824 12.693284 -0.019100
v 0.665263 12.693284 0.646163
v 0.000000 12.693284 0.921724
v -0.665263 12.693284 0.646163
v -0.943570 11.654258 -0.019100
v -0.667205 11.654258 -0.686305
v 0.000000 11.654258 -0.962671
v 0.667205 11.654258 -0.686305
v 0.943570 11.654258 -0.019100
v 0.667205 11.654258 0.648105
v 0.000000 11.654258 0.924470
v -0.667205 11.654258 0.648105
v -0.895735 25.420076 -0.019100
v -0.633381 25.420076 -0.652481
v 0.000000 25.420076 -0.914836
v 0.633381 25.420076 -0.652481
v 0.895736 25.420076 -0.019100
v 0.633381 25.420076 0.614280
v 0.000000 25.420076 0.876635
v -0.633381 25.420076 0.614280
v -0.901751 24.158302 -0.019100
v -0.637634 24.158302 -0.656735
v 0.000000 24.158302 -0.920851
v 0.637634 24.158302 -0.656735
v 0.901751 24.158302 -0.019100
v 0.637634 24.158302 0.618534
v 0.000000 24.158302 0.882651
v -0.637634 24.158302 0.618534
v -0.653124 19.188747 0.634023
v -0.923656 19.188747 -0.019100
v -0.653124 19.188747 -0.672224
v 0.000000 19.188747 -0.942757
v 0.653124 19.188747 -0.672224
v 0.923657 19.188747 -0.019100
v 0.653124 19.188747 0.634024
v 0.000000 19.188747 0.904556
v -0.930978 24.365143 3.219365
v -1.676904 24.365143 3.037094
v -0.930978 25.235912 3.215214
v -1.671928 25.235912 3.034159
v -1.409616 25.362335 5.298312
v -2.155542 25.362335 5.116041
v -1.409616 26.233105 5.294160
v -2.150566 26.233105 5.113105
v -1.820407 26.671783 7.037072
v -2.125099 26.671783 6.962619
v -1.820407 27.027470 7.035376
v -2.123067 27.027470 6.961420
v 3.217683 23.772303 -1.831712
v 3.260718 23.691217 -1.147674
v 3.079606 25.016458 -1.673222
v 3.122353 24.935915 -0.993747
v 5.558786 25.460550 -1.738775
v 5.562197 25.396542 -1.261127
v 5.837206 26.289122 -1.628105
v 5.840594 26.225540 -1.153644
v 7.772758 25.687126 -1.649461
v 7.775239 25.640572 -1.302058
v 7.975259 26.289762 -1.568969
v 7.977722 26.243519 -1.223884
v 2.217156 10.366429 4.773269
v 1.821392 10.366429 4.937200
v 2.215354 11.330630 4.771467
v 1.821392 11.330630 4.934651
v 3.140809 11.883783 7.180130
v 2.872906 11.883783 7.291099
v 3.139589 12.536474 7.178911
v 2.872906 12.536474 7.289374
v 1.715125 10.421503 -4.653848
v 2.065002 10.421503 -4.508924
v 1.715125 11.273909 -4.651595
v 2.063409 11.273909 -4.507331
v 2.354025 9.318924 -6.199211
v 2.703902 9.318924 -6.054287
v 2.354025 10.171329 -6.196958
v 2.702309 10.171329 -6.052693
v 3.094740 9.497364 -7.731144
v 3.263585 9.497364 -7.661206
v 3.094740 9.908722 -7.730057
v 3.262816 9.908722 -7.660437
v 2.417625 19.188747 -0.672224
v 2.688158 19.188747 -0.019100
v 2.416053 20.030058 -0.670652
v 2.685934 20.030058 -0.019100
v 4.376541 19.193199 -1.367285
v 4.096865 19.193199 -0.718024
v 4.374318 20.034510 -1.367316
v 4.095315 20.034510 -0.719619
v 6.677678 19.458240 -0.139165
v 6.569997 19.458240 0.110814
v 6.676822 19.782164 -0.139177
v 6.569400 19.782164 0.110200
v 0.870293 0.596575 -1.112235
v 1.288010 0.596575 -0.103777
v 0.870293 0.596575 0.904681
v -0.138164 0.596575 1.322398
v -1.146622 0.596575 0.904681
v -1.564339 0.596575 -0.103777
v -1.146622 0.596575 -1.112235
v -0.138164 0.596575 -1.529951
v 2.209647 -0.539256 -0.676387
v 1.903018 -0.539256 -1.416653
v 1.899827 -0.156611 -1.413461
v 2.205132 -0.156611 -0.676387
v 1.162750 -0.539256 -0.676387
v 0.454925 -0.851238 3.250450
v 1.467750 -0.851238 2.830926
v 1.463383 -0.327706 2.826559
v 0.454925 -0.327706 3.244276
v 0.454925 -0.851238 1.818103
v -2.811779 -0.771112 -1.764644
v -3.231304 -0.771112 -0.751820
v -3.225129 -0.247581 -0.751820
v -2.807412 -0.247581 -1.760277
v -1.798954 -0.771112 -0.751820
vt 0.002686 0.886143
vt 0.002686 0.864868
vt 0.013683 0.864868
vt 0.013683 0.886051
vt 0.574384 0.001992
vt 0.595659 0.001992
vt 0.595567 0.012989
vt 0.574384 0.012989
vt 0.590242 0.210958
vt 0.576163 0.210958
vt 0.590177 0.245258
vt 0.576163 0.245258
vt 0.553201 0.012989
vt 0.562084 0.210958
vt 0.590137 0.267083
vt 0.576163 0.267083
vt 0.562148 0.245258
vt 0.589882 0.403522
vt 0.576163 0.403522
vt 0.562189 0.267083
vt 0.589849 0.421194
vt 0.576163 0.421194
vt 0.562444 0.403522
vt 0.589556 0.507908
vt 0.576163 0.507908
vt 0.562477 0.421194
vt 0.589467 0.534412
vt 0.576163 0.534412
vt 0.562769 0.507908
vt 0.640359 0.512253
vt 0.640297 0.530544
vt 0.589140 0.631430
vt 0.576163 0.631430
vt 0.562858 0.534412
vt 0.684028 0.533199
vt 0.683966 0.551490
vt 0.588183 0.736548
vt 0.576163 0.736548
vt 0.563185 0.631430
vt 0.722815 0.560705
vt 0.722790 0.568176
vt 0.586983 0.794778
vt 0.576163 0.794778
vt 0.564142 0.736548
vt 0.583500 0.841666
vt 0.576163 0.841666
vt 0.565343 0.794778
vt 0.568825 0.841666
vt 0.133616 0.021407
vt 0.154890 0.021407
vt 0.154890 0.032404
vt 0.133708 0.032404
vt 0.166918 0.008545
vt 0.166918 0.016583
vt 0.153112 0.230372
vt 0.139033 0.230372
vt 0.093338 0.012989
vt 0.093246 0.001992
vt 0.182468 0.008545
vt 0.182401 0.016583
vt 0.176073 0.032404
vt 0.167191 0.230372
vt 0.153112 0.264673
vt 0.139097 0.264673
vt 0.167127 0.264673
vt 0.153112 0.286498
vt 0.139138 0.286498
vt 0.052485 0.257875
vt 0.052447 0.237622
vt 0.247422 0.238779
vt 0.247388 0.256683
vt 0.167086 0.286498
vt 0.153112 0.422937
vt 0.139393 0.422937
vt 0.001916 0.283204
vt 0.001890 0.269494
vt 0.279882 0.215619
vt 0.279849 0.233524
vt 0.166831 0.422937
vt 0.153112 0.440608
vt 0.139426 0.440608
vt 0.313636 0.219367
vt 0.313620 0.228007
vt 0.153112 0.527323
vt 0.139718 0.527323
vt 0.166798 0.440608
vt 0.166505 0.527323
vt 0.153112 0.553827
vt 0.139808 0.553827
vt 0.153112 0.650845
vt 0.140135 0.650845
vt 0.166416 0.553827
vt 0.166089 0.650845
vt 0.153112 0.755962
vt 0.141091 0.755962
vt 0.165132 0.755962
vt 0.153112 0.814192
vt 0.142292 0.814192
vt 0.163932 0.814192
vt 0.153112 0.861080
vt 0.145774 0.861080
vt 0.160449 0.861080
vt 0.061049 0.912315
vt 0.068347 0.913293
vt 0.066656 0.925951
vt 0.059407 0.924980
vt 0.098245 0.917799
vt 0.103496 0.917799
vt 0.103496 0.924603
vt 0.098258 0.924603
vt 0.378849 0.863311
vt 0.405353 0.863185
vt 0.401484 0.912308
vt 0.383193 0.912395
vt 0.422430 0.955976
vt 0.404140 0.956063
vt 0.439116 0.992551
vt 0.431645 0.992587
vt 0.479238 0.996918
vt 0.444938 0.996827
vt 0.452187 0.912629
vt 0.472441 0.912683
vt 0.484060 0.863185
vt 0.497770 0.863221
vt 0.764005 0.845544
vt 0.798305 0.845453
vt 0.790316 0.922940
vt 0.772411 0.922987
vt 0.767156 0.955401
vt 0.749251 0.955448
vt 0.761640 0.987604
vt 0.752999 0.987627
vt 0.164547 0.905367
vt 0.153550 0.905238
vt 0.134135 0.864868
vt 0.145132 0.864998
vt 0.153550 0.935324
vt 0.134135 0.894955
vt 0.175169 0.914184
vt 0.183981 0.892910
vt 0.205256 0.914184
vt 0.177679 0.871309
vt 0.193228 0.886858
vt 0.183981 0.935459
vt 0.193228 0.864868
vt 0.205256 0.884097
vt 0.191644 0.949070
vt 0.170369 0.970344
vt 0.226530 0.892910
vt 0.205256 0.944271
vt 0.191644 0.979156
vt 0.266900 0.880452
vt 0.245625 0.901726
vt 0.226530 0.935459
vt 0.275712 0.901726
vt 0.235343 0.914184
vt 0.036434 0.921385
vt 0.029097 0.924424
vt 0.029097 0.914047
vt 0.021759 0.921385
vt 0.039473 0.914047
vt 0.018720 0.914047
vt 0.036434 0.906710
vt 0.021759 0.906710
vt 0.029097 0.903671
vt 0.535475 0.863185
vt 0.548869 0.868733
vt 0.529314 0.917816
vt 0.513645 0.913988
vt 0.519260 0.961485
vt 0.503591 0.957656
vt 0.510631 0.998008
vt 0.504231 0.996444
vt 0.599864 0.974819
vt 0.586560 0.980330
vt 0.564745 0.929500
vt 0.580309 0.925697
vt 0.554691 0.885831
vt 0.570255 0.882028
vt 0.555269 0.847007
vt 0.561626 0.845453
vt 0.857591 0.146371
vt 0.844198 0.151919
vt 0.819517 0.097725
vt 0.833885 0.096821
vt 0.821469 0.048549
vt 0.831502 0.048477
vt 0.823345 0.002044
vt 0.830642 0.001992
vt 0.792134 0.156262
vt 0.778830 0.150751
vt 0.799302 0.103980
vt 0.813575 0.104878
vt 0.802661 0.046883
vt 0.812627 0.046954
vt 0.804136 0.001992
vt 0.811385 0.002044
vt 0.605686 0.851285
vt 0.619765 0.845453
vt 0.652258 0.932039
vt 0.643945 0.935483
vt 0.671660 0.982596
vt 0.666032 0.984927
vt 0.691496 0.984955
vt 0.677481 0.979150
vt 0.715740 0.894915
vt 0.724015 0.898343
vt 0.737827 0.845453
vt 0.743429 0.847774
vt 0.818206 0.307964
vt 0.804127 0.302132
vt 0.840154 0.224689
vt 0.847503 0.227733
vt 0.853574 0.192228
vt 0.860923 0.195272
vt 0.869133 0.160049
vt 0.872680 0.161518
vt 0.878502 0.160343
vt 0.892516 0.154538
vt 0.921844 0.234800
vt 0.914528 0.237830
vt 0.935264 0.267261
vt 0.927948 0.270291
vt 0.947038 0.301032
vt 0.943507 0.302494
vt 0.333440 0.985733
vt 0.319721 0.991415
vt 0.319721 0.954351
vt 0.333440 0.948669
vt 0.305121 0.913204
vt 0.318759 0.919079
vt 0.330918 0.864868
vt 0.336169 0.867130
vt 0.358393 0.989747
vt 0.344707 0.984078
vt 0.344707 0.947015
vt 0.358393 0.952684
vt 0.359422 0.917410
vt 0.373027 0.911550
vt 0.341991 0.865442
vt 0.347229 0.863185
vt 0.115855 0.914012
vt 0.094673 0.905238
vt 0.107131 0.864868
vt 0.128313 0.873642
vt 0.054055 0.873642
vt 0.075238 0.864868
vt 0.088851 0.899753
vt 0.067668 0.908527
vt 0.397609 0.841666
vt 0.376335 0.841666
vt 0.376335 0.830669
vt 0.397517 0.830669
vt 0.355060 0.841666
vt 0.355152 0.830669
vt 0.379237 0.632700
vt 0.393316 0.632700
vt 0.419143 0.846490
vt 0.419210 0.854527
vt 0.320175 0.859398
vt 0.320266 0.848401
vt 0.365158 0.632700
vt 0.365222 0.598400
vt 0.379237 0.598400
vt 0.365263 0.576575
vt 0.379237 0.576575
vt 0.365518 0.440136
vt 0.379237 0.440136
vt 0.393252 0.598400
vt 0.393211 0.576575
vt 0.365551 0.422464
vt 0.379237 0.422464
vt 0.392956 0.440136
vt 0.365843 0.335749
vt 0.379237 0.335749
vt 0.392923 0.422464
vt 0.365932 0.309245
vt 0.379237 0.309245
vt 0.392630 0.335749
vt 0.429986 0.422464
vt 0.430019 0.440136
vt 0.366260 0.212228
vt 0.379237 0.212228
vt 0.392541 0.309245
vt 0.471120 0.422370
vt 0.471167 0.440042
vt 0.367216 0.107110
vt 0.379237 0.107110
vt 0.392214 0.212228
vt 0.443925 0.317724
vt 0.446825 0.343857
vt 0.519485 0.427671
vt 0.519503 0.434475
vt 0.368417 0.048880
vt 0.379237 0.048880
vt 0.391257 0.107110
vt 0.501849 0.290991
vt 0.496000 0.308395
vt 0.371899 0.001992
vt 0.379237 0.001992
vt 0.390057 0.048880
vt 0.546759 0.290978
vt 0.542505 0.303636
vt 0.386574 0.001992
vt 0.728896 0.001992
vt 0.750170 0.001992
vt 0.750170 0.012989
vt 0.728987 0.012989
vt 0.753072 0.210958
vt 0.738993 0.210958
vt 0.771353 0.012989
vt 0.767151 0.210958
vt 0.753072 0.245258
vt 0.739058 0.245258
vt 0.753072 0.267083
vt 0.739098 0.267083
vt 0.767087 0.245258
vt 0.767046 0.267083
vt 0.753072 0.403522
vt 0.739353 0.403522
vt 0.766791 0.403522
vt 0.753072 0.421194
vt 0.739386 0.421194
vt 0.766758 0.421194
vt 0.753072 0.507908
vt 0.739679 0.507908
vt 0.766466 0.507908
vt 0.766377 0.534412
vt 0.753072 0.534412
vt 0.766050 0.631430
vt 0.753072 0.631430
vt 0.765093 0.736548
vt 0.753072 0.736548
vt 0.739768 0.534412
vt 0.740095 0.631430
vt 0.763892 0.794778
vt 0.753072 0.794778
vt 0.741052 0.736548
vt 0.760410 0.841666
vt 0.753072 0.841666
vt 0.742252 0.794778
vt 0.745735 0.841666
vt 0.001890 0.911205
vt 0.001890 0.889930
vt 0.012887 0.890022
vt 0.012887 0.911205
vt 0.046461 0.912315
vt 0.052089 0.912315
vt 0.052063 0.926025
vt 0.046461 0.926025
vt 0.077749 0.920956
vt 0.074202 0.920956
vt 0.074202 0.912315
vt 0.077733 0.912315
vt 0.085299 0.917799
vt 0.091699 0.917799
vt 0.091699 0.925271
vt 0.085342 0.925271
vt 0.900218 0.150751
vt 0.873714 0.150624
vt 0.863903 0.101074
vt 0.890048 0.103980
vt 0.899724 0.052731
vt 0.917137 0.046883
vt 0.904850 0.006245
vt 0.917515 0.001992
vt 0.299206 0.983517
vt 0.281534 0.983471
vt 0.281534 0.946407
vt 0.299206 0.946454
vt 0.281628 0.916817
vt 0.299300 0.916849
vt 0.287195 0.864868
vt 0.293999 0.864881
vt 0.037237 0.864998
vt 0.048233 0.864868
vt 0.030502 0.899753
vt 0.019505 0.899883
vn 0.382661 0.010897 -0.923825
vn 0.382661 0.010897 -0.923825
vn 0.382260 0.047038 -0.922857
vn 0.382259 0.047089 -0.922855
vn -0.382660 0.010897 -0.923825
vn -0.382660 0.010897 -0.923825
vn -0.382050 0.057508 -0.922351
vn -0.382049 0.057546 -0.922349
vn -0.923825 0.010897 -0.382661
vn -0.923825 0.010897 -0.382661
vn -0.923825 0.010897 -0.382661
vn -0.923825 0.010897 -0.382660
vn -0.923825 0.010897 0.382661
vn -0.923825 0.010897 0.382661
vn -0.922531 0.054005 0.382125
vn -0.922534 0.053956 0.382126
vn -0.382661 0.010897 0.923825
vn -0.382661 0.010897 0.923825
vn -0.382345 0.042061 0.923062
vn -0.382346 0.042018 0.923064
vn 0.382660 0.010896 0.923825
vn 0.382660 0.010896 0.923825
vn 0.382660 0.010896 0.923825
vn 0.382660 0.010896 0.923825
vn 0.923825 0.010896 0.382661
vn 0.923825 0.010896 0.382661
vn 0.923499 0.028681 0.382526
vn 0.923499 0.028685 0.382526
vn 0.923825 0.010898 -0.382661
vn 0.923825 0.010898 -0.382661
vn 0.923825 0.010898 -0.382661
vn 0.923825 0.010898 -0.382661
vn 0.000000 -1.000000 0.000000
vn 0.000000 -1.000000 0.000000
vn 0.000000 -1.000000 0.000000
vn 0.000000 -1.000000 0.000000
vn 0.000000 -1.000000 0.000000
vn 0.000000 -1.000000 0.000000
vn 0.000000 -1.000000 0.000000
vn 0.000000 -1.000000 0.000000
vn 0.000000 -1.000000 0.000000
vn 0.000000 -1.000000 0.000000
vn 0.000000 -1.000000 0.000000
vn 0.000000 -1.000000 0.000000
vn 0.000000 -1.000000 0.000000
vn 0.000000 -1.000000 0.000000
vn 0.000000 -1.000000 -0.000000
vn 0.000000 -1.000000 -0.000000
vn 0.000000 -1.000000 -0.000000
vn 0.000000 -1.000000 0.000000
vn 0.000000 -1.000000 0.000000
vn 0.000000 -1.000000 0.000000
vn 0.000000 1.000000 0.000000
vn 0.000000 1.000000 0.000000
vn 0.000000 1.000000 -0.000001
vn 0.000000 1.000000 -0.000006
vn 0.000000 1.000000 -0.000006
vn 0.000000 1.000000 0.000000
vn 0.000000 1.000000 0.000000
vn 0.000000 1.000000 0.000000
vn 0.000000 1.000000 0.000000
vn 0.923871 0.004405 -0.382680
vn 0.923871 0.004405 -0.382680
vn 0.923871 0.004405 -0.382680
vn 0.923871 0.004405 -0.382680
vn 0.923872 0.004069 0.382681
vn 0.923872 0.004069 0.382681
vn 0.923871 0.004405 0.382680
vn 0.923871 0.004405 0.382680
vn 0.382680 0.004069 0.923872
vn 0.382680 0.004069 0.923872
vn 0.382680 0.004405 0.923871
vn 0.382680 0.004405 0.923871
vn -0.382680 0.004069 0.923872
vn -0.382680 0.004069 0.923872
vn -0.382680 0.004405 0.923871
vn -0.382680 0.004405 0.923871
vn -0.923872 0.004069 0.382680
vn -0.923872 0.004069 0.382680
vn -0.923871 0.004405 0.382680
vn -0.923871 0.004405 0.382680
vn -0.923872 0.004069 -0.382680
vn -0.923872 0.004069 -0.382680
vn -0.923871 0.004405 -0.382680
vn -0.923871 0.004405 -0.382680
vn -0.382680 0.004069 -0.923872
vn -0.382680 0.004069 -0.923872
vn -0.382680 0.004405 -0.923871
vn -0.382680 0.004405 -0.923871
vn 0.382680 0.004069 -0.923872
vn 0.382680 0.004069 -0.923872
vn 0.382680 0.004405 -0.923871
vn 0.382680 0.004405 -0.923871
vn 0.923388 0.032612 -0.382480
vn 0.923386 0.032676 -0.382479
vn 0.923877 0.002442 -0.382682
vn 0.923877 0.002442 -0.382682
vn 0.923553 0.026595 0.382548
vn 0.923552 0.026605 0.382548
vn 0.923877 0.002442 0.382682
vn 0.923877 0.002442 0.382682
vn 0.382681 0.002442 0.923877
vn 0.382681 0.002442 0.923877
vn 0.382681 0.002442 0.923877
vn 0.382681 0.002442 0.923877
vn -0.382389 0.039204 0.923169
vn -0.382391 0.039110 0.923173
vn -0.382682 0.002442 0.923877
vn -0.382682 0.002442 0.923877
vn -0.922704 0.050435 0.382196
vn -0.922709 0.050334 0.382198
vn -0.923877 0.002442 0.382682
vn -0.923877 0.002442 0.382682
vn -0.922408 0.056422 -0.382074
vn -0.922409 0.056400 -0.382074
vn -0.923877 0.002442 -0.382682
vn -0.923877 0.002442 -0.382682
vn -0.382132 0.053681 -0.922548
vn -0.382130 0.053759 -0.922544
vn -0.382682 0.002442 -0.923877
vn -0.382682 0.002442 -0.923877
vn 0.382682 0.002443 -0.923877
vn 0.382681 0.002443 -0.923877
vn 0.382682 0.002443 -0.923877
vn 0.382682 0.002443 -0.923877
vn 0.923849 0.008197 -0.382671
vn 0.923849 0.008197 -0.382671
vn 0.923747 0.016911 -0.382629
vn 0.923747 0.016911 -0.382629
vn 0.923849 0.008197 0.382671
vn 0.923849 0.008197 0.382671
vn 0.923748 0.016911 0.382629
vn 0.923748 0.016911 0.382629
vn 0.382670 0.008197 0.923849
vn 0.382670 0.008197 0.923849
vn 0.382629 0.016911 0.923748
vn 0.382629 0.016911 0.923748
vn -0.382671 0.008197 0.923849
vn -0.382671 0.008197 0.923849
vn -0.382629 0.016911 0.923747
vn -0.382629 0.016911 0.923747
vn -0.923849 0.008197 0.382671
vn -0.923849 0.008197 0.382671
vn -0.923748 0.016911 0.382629
vn -0.923748 0.016911 0.382629
vn -0.923849 0.008197 -0.382671
vn -0.923849 0.008197 -0.382671
vn -0.923747 0.016911 -0.382629
vn -0.923747 0.016911 -0.382629
vn -0.382670 0.008197 -0.923849
vn -0.382670 0.008197 -0.923849
vn -0.382629 0.016911 -0.923747
vn -0.382629 0.016911 -0.923747
vn 0.382670 0.008197 -0.923849
vn 0.382670 0.008197 -0.923849
vn 0.382629 0.016911 -0.923747
vn 0.382629 0.016911 -0.923747
vn 0.922548 0.053674 -0.382132
vn 0.922548 0.053674 -0.382132
vn 0.922548 0.053674 0.382132
vn 0.922548 0.053674 0.382132
vn 0.382132 0.053674 0.922548
vn 0.382132 0.053674 0.922548
vn -0.382132 0.053674 0.922548
vn -0.382132 0.053674 0.922548
vn -0.922548 0.053674 0.382132
vn -0.922548 0.053674 0.382132
vn -0.922548 0.053674 -0.382132
vn -0.922548 0.053674 -0.382132
vn -0.382132 0.053674 -0.922548
vn -0.382132 0.053674 -0.922548
vn 0.382132 0.053674 -0.922548
vn 0.382132 0.053674 -0.922548
vn 0.919560 0.096591 -0.380894
vn 0.919560 0.096591 -0.380894
vn 0.919560 0.096591 0.380895
vn 0.919560 0.096591 0.380895
vn 0.380895 0.096591 0.919559
vn 0.380895 0.096591 0.919559
vn -0.380893 0.096591 0.919560
vn -0.380893 0.096591 0.919560
vn -0.919560 0.096591 0.380894
vn -0.919560 0.096591 0.380894
vn -0.919560 0.096591 -0.380894
vn -0.919560 0.096591 -0.380894
vn -0.380894 0.096591 -0.919560
vn -0.380894 0.096591 -0.919560
vn 0.380894 0.096591 -0.919560
vn 0.380894 0.096591 -0.919560
vn -0.923877 0.002442 -0.382682
vn -0.923877 0.002442 -0.382682
vn -0.923877 0.002442 -0.382682
vn -0.923877 0.002442 -0.382682
vn -0.382682 0.002442 -0.923877
vn -0.382682 0.002442 -0.923877
vn -0.382682 0.002442 -0.923877
vn -0.382682 0.002442 -0.923877
vn 0.382682 0.002442 -0.923877
vn 0.382682 0.002442 -0.923877
vn 0.382682 0.002442 -0.923877
vn 0.382682 0.002442 -0.923877
vn 0.923877 0.002442 -0.382682
vn 0.923877 0.002442 -0.382682
vn 0.923877 0.002442 -0.382682
vn 0.923877 0.002442 -0.382682
vn 0.923877 0.002442 0.382682
vn 0.923877 0.002442 0.382682
vn 0.923877 0.002442 0.382682
vn 0.923877 0.002442 0.382682
vn 0.382682 0.002442 0.923877
vn 0.382682 0.002442 0.923877
vn 0.382682 0.002442 0.923877
vn 0.382682 0.002442 0.923877
vn -0.382682 0.002442 0.923877
vn -0.382682 0.002442 0.923877
vn -0.382682 0.002442 0.923877
vn -0.382682 0.002442 0.923877
vn -0.923877 0.002442 0.382682
vn -0.923877 0.002442 0.382682
vn -0.923877 0.002442 0.382682
vn -0.923877 0.002442 0.382682
vn 0.382682 0.002442 -0.923877
vn 0.382682 0.002442 -0.923877
vn 0.382682 0.002442 0.923877
vn 0.382682 0.002442 0.923877
vn -0.923871 0.004405 -0.382680
vn -0.923871 0.004405 -0.382680
vn -0.382680 0.004405 -0.923871
vn -0.382680 0.004405 -0.923871
vn 0.382680 0.004405 -0.923871
vn 0.382680 0.004405 -0.923871
vn 0.923871 0.004405 -0.382680
vn 0.923871 0.004405 -0.382680
vn 0.923871 0.004405 0.382680
vn 0.923871 0.004405 0.382680
vn 0.382680 0.004405 0.923871
vn 0.382680 0.004405 0.923871
vn -0.382680 0.004405 0.923871
vn -0.382680 0.004405 0.923871
vn -0.923871 0.004405 0.382680
vn -0.923871 0.004405 0.382680
vn 0.948737 -0.312305 -0.048625
vn 0.948737 -0.312305 -0.048625
vn 0.948737 -0.312305 -0.048625
vn 0.948737 -0.312305 -0.048625
vn -0.237372 0.004631 0.971408
vn -0.237372 0.004631 0.971408
vn -0.237372 0.004631 0.971408
vn -0.237372 0.004631 0.971408
vn 0.918413 0.002442 0.395616
vn 0.918413 0.002442 0.395616
vn 0.918413 0.002442 0.395616
vn 0.918413 0.002442 0.395616
vn -0.024678 -0.996765 0.076487
vn -0.024678 -0.996765 0.076487
vn -0.061469 -0.969216 0.238417
vn -0.064953 -0.965074 0.253796
vn 0.929036 0.001764 0.369984
vn 0.929036 0.001764 0.369984
vn 0.952664 0.001450 0.304022
vn 0.946231 0.001542 0.323488
vn -0.021975 0.997436 0.068112
vn -0.021975 0.997436 0.068112
vn 0.042779 0.981628 -0.185948
vn 0.037070 0.985830 -0.163601
vn -0.918848 0.002647 -0.394602
vn -0.918848 0.002647 -0.394602
vn -0.939372 0.003336 -0.342882
vn -0.947145 0.003623 -0.320784
vn -0.117030 -0.870015 0.478934
vn -0.115486 -0.873669 0.472616
vn 0.973999 0.001080 0.226550
vn 0.974353 0.001073 0.225022
vn 0.099141 0.908603 -0.405724
vn 0.098968 0.908937 -0.405018
vn -0.984819 0.005043 -0.173510
vn -0.994511 0.005331 -0.104501
vn -0.140324 -0.806557 0.574261
vn -0.140324 -0.806557 0.574261
vn 0.973391 0.001092 0.229147
vn 0.973391 0.001092 0.229147
vn 0.096332 0.913949 -0.394230
vn 0.096332 0.913949 -0.394230
vn -0.999907 0.005756 0.012403
vn -0.999907 0.005756 0.012403
vn -0.178692 -0.983725 -0.018827
vn -0.178692 -0.983725 -0.018827
vn 0.251934 -0.964293 -0.081662
vn 0.153120 -0.985863 -0.068031
vn -0.395132 0.037168 -0.917872
vn -0.395132 0.037168 -0.917872
vn -0.249882 0.079472 -0.965010
vn -0.267117 0.074649 -0.960768
vn 0.192948 0.981089 0.015346
vn 0.192948 0.981089 0.015346
vn -0.087927 0.993643 0.070297
vn -0.154726 0.984489 0.082715
vn 0.411145 -0.032263 0.910999
vn 0.411145 -0.032263 0.910999
vn 0.300622 -0.074222 0.950851
vn 0.290241 -0.078016 0.953768
vn 0.427780 -0.894365 -0.130824
vn 0.437485 -0.889704 -0.130513
vn -0.004878 0.126996 -0.991891
vn -0.033249 0.130143 -0.990938
vn -0.292638 0.946950 0.132850
vn -0.285311 0.949163 0.132996
vn 0.111396 -0.134374 0.984649
vn 0.075043 -0.136940 0.987733
vn 0.106206 -0.985434 -0.132813
vn 0.106206 -0.985434 -0.132813
vn 0.027400 0.123290 -0.991992
vn 0.027400 0.123290 -0.991992
vn -0.003972 0.991129 0.132848
vn -0.003972 0.991129 0.132848
vn 0.033700 -0.139627 0.989631
vn 0.033700 -0.139627 0.989631
vn 0.029922 -0.996938 0.072239
vn 0.029922 -0.996938 0.072239
vn 0.079098 -0.978405 0.190962
vn 0.079074 -0.978419 0.190901
vn 0.936216 0.001093 -0.351424
vn 0.936216 0.001093 -0.351424
vn 0.935351 0.001087 -0.353718
vn 0.935690 0.001089 -0.352822
vn 0.028059 0.997308 0.067740
vn 0.028059 0.997308 0.067740
vn 0.028059 0.997308 0.067740
vn 0.028059 0.997308 0.067740
vn -0.910454 0.001093 0.413609
vn -0.910454 0.001093 0.413609
vn -0.910991 0.001090 0.412425
vn -0.911334 0.001088 0.411665
vn 0.194161 -0.861729 0.468748
vn 0.194161 -0.861729 0.468748
vn 0.933387 0.001074 -0.358871
vn 0.933387 0.001074 -0.358871
vn -0.162144 0.905801 -0.391451
vn -0.162144 0.905801 -0.391451
vn -0.162144 0.905801 -0.391451
vn -0.162144 0.905801 -0.391451
vn -0.913300 0.001076 0.407287
vn -0.913300 0.001076 0.407287
vn 0.037516 -0.995183 -0.090570
vn 0.037516 -0.995183 -0.090570
vn 0.037516 -0.995183 -0.090570
vn 0.037516 -0.995183 -0.090570
vn -0.906738 0.001115 -0.421693
vn -0.906738 0.001115 -0.421692
vn -0.909286 0.001100 -0.416170
vn -0.911477 0.001087 -0.411349
vn 0.035655 0.995650 -0.086080
vn 0.035655 0.995650 -0.086080
vn 0.080623 0.977555 -0.194642
vn 0.080645 0.977543 -0.194694
vn 0.939295 0.001114 0.343108
vn 0.939295 0.001114 0.343108
vn 0.935470 0.001088 0.353404
vn 0.937265 0.001100 0.348616
vn -0.210654 -0.834860 0.508561
vn -0.210654 -0.834860 0.508561
vn -0.210654 -0.834860 0.508561
vn -0.210654 -0.834860 0.508561
vn -0.916409 0.001058 -0.400241
vn -0.911785 0.001086 -0.410667
vn 0.210654 0.834859 -0.508562
vn 0.210654 0.834859 -0.508562
vn 0.935313 0.001087 0.353820
vn 0.931323 0.001060 0.364193
vn 0.039977 -0.994529 -0.096512
vn 0.039977 -0.994529 -0.096512
vn 0.039977 -0.994529 -0.096512
vn 0.039977 -0.994529 -0.096512
vn -0.900336 0.001151 -0.435194
vn -0.900336 0.001151 -0.435194
vn 0.058427 0.988276 -0.141054
vn 0.058427 0.988276 -0.141054
vn 0.058427 0.988276 -0.141054
vn 0.058427 0.988276 -0.141054
vn 0.944319 0.001150 0.329030
vn 0.944319 0.001150 0.329030
vn 0.000000 -1.000000 0.000000
vn 0.000000 -1.000000 0.000000
vn 0.001122 -0.999999 0.000007
vn 0.001452 -0.999999 0.000010
vn 0.000000 0.001869 -0.999998
vn 0.000000 0.001869 -0.999998
vn -0.183611 0.000930 -0.982999
vn -0.183837 0.000929 -0.982956
vn 0.000000 1.000000 -0.000003
vn 0.000000 1.000000 -0.000003
vn -0.001452 0.999999 -0.000011
vn -0.001123 0.999999 -0.000009
vn 0.000000 0.000000 1.000000
vn 0.000000 0.000000 1.000000
vn 0.215471 0.000895 0.976510
vn 0.215154 0.000893 0.976580
vn 0.064173 -0.997566 0.027281
vn 0.040404 -0.999043 0.016747
vn -0.334785 0.000108 -0.942294
vn -0.334785 0.000108 -0.942294
vn 0.035442 0.999245 0.015924
vn 0.059459 0.997893 0.025973
vn 0.444765 0.001847 0.895645
vn 0.444765 0.001847 0.895645
vn 0.093166 -0.994842 0.040130
vn 0.093166 -0.994842 0.040130
vn 0.470733 0.001212 -0.882275
vn 0.470733 0.001212 -0.882275
vn 0.470733 0.001212 -0.882275
vn 0.470733 0.001212 -0.882275
vn 0.088703 0.995325 0.038209
vn 0.088703 0.995325 0.038209
vn -0.317883 0.001211 0.948129
vn -0.317883 0.001211 0.948129
vn -0.317883 0.001211 0.948129
vn -0.317883 0.001211 0.948129
vn 0.923255 0.036755 -0.382425
vn 0.923255 0.036755 -0.382425
vn 0.382476 0.032957 0.923378
vn 0.382476 0.032957 0.923378
vn 0.382476 0.032957 0.923378
vn 0.382476 0.032957 0.923378
vn -0.922001 0.063737 -0.381905
vn -0.922001 0.063737 -0.381905
vn 0.382214 0.049515 -0.922746
vn 0.382214 0.049515 -0.922746
vn -0.276962 0.005704 -0.960864
vn -0.276962 0.005704 -0.960864
vn -0.276962 0.005704 -0.960864
vn -0.276962 0.005704 -0.960864
vn 0.532977 0.816822 -0.220766
vn 0.532977 0.816822 -0.220766
vn 0.532977 0.816822 -0.220766
vn 0.532977 0.816822 -0.220766
vn 0.533307 0.006291 0.845898
vn 0.533307 0.006291 0.845898
vn 0.533307 0.006291 0.845898
vn 0.533307 0.006291 0.845898
vn 0.000000 -0.683038 0.730383
vn 0.000000 -0.683038 0.730383
vn 0.000000 -0.683038 0.730383
vn 0.000000 -0.683038 0.730383
vn -0.541149 -0.643673 -0.541149
vn -0.541149 -0.643673 -0.541149
vn -0.541149 -0.643673 -0.541149
vn -0.541149 -0.643673 -0.541149
vn 0.956268 0.005537 -0.292440
vn 0.956268 0.005537 -0.292440
vn 0.956268 0.005537 -0.292440
vn 0.956268 0.005537 -0.292440
vn 0.160370 0.907955 0.387169
vn 0.160370 0.907955 0.387169
vn 0.160370 0.907955 0.387169
vn 0.160370 0.907955 0.387169
vn -0.955054 0.003496 0.296410
vn -0.955054 0.003496 0.296410
vn -0.955054 0.003496 0.296410
vn -0.955054 0.003496 0.296410
vn -0.841630 -0.540054 0.000000
vn -0.841630 -0.540054 0.000000
vn -0.841630 -0.540054 0.000000
vn -0.841630 -0.540054 0.000000
vn 0.495875 -0.712893 -0.495875
vn 0.495875 -0.712893 -0.495875
vn 0.495875 -0.712893 -0.495875
vn 0.495875 -0.712893 -0.495875
vn -0.365405 0.004310 0.930839
vn -0.365405 0.004310 0.930839
vn -0.365405 0.004310 0.930838
vn -0.365405 0.004310 0.930839
vn -0.395454 0.903762 -0.163802
vn -0.395454 0.903762 -0.163802
vn -0.395454 0.903762 -0.163802
vn -0.395454 0.903762 -0.163802
vn 0.361402 0.004762 -0.932398
vn 0.361402 0.004762 -0.932398
vn 0.361402 0.004762 -0.932398
vn 0.361402 0.004762 -0.932398
vn 0.539217 -0.646907 -0.539217
vn 0.539217 -0.646907 -0.539217
vn 0.539217 -0.646907 -0.539217
vn 0.539217 -0.646907 -0.539217
vn 0.000000 -0.608938 0.793218
vn 0.000000 -0.608938 0.793218
vn 0.000000 -0.608938 0.793218
vn 0.000000 -0.608938 0.793218
s 1
g polySurface1 pCylinder1
usemtl initialShadingGroup
f 148/453/281 149/454/282 309/455/283 302/456/284
s 2
f 149/454/285 150/457/286 308/458/287 309/455/288
s off
f 320/204/289 321/205/290 322/206/291 323/207/292
s 3
f 151/208/293 152/209/294 306/210/295 307/211/296
s 4
f 152/508/297 153/509/298 305/510/299 306/511/300
s off
f 315/546/301 316/547/302 317/548/303 318/549/304
s 5
f 154/252/305 155/253/306 303/254/307 304/255/308
s off
f 310/256/309 311/262/310 312/263/311 313/257/312
s 6
f 149/342/313 148/343/314 164/344/315
f 150/347/316 149/342/313 164/344/315
s off
f 321/354/317 320/351/318 324/350/319
s 7
f 152/357/320 151/353/321 164/344/322
f 153/359/323 152/357/320 164/344/322
s off
f 316/355/324 315/358/325 319/356/326
f 155/349/327 154/352/328 164/344/329
f 311/345/330 310/348/331 314/346/332
s 8
f 156/360/333 157/361/334 165/362/335
f 157/361/334 158/363/336 165/362/335
f 158/363/336 159/365/337 165/362/335
f 159/365/337 160/367/338 165/362/335
f 160/367/338 161/368/339 165/362/335
f 161/368/339 162/366/340 165/362/335
f 162/366/340 163/364/341 165/362/335
f 163/364/341 156/360/333 165/362/335
s off
f 167/283/342 166/289/343 233/290/344 234/287/345
s 5
f 168/284/346 167/283/347 234/287/348 235/288/349
s 10
f 169/525/350 168/527/351 235/530/352 236/528/353
s 4
f 170/526/354 169/525/355 236/528/356 237/529/357
s 3
f 171/225/358 170/224/359 237/227/360 230/228/361
s 13
f 172/229/362 171/225/363 230/228/364 231/232/365
s 2
f 173/475/366 172/474/367 231/477/368 232/478/369
s 15
f 166/479/370 173/475/371 232/478/372 233/482/373
s 16
f 175/258/374 174/265/375 217/268/376 218/266/377
s 5
f 176/259/378 175/258/379 218/266/380 219/267/381
s off
f 275/550/382 274/551/383 276/552/384 277/553/385
s 4
f 178/513/386 177/512/387 220/516/388 221/517/389
s 3
f 179/213/390 178/212/391 221/214/392 214/215/393
s 13
f 180/217/394 179/213/395 214/215/396 215/220/397
s 2
f 181/459/398 180/465/399 215/466/400 216/467/401
s off
f 287/554/402 286/555/403 288/556/404 289/557/405
s 18
f 183/293/406 182/296/407 190/299/408 191/297/409
s 5
f 184/294/410 183/293/411 191/297/412 192/298/413
s 10
f 185/534/414 184/533/415 192/535/416 193/536/417
s 21
f 186/538/418 185/534/419 193/536/420 194/541/421
s 3
f 187/236/422 186/235/423 194/240/424 195/241/425
s 13
f 188/242/426 187/236/427 195/241/428 196/247/429
s 2
f 189/486/430 188/485/431 196/490/432 197/491/433
s 15
f 182/492/434 189/486/435 197/491/436 190/499/437
s 18
f 191/297/409 190/299/408 198/302/438 199/300/439
s 5
f 192/298/413 191/297/412 199/300/440 200/301/441
s 10
f 193/536/417 192/535/416 200/539/442 201/540/443
s 21
f 194/541/421 193/536/420 201/540/444 202/544/445
s 3
f 195/241/425 194/240/424 202/245/446 203/246/447
s 13
f 196/247/429 195/241/428 203/246/448 204/250/449
s 2
f 197/491/433 196/490/432 204/497/450 205/498/451
s 15
f 190/499/437 197/491/436 205/498/452 198/504/453
s 18
f 199/300/439 198/302/438 156/305/454 163/303/455
s 5
f 200/301/441 199/300/440 163/303/456 162/304/457
s 10
f 201/540/443 200/539/442 162/542/458 161/543/459
s 21
f 202/544/445 201/540/444 161/543/460 160/545/461
s 3
f 203/246/447 202/245/446 160/248/462 159/249/463
s 13
f 204/250/449 203/246/448 159/249/464 158/251/465
s 2
f 205/498/451 204/497/450 158/502/466 157/503/467
s 15
f 198/504/453 205/498/452 157/503/468 156/507/469
s 13
f 207/223/470 206/219/471 239/222/472 240/226/473
s 2
f 208/469/474 207/468/475 240/470/476 241/471/477
s 15
f 209/473/478 208/469/479 241/471/480 242/476/481
s 16
f 210/269/482 209/275/483 242/282/484 243/276/485
s 5
f 211/270/486 210/269/487 243/276/488 244/277/489
s 10
f 212/518/490 211/521/491 244/524/492 245/522/493
s 4
f 213/519/494 212/518/495 245/522/496 238/523/497
s 3
f 206/219/498 213/218/499 238/221/500 239/222/501
s 13
f 215/220/397 214/215/396 206/219/471 207/223/470
s 2
f 216/467/401 215/466/400 207/468/475 208/469/474
s 15
f 217/472/502 216/467/503 208/469/479 209/473/478
s 16
f 218/266/377 217/268/376 209/275/483 210/269/482
s 5
f 219/267/381 218/266/380 210/269/487 211/270/486
s 10
f 220/516/504 219/520/505 211/521/491 212/518/490
s 4
f 221/517/389 220/516/388 212/518/495 213/519/494
s 3
f 214/215/393 221/214/392 213/218/499 206/219/498
s 13
f 223/237/506 222/231/507 187/236/427 188/242/426
s 2
f 224/481/508 223/480/509 188/485/431 189/486/430
s 15
f 225/487/510 224/481/511 189/486/435 182/492/434
s 18
f 226/291/512 225/295/513 182/296/407 183/293/406
s 5
f 227/292/514 226/291/515 183/293/411 184/294/410
s 10
f 228/532/516 227/531/517 184/533/415 185/534/414
s 21
f 229/537/518 228/532/519 185/534/419 186/538/418
s 3
f 222/231/520 229/230/521 186/235/423 187/236/422
s 13
f 231/232/365 230/228/364 222/231/507 223/237/506
s 2
f 232/478/369 231/477/368 223/480/509 224/481/508
s 15
f 233/482/373 232/478/372 224/481/511 225/487/510
s off
f 267/306/522 266/307/523 268/308/524 269/309/525
s 5
f 235/288/349 234/287/348 226/291/515 227/292/514
s 10
f 236/528/353 235/530/352 227/531/517 228/532/516
s off
f 255/558/526 254/559/527 256/560/528 257/561/529
s 3
f 230/228/361 237/227/360 229/230/521 222/231/520
f 239/222/501 238/221/500 170/224/359 171/225/358
s 13
f 240/226/473 239/222/472 171/225/363 172/229/362
s 2
f 241/471/477 240/470/476 172/474/367 173/475/366
s 15
f 242/476/481 241/471/480 173/475/371 166/479/370
s off
f 299/310/530 298/311/531 300/312/532 301/313/533
s 5
f 244/277/489 243/276/488 167/283/347 168/284/346
s 10
f 245/522/493 244/524/492 168/527/351 169/525/350
s 4
f 238/523/497 245/522/496 169/525/355 170/526/354
s 28
f 237/369/534 236/370/535 246/371/536 247/372/537
s 29
f 236/314/538 228/315/539 248/316/540 246/317/541
s 30
f 228/377/542 229/378/543 249/379/544 248/380/545
s 31
f 229/230/546 237/227/547 247/233/548 249/234/549
s 28
f 247/372/537 246/371/536 250/373/550 251/374/551
s 29
f 246/317/541 248/316/540 252/318/552 250/319/553
s 30
f 248/380/545 249/379/544 253/381/554 252/382/555
s 31
f 249/234/549 247/233/548 251/238/556 253/239/557
s 28
f 251/374/551 250/373/550 254/375/558 255/376/559
s 29
f 250/319/553 252/318/552 256/320/560 254/321/561
s 30
f 252/382/555 253/381/554 257/383/562 256/384/563
s 31
f 253/239/557 251/238/556 255/243/564 257/244/565
s 32
f 234/385/566 233/386/567 258/387/568 259/388/569
s 33
f 233/482/570 225/487/571 260/493/572 258/494/573
s 34
f 225/393/574 226/394/575 261/395/576 260/396/577
s 35
f 226/562/578 234/563/579 259/564/580 261/565/581
s 32
f 259/388/569 258/387/568 262/389/582 263/390/583
s 33
f 258/494/573 260/493/572 264/500/584 262/501/585
s 34
f 260/396/577 261/395/576 265/397/586 264/398/587
s 35
f 261/565/581 259/564/580 263/566/588 265/567/589
s 32
f 263/390/583 262/389/582 266/391/590 267/392/591
s 33
f 262/501/585 264/500/584 268/505/592 266/506/593
s 34
f 264/398/587 265/397/586 269/399/594 268/400/595
s 35
f 265/567/589 263/566/588 267/568/596 269/569/597
s 36
f 177/401/598 176/402/599 270/403/600 271/404/601
s 37
f 176/259/602 219/267/603 272/271/604 270/272/605
s off
f 219/407/606 220/408/607 273/409/608 272/410/609
s 38
f 220/322/610 177/323/611 271/324/612 273/325/613
s 36
f 271/404/601 270/403/600 274/405/614 275/406/615
s 37
f 270/272/605 272/271/604 276/278/616 274/279/617
s off
f 272/410/618 273/409/619 277/411/620 276/412/621
s 38
f 273/325/613 271/324/612 275/326/622 277/327/623
s off
f 174/413/624 181/414/625 278/415/626 279/416/627
s 39
f 181/328/628 216/329/629 280/330/630 278/331/631
s 40
f 216/421/632 217/422/633 281/423/634 280/424/635
s 41
f 217/268/636 174/265/637 279/273/638 281/274/639
s off
f 279/416/640 278/415/641 282/417/642 283/418/643
s 39
f 278/331/631 280/330/630 284/332/644 282/333/645
s 40
f 280/424/635 281/423/634 285/425/646 284/426/647
s 41
f 281/274/639 279/273/638 283/280/648 285/281/649
s off
f 283/418/650 282/417/651 286/419/652 287/420/653
s 39
f 282/333/645 284/332/644 288/334/654 286/335/655
s off
f 284/426/656 285/425/657 289/427/658 288/428/659
s 41
f 285/281/649 283/280/648 287/285/660 289/286/661
s 42
f 243/429/662 242/430/663 290/431/664 291/432/665
s 43
f 242/476/666 166/479/667 292/483/668 290/484/669
s 44
f 166/437/670 167/438/671 293/439/672 292/440/673
s 45
f 167/570/674 243/571/675 291/572/676 293/573/677
s 42
f 291/432/665 290/431/664 294/433/678 295/434/679
s 43
f 290/484/669 292/483/668 296/488/680 294/489/681
s 44
f 292/440/673 293/439/672 297/441/682 296/442/683
s 45
f 293/573/677 291/572/676 295/574/684 297/575/685
s 42
f 295/434/679 294/433/678 298/435/686 299/436/687
s off
f 294/489/688 296/488/689 300/495/690 298/496/691
s 44
f 296/442/683 297/441/682 301/443/692 300/444/693
s off
f 297/575/694 295/574/695 299/576/696 301/577/697
s 16
f 303/254/698 302/264/699 174/265/375 175/258/374
s 5
f 304/255/308 303/254/307 175/258/379 176/259/378
s off
f 305/510/700 304/514/701 176/515/702 177/512/703
s 4
f 306/511/300 305/510/299 177/512/387 178/513/386
s 3
f 307/211/296 306/210/295 178/212/391 179/213/390
s 13
f 308/216/704 307/211/705 179/213/395 180/217/394
s 2
f 309/455/288 308/458/287 180/465/399 181/459/398
s 1
f 302/456/284 309/455/283 181/459/706 174/460/707
s off
f 148/453/708 302/456/709 312/461/710 311/462/711
f 302/264/712 303/254/713 313/257/714 312/263/715
f 303/254/716 155/253/717 310/256/718 313/257/719
f 155/349/720 164/344/721 314/346/722 310/348/723
f 164/344/724 148/343/725 311/345/726 314/346/727
f 154/252/728 304/255/729 317/260/730 316/261/731
f 304/445/732 305/446/733 318/447/734 317/448/735
f 305/336/736 153/337/737 315/338/738 318/339/739
f 153/337/740 164/340/741 319/341/742 315/338/743
f 164/344/744 154/352/745 316/355/746 319/356/747
f 151/578/748 307/579/749 322/580/750 321/581/751
f 307/449/752 308/450/753 323/451/754 322/452/755
f 308/458/756 150/457/757 320/463/758 323/464/759
f 150/347/760 164/344/761 324/350/762 320/351/763
f 164/344/764 151/353/765 321/354/766 324/350/767
