# This file uses centimeters as units for non-parametric coordinates.

mtllib Rock_06.mtl
g default
v 10.436200 0.046152 4.486530
v 11.643417 0.046152 4.486530
v 10.781296 3.211792 4.067978
v 11.453882 3.211792 4.208693
v 10.716815 3.211792 2.592407
v 11.445726 3.211792 2.606171
v 10.708824 0.046152 2.567504
v 11.603362 0.046152 2.548750
v 11.096143 0.046152 5.098734
v 11.096143 3.211792 4.486530
v 11.096143 3.211792 2.199357
v 11.096143 0.046152 2.199357
v 10.517498 1.628972 4.315557
v 10.635489 1.628972 2.454760
v 11.096143 1.628972 2.026426
v 11.756086 1.628972 2.199357
v 11.756086 1.628972 4.207503
v 11.096143 1.628972 4.878328
v 10.436200 3.211792 3.342943
v 10.436200 1.628972 3.342943
v 10.329214 0.046152 3.342943
v 11.096143 0.046152 3.342943
v 11.756086 0.046152 3.342943
v 11.947641 1.628972 3.342943
v 11.756086 3.211792 3.342943
v 11.096143 3.679850 3.342943
vt 0.360794 0.327255
vt 0.360794 0.164536
vt 0.523513 0.164536
vt 0.523513 0.287553
vt 0.360794 0.051532
vt 0.523513 0.001817
vt 0.686232 0.164536
vt 0.686232 0.287722
vt 0.360794 0.414364
vt 0.523513 0.383003
vt 0.686232 0.059702
vt 0.672571 0.636823
vt 0.672571 0.474104
vt 0.835289 0.498431
vt 0.835289 0.636823
vt 0.998008 0.533659
vt 0.998008 0.636823
vt 0.672571 0.747158
vt 0.835289 0.763200
vt 0.835289 0.418356
vt 0.998008 0.474104
vt 0.998008 0.743615
vt 0.426086 0.477911
vt 0.503716 0.418356
vt 0.503716 0.581074
vt 0.340998 0.581074
vt 0.591922 0.457889
vt 0.666435 0.581074
vt 0.503716 0.743793
vt 0.410188 0.687867
vt 0.589911 0.685908
vt 0.001992 0.164536
vt 0.191090 0.164536
vt 0.191090 0.414364
vt 0.028371 0.327255
vt 0.095591 0.054200
vt 0.191090 0.001817
vt 0.353809 0.164536
vt 0.326029 0.327255
vt 0.316152 0.051532
vt 0.001992 0.747785
vt 0.164711 0.747785
vt 0.164711 0.910504
vt 0.022037 0.910504
vt 0.058563 0.581074
vt 0.172144 0.581074
vt 0.172144 0.743793
vt 0.076644 0.743793
vt 0.078615 0.418356
vt 0.172144 0.418356
vt 0.334862 0.581074
vt 0.297206 0.743793
vt 0.258339 0.418356
vt 0.171746 0.747785
vt 0.334465 0.747785
vt 0.259952 0.910504
vt 0.171746 0.910504
vn -0.684298 0.106756 0.721346
vn -0.684298 0.106756 0.721346
vn -0.684298 0.106756 0.721346
vn -0.684298 0.106756 0.721346
vn -0.513855 0.804996 0.296536
vn -0.513855 0.804996 0.296536
vn -0.513855 0.804996 0.296536
vn -0.513855 0.804996 0.296536
vn -0.682360 -0.081366 -0.726474
vn -0.682360 -0.081366 -0.726473
vn -0.682360 -0.081366 -0.726474
vn -0.682360 -0.081366 -0.726474
vn 0.000000 -1.000000 0.000000
vn 0.000000 -1.000000 0.000000
vn 0.000000 -1.000000 0.000000
vn 0.000000 -1.000000 0.000000
vn 0.985426 -0.081543 0.149287
vn 0.985426 -0.081543 0.149287
vn 0.985426 -0.081543 0.149287
vn 0.985426 -0.081543 0.149287
vn -0.994030 0.063899 0.088441
vn -0.994030 0.063899 0.088441
vn -0.994030 0.063899 0.088441
vn -0.994030 0.063899 0.088441
vn 0.725848 0.081915 0.682960
vn 0.725848 0.081915 0.682960
vn 0.725848 0.081915 0.682960
vn 0.725848 0.081915 0.682960
vn 0.461846 0.845969 0.266523
vn 0.461846 0.845969 0.266523
vn 0.461846 0.845969 0.266523
vn 0.461846 0.845969 0.266523
vn 0.402680 -0.167894 -0.899811
vn 0.402680 -0.167894 -0.899811
vn 0.402680 -0.167894 -0.899811
vn 0.402680 -0.167894 -0.899811
vn 0.000000 -1.000000 0.000000
vn 0.000000 -1.000000 0.000000
vn 0.000000 -1.000000 0.000000
vn 0.000000 -1.000000 0.000000
vn -0.965074 0.099379 0.242395
vn -0.965074 0.099379 0.242395
vn -0.965074 0.099379 0.242395
vn -0.965074 0.099379 0.242395
vn -0.696450 0.087767 -0.712218
vn -0.696450 0.087767 -0.712218
vn -0.696450 0.087767 -0.712218
vn -0.696450 0.087767 -0.712218
vn 0.487598 0.203300 -0.849068
vn 0.487598 0.203300 -0.849068
vn 0.487598 0.203300 -0.849068
vn 0.487598 0.203300 -0.849068
vn 0.950991 0.148228 0.271374
vn 0.950991 0.148228 0.271374
vn 0.950991 0.148228 0.271374
vn 0.950991 0.148228 0.271374
vn 0.673785 0.153509 0.722806
vn 0.673785 0.153509 0.722806
vn 0.673785 0.153509 0.722806
vn 0.673785 0.153509 0.722806
vn -0.725397 0.193847 0.660472
vn -0.725397 0.193847 0.660472
vn -0.725397 0.193847 0.660472
vn -0.725397 0.193847 0.660472
vn -0.959042 0.036850 -0.280858
vn -0.959042 0.036850 -0.280858
vn -0.959042 0.036850 -0.280858
vn -0.959042 0.036850 -0.280858
vn -0.944452 -0.001665 -0.328646
vn -0.944452 -0.001665 -0.328646
vn -0.944452 -0.001665 -0.328646
vn -0.944452 -0.001665 -0.328646
vn 0.000000 -1.000000 0.000000
vn 0.000000 -1.000000 0.000000
vn 0.000000 -1.000000 0.000000
vn 0.000000 -1.000000 0.000000
vn 0.000000 -1.000000 0.000000
vn 0.000000 -1.000000 0.000000
vn 0.000000 -1.000000 0.000000
vn 0.000000 -1.000000 0.000000
vn 0.976811 -0.125387 -0.173547
vn 0.976811 -0.125387 -0.173547
vn 0.976811 -0.125387 -0.173547
vn 0.976811 -0.125387 -0.173547
vn 0.949825 0.183177 -0.253532
vn 0.949825 0.183177 -0.253532
vn 0.949825 0.183177 -0.253532
vn 0.949825 0.183177 -0.253532
vn 0.495503 0.820190 -0.285946
vn 0.495503 0.820190 -0.285946
vn 0.495503 0.820190 -0.285946
vn 0.495503 0.820190 -0.285946
vn -0.479685 0.832631 -0.276818
vn -0.479685 0.832631 -0.276818
vn -0.479685 0.832631 -0.276818
vn -0.479685 0.832631 -0.276818
s off
g pCube4
usemtl initialShadingGroup
f 1/41/1 9/42/2 18/43/3 13/44/4
f 3/23/5 10/24/6 26/25/7 19/26/8
f 14/45/9 15/46/10 12/47/11 7/48/12
f 21/32/13 22/33/14 9/34/15 1/35/16
f 2/1/17 23/2/18 24/3/19 17/4/20
f 21/12/21 1/13/22 13/14/23 20/15/24
f 9/9/25 2/1/26 17/4/27 18/10/28
f 26/25/29 10/24/30 4/27/31 25/28/32
f 12/47/33 15/46/34 16/51/35 8/52/36
f 9/34/37 22/33/38 23/38/39 2/39/40
f 20/15/41 13/14/42 3/16/43 19/17/44
f 5/49/45 11/50/46 15/46/47 14/45/48
f 16/51/49 15/46/50 11/50/51 6/53/52
f 17/4/53 24/3/54 25/7/55 4/8/56
f 18/54/57 17/55/58 4/56/59 10/57/60
f 13/14/61 18/20/62 10/21/63 3/16/64
f 14/19/65 20/15/66 19/17/67 5/22/68
f 7/18/69 21/12/70 20/15/71 14/19/72
f 7/36/73 12/37/74 22/33/75 21/32/76
f 23/38/77 22/33/78 12/37/79 8/40/80
f 24/3/81 23/2/82 8/5/83 16/6/84
f 25/7/85 24/3/86 16/6/87 6/11/88
f 11/29/89 26/25/90 25/28/91 6/31/92
f 19/26/93 26/25/94 11/29/95 5/30/96
